<?xml version="1.0"?>

<robot name="rescuer" xmlns:xacro="http://www.ros.org/wiki/xacro">

	<xacro:include filename="$(find rescuer_description)/urdf/rover/rover.gazebo.xacro" />
	<!--xacro:include filename="$(find rescuer_description)/urdf/rover/rover.transmission.xacro" /-->

	<xacro:macro name="rescuer_rover_urdf" params="name *origin">

		<joint name="${name}_base_joint" type="fixed" >
			<insert_block name="origin" />
			<parent link="${name}_base_link" />
			<child link="${name}_chains_link" />
		</joint>

		<link name="${name}_base_link">
			<inertial>
				<origin xyz="-0.002618 0.000006 0.204921" rpy="0 0 0" />
				<!--mass value="0.001"/-->
				<mass value="200"/>
				<inertia ixx="2.7532e-02"	ixy="1.5577e-06"	ixz="-7.8932e-04" 
						iyy="5.8836e-02" 	iyz="-8.9012e-07" 
							izz="7.1819e-02" />
			</inertial>
			
			<visual>
				<origin xyz="0 0 0" rpy="0 0 0" />
				<geometry>
					<mesh filename="package://rescuer_description/meshes/rover/rescuer_uji_3n.dae" />
				</geometry>
				<material name="Rover/Red" />
			</visual>
			
			<collision>
				<!--origin xyz="0 0 0.175" rpy="0 0 0" /-->
				<origin xyz="0 0 0" rpy="0 0 0" />
				<geometry>
					<!--box size="1.20 0.78 0.50" /-->
					<mesh filename="package://rescuer_description/meshes/rover/rescuer_uji_3n.dae" />
				</geometry>
			</collision>
		</link>

		<link name="${name}_chains_link">
			<inertial>
				<origin xyz="0 0 0" rpy="0 0 0" />
				<mass value="10"/>
				<inertia ixx="1.0" ixy="0" ixz="0" iyy="1.0" iyz="0" izz="1.0" />
			</inertial>
			
			<visual>
				<origin xyz="0 0 0" rpy="0 0 0" />
				<geometry>
					<mesh filename="package://rescuer_description/meshes/rover/rescuer_uji_cadena3.dae" />
				</geometry>
				<material name="Rover/Black" />
			</visual>
			
			<collision>
				<origin xyz="0 0 0" rpy="0 0 0" />
				<geometry>
					<mesh filename="package://rescuer_description/meshes/rover/rescuer_uji_cadena3.dae" />
					<!--box size="0.01 0.01 0.01" /-->
				</geometry>
			</collision>
		</link>

		<!-- extensions -->
		<xacro:rescuer_rover_gazebo name="${name}" />
		<!--xacro:rescuer_rover_transmission name="${name}" /-->

	</xacro:macro>
</robot>
