<?xml version="1.0" encoding="UTF-8"?>
<COLLADA xmlns="http://www.collada.org/2005/11/COLLADASchema" version="1.4.1">
    <asset>
        <contributor>
            <author>VCGLab</author>
            <authoring_tool>VCGLib | MeshLab</authoring_tool>
        </contributor>
        <up_axis>Y_UP</up_axis>
        <created>mar nov 10 10:55:06 2015</created>
        <modified>mar nov 10 10:55:06 2015</modified>
    </asset>
    <library_images/>
    <library_materials/>
    <library_effects/>
    <library_geometries>
        <geometry id="shape0-lib" name="shape0">
            <mesh>
                <source id="shape0-lib-positions" name="position">
                    <float_array id="shape0-lib-positions-array" count="1380">-0.012 0.0112 0.0045 -0.012 -0.0069 0.0045 -0.012 -0.0069 0.0092889 -0.012 0.01475 0.0092889 -0.011996 0.02645 0.00928225 -0.0105156 0.0183054 0.00725755 -0.0110419 0.0176869 0.00789496 -0.0114157 0.0170955 0.00839561 -0.0115119 0.0169047 0.00853278 -0.0117551 0.016295 0.00889629 -0.0132671 0.02645 0.0120298 -0.0132671 0.0112 0.0120298 -0.0139179 0.0112 0.0149863 -0.00785662 0.02645 0.00491235 -0.0101639 0.02645 0.00687221 -0.00860996 0.0194837 0.00546059 -0.0101582 0.0186039 0.00687765 -0.00782112 0.0196821 0.00488836 -0.00785578 0.0196734 0.00491351 0.0037454 0.02645 0.0030103 0.000757945 0.01975 0.00252053 -0.00226495 0.01975 0.00268443 0.000757945 0.02645 0.00252053 -0.00518193 0.02645 0.00349433 0.00906341 0.02645 0.00582973 0.00811875 0.0196232 0.00509448 0.0107065 0.0181058 0.00747945 0.0100177 0.0187366 0.00672018 0.00993507 0.0187891 0.00664111 0.0119625 0.0153609 0.00922691 0.0115714 0.0167755 0.00861944 0.0111978 0.0174663 0.00809709 0.0127061 0.02645 0.0106216 0.0111453 0.02645 0.00802756 0.0111436 0.0175369 0.00802892 0.012 0.01475 0.0092889 0.0136727 0.02645 0.0134904 0.0136727 0.0112 0.0134904 0.014 0.0112 0.0165 0.0136727 0.0112 0.0195096 0.0127061 0.02645 0.0223784 0.0111453 0.0112 0.0249724 0.00906341 0.02645 0.0271703 0.00655772 0.0112 0.0288692 0.00655772 0.02645 0.0288692 0.0037454 0.02645 0.0299897 0.0037454 0.0112 0.0299897 0.000757945 0.0112 0.0304795 -0.00226495 0.02645 0.0303156 -0.00518193 0.02645 0.0295057 -0.00226495 0.0112 0.0303156 -0.0101639 0.02645 0.0261278 -0.0101639 0.0112 0.0261278 -0.0132671 0.02645 0.0209702 -0.011996 0.0112 0.0237178 -0.0139179 0.0112 0.0180137 -0.014 0.02645 0.0165 -0.0139179 0.02645 0.0149863 0.0115119 -0.0169047 0.00853278 0.0128045 -0.01975 0.0108392 0.0117551 -0.016295 0.00889629 0.0118577 -0.0159343 0.00905724 0.00993138 -0.0187855 0.00664035 0.0105156 -0.0183054 0.00725755 0.0110127 -0.017733 0.00785587 0.0110419 -0.0176869 0.00789496 0.011254 -0.01975 0.00817248 0.0114157 -0.0170955 0.00839561 0.007 -0.01975 0.00437564 0.00854381 -0.0195003 0.0054126 0.00915713 -0.01975 0.00591006 0.00915431 -0.0192528 0.00591317 -0.0088625 -0.0193902 0.00566228 -0.0085406 -0.019491 0.00541653 -0.00915713 -0.01975 0.00591006 -0.0111978 -0.0174663 0.00809709 -0.0110336 -0.0176801 0.00789059 -0.0107065 -0.0181058 0.00747945 -0.0106361 -0.018182 0.00739656 -0.0100177 -0.0187366 0.00672018 -0.0119625 -0.0153609 0.00922691 -0.0128045 -0.01975 0.0108392 -0.0119109 -0.0156897 0.00914267 -0.0117416 -0.0163366 0.00887537 -0.011254 -0.01975 0.00817248 0.012 -0.01475 0.0092889 0.0137334 -0.01975 0.0137807 0.0135782 -0.0069 0.0199106 0.0135782 -0.01975 0.0199106 0.0108183 -0.0069 0.0253862 0.0125017 -0.01975 0.0228014 0.0108183 -0.01975 0.0253862 0.00860963 -0.0069 0.0275397 0.00860963 -0.01975 0.0275397 0.00598301 -0.0069 0.0291572 0.00598301 -0.01975 0.0291572 0.00306593 -0.01975 0.0301602 -1.0016e-17 -0.01975 0.0305 -1.0016e-17 -0.0069 0.0305 -0.00306593 -0.0069 0.0301602 -0.00598301 -0.0069 0.0291572 -0.00598301 -0.01975 0.0291572 -0.00860963 -0.01975 0.0275397 -0.00860963 -0.0069 0.0275397 -0.0108183 -0.0069 0.0253862 -0.0108183 -0.01975 0.0253862 -0.0125017 -0.0069 0.0228014 -0.0125017 -0.01975 0.0228014 -0.0135782 -0.0069 0.0199106 -0.0135782 -0.01975 0.0199106 -0.012 -0.01475 0.0092889 0.0139955 -0.01975 0.0168543 -0.007 -0.01975 0.0011 -0.007 -0.01975 0.00437564 -2.88469e-18 -0.01975 0.0011 -0.00306593 -0.01975 0.0301602 -0.0137334 -0.01975 0.0137807 -0.0139955 -0.01975 0.0168543 -0.00226495 0.02645 0.00268443 0.00655772 0.02645 0.00413083 0.014 0.02645 0.0165 0.0136727 0.02645 0.0195096 0.0111453 0.02645 0.0249724 -0.0139179 0.02645 0.0180137 -0.00785662 0.02645 0.0280876 0.000757945 0.02645 0.0304795 -0.011996 0.02645 0.0237178 0.00655772 0.01975 0.00413083 0.007 0.01975 0.0011 -0.007 0.01975 0.00437564 -0.00518193 0.01975 0.00349433 0.0037454 0.01975 0.0030103 -0.0143984 0.0171594 0.0011 -0.0143984 -0.0171594 0.0011 -0.019399 0.0112 0.0011 -0.0220597 0.00388972 0.0011 -0.00854508 -0.0195053 0.0011 -0.0112 -0.019399 0.0011 -0.00766125 -0.0210491 0.0011 -0.0171594 -0.0143984 0.0011 -0.012 -0.01475 0.0011 -0.0220597 -0.00388972 0.0011 0.00388972 0.0220597 0.0011 0.00766125 0.0210491 0.0011 0.00854508 0.0195053 0.0011 0.0143984 0.0171594 0.0011 -0.00388972 -0.0220597 0.0011 -0.00388972 0.0220597 0.0011 -0.007 0.01975 0.0011 -6.99937e-18 0.0224 0.0011 0.00766125 -0.0210491 0.0011 0.007 -0.01975 0.0011 0.019399 -0.0112 0.0011 0.0220597 -0.00388972 0.0011 0.012 0.01475 0.0011 0.0110451 0.0176889 0.0011 0.0117553 0.0162951 0.0011 0.0224 -7.03335e-10 0.0011 0.0220597 0.00388972 8.9407e-11 0.0220597 0.00388972 0.0011 0.0210491 0.00766125 0.0011 0.0210491 0.00766125 8.9407e-11 0.019399 0.0112 0.0011 0.0171594 0.0143984 0.0011 0.0171594 0.0143984 8.9407e-11 0.0112 0.019399 0.0011 -0.00766125 0.0210491 8.9407e-11 -0.00766125 0.0210491 0.0011 -0.0112 0.019399 8.9407e-11 -0.0143984 0.0171594 8.9407e-11 -0.0112 0.019399 0.0011 -0.0171594 0.0143984 8.9407e-11 -0.0171594 0.0143984 0.0011 -0.019399 0.0112 8.9407e-11 -0.0210491 0.00766125 8.9407e-11 -0.0210491 0.00766125 0.0011 -0.0224 -7.03335e-10 0.0011 -0.0210491 -0.00766125 0.0011 -0.019399 -0.0112 0.0011 -0.019399 -0.0112 8.9407e-11 -1.34253e-18 -0.0224 8.9407e-11 -1.51313e-18 -0.0224 0.0011 0.00388972 -0.0220597 0.0011 0.0112 -0.019399 0.0011 0.0143984 -0.0171594 0.0011 0.0171594 -0.0143984 8.9407e-11 0.0171594 -0.0143984 0.0011 0.0220597 -0.00388972 8.9407e-11 0.0210491 -0.00766125 0.0011 -0.00184537 0.0199147 8.9407e-11 0.00547326 0.0192365 8.9407e-11 0.00388972 0.0220597 8.9407e-11 0.00766125 0.0210491 8.9407e-11 0.0112 0.019399 8.9407e-11 0.0143984 0.0171594 8.9407e-11 0.0170043 0.0105286 8.9407e-11 0.019399 0.0112 8.9407e-11 0.0224 -7.03335e-10 8.9407e-11 0.0196595 -0.00367499 8.9407e-11 0.0186494 -0.00722483 8.9407e-11 0.0210491 -0.00766125 8.9407e-11 0.019399 -0.0112 8.9407e-11 0.0120527 -0.0159603 8.9407e-11 0.00891477 -0.0179033 8.9407e-11 0.0143984 -0.0171594 8.9407e-11 0.0112 -0.019399 8.9407e-11 0.00766125 -0.0210491 8.9407e-11 0.00388972 -0.0220597 8.9407e-11 0.00184537 -0.0199147 8.9407e-11 -0.00184537 -0.0199147 8.9407e-11 -0.00388972 -0.0220597 8.9407e-11 -0.00766125 -0.0210491 8.9407e-11 -0.00891477 -0.0179033 8.9407e-11 -0.0112 -0.019399 8.9407e-11 -0.0143984 -0.0171594 8.9407e-11 -0.0171594 -0.0143984 8.9407e-11 -0.0170043 -0.0105286 8.9407e-11 -0.0210491 -0.00766125 8.9407e-11 -0.0196595 -0.00367499 8.9407e-11 -0.0220597 -0.00388972 8.9407e-11 -0.0196595 0.00367499 8.9407e-11 -0.0224 -7.03335e-10 8.9407e-11 -0.0220597 0.00388972 8.9407e-11 -0.0186494 0.00722483 8.9407e-11 -0.0120527 0.0159603 8.9407e-11 -0.00891477 0.0179033 8.9407e-11 -0.00388972 0.0220597 8.9407e-11 -6.82877e-18 0.0224 8.9407e-11 0.02 -7.03335e-10 -0.001 0.02 -7.03335e-10 8.9407e-11 0.0196595 0.00367499 8.9407e-11 0.0186494 0.00722483 8.9407e-11 0.0147802 0.0134739 -0.001 0.0147802 0.0134739 8.9407e-11 0.0120527 0.0159603 8.9407e-11 0.00891477 0.0179033 -0.001 0.00891477 0.0179033 8.9407e-11 0.00184537 0.0199147 8.9407e-11 -0.00547326 0.0192365 8.9407e-11 -0.0170043 0.0105286 -0.001 -0.0147802 0.0134739 8.9407e-11 -0.0170043 0.0105286 8.9407e-11 -0.0196595 0.00367499 -0.001 -0.02 -7.03335e-10 -0.001 -0.02 -7.03335e-10 8.9407e-11 -0.0170043 -0.0105286 -0.001 -0.0186494 -0.00722483 8.9407e-11 -0.0147802 -0.0134739 8.9407e-11 -0.0120527 -0.0159603 8.9407e-11 -0.00547326 -0.0192365 8.9407e-11 -0.00547326 -0.0192365 -0.001 0.00184537 -0.0199147 -0.001 0.00547326 -0.0192365 8.9407e-11 0.00891477 -0.0179033 -0.001 0.0120527 -0.0159603 -0.001 0.0147802 -0.0134739 8.9407e-11 0.0170043 -0.0105286 8.9407e-11 0.0186494 -0.00722483 -0.001 0.0196595 -0.00367499 -0.001 -0.00891477 -0.0179033 -0.001 -0.00184537 -0.0199147 -0.001 -0.0120527 -0.0159603 -0.001 -0.0147802 -0.0134739 -0.001 -0.0147802 0.0134739 -0.001 -0.0120527 0.0159603 -0.001 -0.0186494 -0.00722483 -0.001 -0.0196595 -0.00367499 -0.001 0.0170043 -0.0105286 -0.001 0.00547326 -0.0192365 -0.001 0.0120527 0.0159603 -0.001 0.0147802 -0.0134739 -0.001 -0.0186494 0.00722483 -0.001 -0.00891477 0.0179033 -0.001 0.00547326 0.0192365 -0.001 0.00184537 0.0199147 -0.001 -0.00547326 0.0192365 -0.001 -0.00184537 0.0199147 -0.001 0.0196595 0.00367499 -0.001 0.0186494 0.00722483 -0.001 0.0170043 0.0105286 -0.001 -0.012 0.0112 0.0165 -0.0116765 0.0112 0.0137326 -0.012 0.0112 0.0092889 -0.00919253 0.0112 0.00878655 -0.0071659 0.0112 0.00687452 0.012 0.0112 0.0092889 0.0119189 0.0112 0.0151069 0.00344164 0.0112 0.00500413 0.00272435 0.0112 0.00246191 0.00534891 0.0112 0.00323806 0.006 0.0112 0.0061077 0.00777753 0.0112 0.0045 0.012 0.0112 0.0045 0.0082349 0.0112 0.00777152 0.0127061 0.0112 0.0106216 0.0112763 0.0112 0.0206042 0.0127061 0.0112 0.0223784 0.0100259 0.0112 0.0230941 0.0082349 0.0112 0.0252285 0.00906341 0.0112 0.0271703 -0.00208378 0.0112 0.0283177 -0.00475296 0.0112 0.0275186 -0.00518193 0.0112 0.0295057 -0.0071659 0.0112 0.0261255 -0.00785662 0.0112 0.0280876 -0.00919253 0.0112 0.0242135 -0.0132671 0.0112 0.0209702 -0.00777753 0.0112 0.0045 -0.00534891 0.0112 0.00323806 -7.5565e-19 -0.0069 0.0022 -0.00272435 0.0112 0.00246191 -7.5565e-19 0.0112 0.0022 0.00272435 -0.0069 0.00246191 0.0038206 -0.0069 0.0112414 0.0137334 -0.0069 0.0137807 0.00525861 -0.0069 0.0126794 0.0128045 -0.0069 0.0108392 0.012 -0.0069 0.0092889 -0.00618187 -0.0069 0.0144914 -0.00777753 -0.0069 0.0045 -0.00534891 -0.0069 0.00323806 0.00534891 -0.0069 0.00323806 -0.00272435 -0.0069 0.00246191 -0.0065 -0.0069 0.0165 -0.00525861 -0.0069 0.0203206 0.0125017 -0.0069 0.0228014 0.00618187 -0.0069 0.0185086 0.0139955 -0.0069 0.0168543 0.0065 -0.0069 0.0165 6.85963e-19 -0.0069 0.023 0.00306593 -0.0069 0.0301602 0.00200861 -0.0069 0.0226819 0.0038206 -0.0069 0.0217586 0.00525861 -0.0069 0.0203206 -0.0128045 -0.0069 0.0108392 -0.0137334 -0.0069 0.0137807 -0.0038206 -0.0069 0.0217586 -0.0139955 -0.0069 0.0168543 0.0082349 0.0167 0.00777152 0.0100259 0.0167 0.00990589 0.006 0.0167 0.0268923 -0.00919253 0.0167 0.00878655 0.00344164 0.0167 0.0279959 0.0119189 0.0167 0.0151069 0.006 0.0167 0.0061077 0.000697738 0.0167 0.0045203 -0.00208378 0.0167 0.00468231 -0.0071659 0.0167 0.00687452 0.0082349 0.0167 0.0252285 0.0112763 0.0167 0.0206042 -0.0107236 0.0167 0.0218856 -0.0116765 0.0167 0.0192674 0.000697738 0.0167 0.0284797 -0.0071659 0.0167 0.0261255 -0.012 0.0167 0.0165 -0.0116765 0.0167 0.0137326 -0.0107236 0.0167 0.0111144 -0.0107236 0.0112 0.0111144 -0.00475296 0.0112 0.00548141 -0.00475296 0.0167 0.00548141 -0.00208378 0.0112 0.00468231 0.000697738 0.0112 0.0045203 0.00344164 0.0167 0.00500413 0.0100259 0.0112 0.00990589 0.0112763 0.0112 0.0123958 0.0112763 0.0167 0.0123958 0.0119189 0.0112 0.0178931 0.0119189 0.0167 0.0178931 0.0100259 0.0167 0.0230941 0.006 0.0112 0.0268923 0.00344164 0.0112 0.0279959 0.000697738 0.0112 0.0284797 -0.00208378 0.0167 0.0283177 -0.00475296 0.0167 0.0275186 -0.00919253 0.0167 0.0242135 -0.0107236 0.0112 0.0218856 -0.0116765 0.0112 0.0192674 -0.00618187 -0.0129 0.0144914 -0.00525861 -0.0069 0.0126794 -0.0038206 -0.0129 0.0112414 -0.0038206 -0.0069 0.0112414 -0.00200861 -0.0069 0.0103181 -4.663e-18 -0.0129 0.01 -4.663e-18 -0.0069 0.01 0.00200861 -0.0069 0.0103181 0.00525861 -0.0129 0.0126794 0.00618187 -0.0129 0.0144914 0.00618187 -0.0069 0.0144914 0.00618187 -0.0129 0.0185086 0.00525861 -0.0129 0.0203206 6.85963e-19 -0.0129 0.023 -0.00200861 -0.0129 0.0226819 -0.00200861 -0.0069 0.0226819 -0.00618187 -0.0069 0.0185086 -0.0065 -0.0129 0.0165 -0.00200861 -0.0129 0.0103181 0.0065 -0.0129 0.0165 0.0038206 -0.0129 0.0217586 0.0038206 -0.0129 0.0112414 -0.0038206 -0.0129 0.0217586 0.00200861 -0.0129 0.0103181 0.00200861 -0.0129 0.0226819 -0.00618187 -0.0129 0.0185086 -0.00525861 -0.0129 0.0203206 -0.00525861 -0.0129 0.0126794 -0.00978632 0.0189017 0.00648861 -0.00993893 0.0187951 0.0011 -0.00905255 0.0193093 0.00582052 -0.00854508 0.0195053 0.0011 -0.00854381 0.0195004 0.0054126 -0.0104413 0.0183773 0.00717373 -0.00993138 0.0187855 0.00664035 -0.0117553 0.0162951 0.0011 -0.0110451 0.0176889 0.0011 -0.0110127 0.017733 0.00785587 -0.011996 0.0149018 0.00928225 -0.0117561 0.0162925 0.00889779 -0.012 0.01475 0.0011 -0.0118577 0.0159343 0.00905724 -0.0119931 0.0150135 0.00927735 -0.0119653 0.015338 0.00923148 -0.00811875 -0.0196232 0.00509448 -0.0115714 -0.0167755 0.00861944 -0.0112525 -0.0173652 0.00817356 -0.0117553 -0.0162951 0.0011 -0.0117526 -0.0162944 0.00889281 -0.0110451 -0.0176889 0.0011 -0.00993893 -0.0187951 0.0011 -0.00915514 -0.019255 0.00591239 -0.0093247 -0.0191767 0.0060573 -0.00993507 -0.0187891 0.00664111 -0.00733887 -0.0197385 0.00457771 0.0117416 0.0163366 0.00887537 0.0117526 0.0162944 0.00889281 0.0119109 0.0156897 0.00914267 0.0106361 0.018182 0.00739656 0.0110336 0.0176801 0.00789059 0.0085406 0.019491 0.00541653 0.0088625 0.0193902 0.00566228 0.00906131 0.0192984 0.00583219 0.0093247 0.0191767 0.0060573 0.00993893 0.0187951 0.0011 0.007 0.01975 0.00437564 0.00733887 0.0197385 0.00457771 0.00782112 -0.0196821 0.00488836 0.00905255 -0.0193093 0.00582052 0.00860996 -0.0194837 0.00546059 0.00993893 -0.0187951 0.0011 0.00854508 -0.0195053 0.0011 0.0110451 -0.0176889 0.0011 0.0104413 -0.0183773 0.00717373 0.00978632 -0.0189017 0.00648861 0.0112509 -0.0173563 0.00817482 0.0117553 -0.0162951 0.0011 0.0117561 -0.0162925 0.00889779 0.012 -0.01475 0.0011 0.0119931 -0.0150135 0.00927735 0.0119653 -0.015338 0.00923148 0.012 -0.0069 0.0045 0.00777753 -0.0069 0.0045</float_array>
                    <technique_common>
                        <accessor count="460" source="#shape0-lib-positions-array" stride="3">
                            <param name="X" type="float"/>
                            <param name="Y" type="float"/>
                            <param name="Z" type="float"/>
                        </accessor>
                    </technique_common>
                </source>
                <source id="shape0-lib-normals" name="normal">
                    <float_array id="shape0-lib-normals-array" count="2748">1 0 0 1 0 0 1 0 0 1 0 0 1 0 0 1 0 0 -1 0 0 -1 0 0 -1 0 0 -1 0 0 -1 0 0 -1 0 0 -0.907692 0 -0.419638 -0.910561 0.0058927 -0.413332 -0.85092 4.96736e-05 -0.525295 -0.776325 0.0155373 -0.630141 -0.804802 0.0063311 -0.59351 -0.804801 0.00633118 -0.593511 -0.820938 0.00319739 -0.571008 -0.832138 0.00133837 -0.554566 -0.832058 0.00134483 -0.554686 -0.843764 0.000388107 -0.536713 -0.855663 1.11561e-06 -0.517534 -0.85693 -1.10676e-07 -0.515432 -0.907575 -1.07055e-07 -0.419889 -0.907575 0 -0.41989 -0.976621 0 -0.21497 -0.647386 -0.000209781 -0.762162 -0.592013 0.0311269 -0.805327 -0.592011 0.0311279 -0.805329 -0.634433 0.0150794 -0.772831 -0.674384 0.00378621 -0.738371 -0.722444 -0.00100363 -0.691429 -0.722446 -0.00100377 -0.691427 -0.796093 -0.000997421 -0.605174 -0.735635 0.0350142 -0.676472 -0.758408 0.0240632 -0.651336 -0.436148 0.0163105 -0.899727 -0.529656 0.000228518 -0.848213 -0.587151 -0.00021041 -0.809477 0.484283 0 -0.874911 0.370138 0 -0.928977 0.370138 0 -0.928977 0.161782 0 -0.986827 0.161782 0 -0.986827 -0.0541388 0 -0.998533 -0.0541388 0 -0.998533 -0.267528 0 -0.96355 -0.267528 0 -0.96355 -0.468408 0 -0.883512 0.607123 0.00156932 -0.794607 0.607121 0.00156952 -0.794608 0.56115 0.0114878 -0.827634 0.553262 0.00893223 -0.83296 0.512214 0.00243045 -0.858855 0.782486 -0.000245136 -0.622669 0.763279 0.00230164 -0.646064 0.740349 0.00570823 -0.672198 0.697499 0.0194509 -0.716322 0.697499 0.0194509 -0.716322 0.725988 0.00456432 -0.687692 0.649576 -0.000452505 -0.760297 0.649574 -0.000452505 -0.760298 0.870649 0.00348688 -0.491893 0.883642 0 -0.468164 0.862536 0.00580028 -0.505962 0.853856 0.00843169 -0.520441 0.853847 0.00843505 -0.520456 0.84246 0.0126553 -0.53861 0.825509 0.0199058 -0.564038 0.856857 0.00101867 -0.515554 0.782486 -0.000245106 -0.622668 0.782485 -0.000245106 -0.62267 0.883642 0 -0.468164 0.947653 0 -0.319301 0.947653 0 -0.319301 0.994138 0 -0.108119 0.994138 0 -0.108119 0.994138 0 0.108119 0.994138 0 0.108119 0.947653 0 0.319301 0.947653 0 0.319301 0.856857 0 0.515554 0.856857 0 0.515554 0.725995 0 0.687699 0.725995 0 0.687699 0.561187 0 0.827689 0.561187 0 0.827689 0.370138 0 0.928977 0.370138 0 0.928977 0.161782 0 0.986827 0.161782 0 0.986827 -0.0541388 0 0.998533 -0.0541388 0 0.998533 -0.267529 0 0.96355 -0.267529 0 0.96355 -0.468408 0 0.883512 -0.468408 0 0.883512 -0.647386 0 0.762162 -0.647386 0 0.762162 -0.796093 0 0.605174 -0.796093 0 0.605174 -0.907575 0 0.419889 -0.907575 0 0.419889 -0.976621 0 0.21497 -0.976621 0 0.21497 -0.998533 0 0.0541392 -0.999986 -0.0053815 0 -0.998533 0 -0.0541392 -0.976621 0 -0.21497 0.887604 0 -0.460608 0.854594 -0.0319079 -0.518316 0.854549 -0.0319604 -0.518386 0.863732 -0.0208288 -0.50352 0.870752 -0.013491 -0.491537 0.877987 -0.00741004 -0.478626 0.883874 -0.00280387 -0.467716 0.740509 -0.0492421 -0.67024 0.758614 -0.0245789 -0.651076 0.772535 -0.00723769 -0.634931 0.800318 0.00163661 -0.599573 0.800317 0.00163643 -0.599574 0.864493 0.00162581 -0.502642 0.835174 -0.0657158 -0.546046 0.846553 -0.0453323 -0.530371 0.440209 -0.650557 -0.618862 0.600914 -0.103118 -0.792635 0.60091 -0.103129 -0.792636 0.632628 -0.007213 -0.774423 0.670647 0.00845105 -0.741728 0.733407 0.00841989 -0.679737 0.708815 -0.144259 -0.690485 0.740508 -0.0492444 -0.670241 -0.648029 0.00619594 -0.76159 -0.614184 -0.039811 -0.788158 -0.614183 -0.0398146 -0.788159 -0.553359 -0.344967 -0.75815 -0.197271 -0.940304 -0.27733 -0.783242 -0.00125694 -0.621716 -0.783242 -0.00125681 -0.621715 -0.768399 -0.013831 -0.639821 -0.750269 -0.0311576 -0.660398 -0.720872 -0.102845 -0.685395 -0.73129 -0.0763991 -0.677775 -0.697668 -0.0199877 -0.716142 -0.648027 0.00619594 -0.761593 -0.879885 -0.00575166 -0.475153 -0.872644 -0.0119372 -0.48821 -0.864958 -0.0191726 -0.501478 -0.864952 -0.0191794 -0.501487 -0.855732 -0.0306919 -0.516508 -0.864373 -0.0167108 -0.502573 -0.812916 0.000771663 -0.58238 -0.812917 0.000771663 -0.582379 0.887604 0 -0.460608 0.953586 0 -0.301122 0.953586 0 -0.301122 0.996382 0 -0.0849822 0.996382 0 -0.0849822 0.990807 0 0.135283 0.990807 0 0.135283 0.93713 0 0.348981 0.93713 0 0.348981 0.837957 0 0.545736 0.837957 0 0.545736 0.698103 0 0.715997 0.698103 0 0.715997 0.524357 0 0.851498 0.524357 0 0.851498 0.325155 0 0.945661 0.325155 0 0.945661 0.110168 0 0.993913 0.110168 0 0.993913 -0.110168 0 0.993913 -0.110168 0 0.993913 -0.325155 0 0.945661 -0.325155 0 0.945661 -0.524357 0 0.851498 -0.524357 0 0.851498 -0.698103 0 0.715997 -0.698103 0 0.715997 -0.837957 0 0.545736 -0.837957 0 0.545736 -0.93713 0 0.348981 -0.93713 0 0.348981 -0.990807 0 0.135283 -0.990807 0 0.135283 -0.996382 0 -0.0849822 -0.996382 0 -0.0849822 -0.953586 0 -0.301122 -0.953586 0 -0.301122 -0.887604 0 -0.460608 -0.887604 0 -0.460608 0 -1 0 0 -1 0 0 -1 0 0 -1 0 0 -1 0 0 -1 0 0 -1 0 0 -1 0 0 -1 0 0 -1 0 0 -1 0 0 -1 0 0 -1 0 0 -1 0 0 -1 0 0 -1 0 0 -1 0 0 -1 0 0 -1 0 0 -1 0 0 -1 0 0 -1 0 0 -1 0 0 -1 0 0 -1 0 0 -1 0 0 1 0 0 1 0 0 1 0 0 1 0 0 1 0 0 1 0 0 1 0 0 1 0 0 1 0 0 1 0 0 1 0 0 1 0 0 1 0 0 1 0 0 1 0 0 1 0 0 1 0 0 1 0 0 1 0 0 1 0 0 1 0 0 1 0 0 1 0 0 1 0 0 1 0 0 1 0 0 1 0 0 1 0 0 1 0 0 1 0 0 1 0 0 1 0 0 1 0 0 1 0 0 1 0 0 0 1 0 0 1 0 0 1 0 0 1 0 0 1 0 0 1 0 0 1 0 0 1 0 0 1 0 0 1 0 0 1 0 0 1 0 0 1 0 0 1 0 0 1 0 0 1 0 0 1 0 0 1 0 0 1 0 0 1 0 0 1 0 0 1 0 0 1 0 0 1 0 0 1 0 0 1 0 0 1 0 0 1 0 0 1 0 0 1 0 0 1 0 0 1 0 0 1 0 0 1 0 0 1 0 0 1 0 0 1 0 0 1 0 0 1 0 0 1 0 0 1 0 0 1 0 0 1 0 0 1 0 0 1 0 0 1 0 0 1 0 0 1 0 0 1 0 0 1 0 0 1 0 0 1 0 0 1 0 0 1 0 0 1 0 0 1 0 0 1 0 0 1 0 0 1 0 0 1 0 0 1 0.996195 -0.0871555 0 0.996195 0.0871555 0 0.996195 0.0871555 0 0.965926 0.258819 0 0.965926 0.258819 0 0.906308 0.422618 0 0.906308 0.422618 0 0.819152 0.573576 0 0.819152 0.573576 0 0.707107 0.707107 0 0.707107 0.707107 0 0.573576 0.819152 0 0.573576 0.819152 0 0.422618 0.906308 0 0.422618 0.906308 0 0.258819 0.965926 0 0.258819 0.965926 0 0.0871555 0.996195 0 0.0871555 0.996195 1.35294e-17 -0.0871555 0.996195 -1.35171e-17 -0.0871555 0.996195 0 -0.258819 0.965926 0 -0.258819 0.965926 0 -0.422618 0.906308 0 -0.422618 0.906308 0 -0.573576 0.819152 0 -0.573576 0.819152 0 -0.707107 0.707107 0 -0.707107 0.707107 0 -0.819152 0.573576 0 -0.819152 0.573576 0 -0.906308 0.422618 0 -0.906308 0.422618 0 -0.965926 0.258819 0 -0.965926 0.258819 0 -0.996195 0.0871555 0 -0.996195 0.0871555 0 -0.996195 -0.0871555 0 -0.996195 -0.0871555 0 -0.965926 -0.258819 0 -0.965926 -0.258819 0 -0.906308 -0.422618 0 -0.906308 -0.422618 0 -0.819152 -0.573577 0 -0.819152 -0.573577 0 -0.707107 -0.707107 0 -0.707107 -0.707107 0 -0.573576 -0.819152 0 -0.573576 -0.819152 0 -0.422619 -0.906308 0 -0.422619 -0.906308 0 -0.258819 -0.965926 0 -0.258819 -0.965926 0 -0.0871555 -0.996195 0 -0.0871555 -0.996195 -1.35054e-17 0.0871555 -0.996195 1.3517e-17 0.0871555 -0.996195 0 0.258819 -0.965926 0 0.258819 -0.965926 0 0.422619 -0.906308 0 0.422619 -0.906308 0 0.573576 -0.819152 0 0.573576 -0.819152 0 0.707107 -0.707107 0 0.707107 -0.707107 0 0.819152 -0.573577 0 0.819152 -0.573577 0 0.906308 -0.422618 0 0.906308 -0.422618 0 0.965926 -0.258819 0 0.965926 -0.258819 0 0.996195 -0.0871555 0 0 0 -1 0 0 -1 0 0 -1 0 0 -1 0 0 -1 0 0 -1 0 0 -1 0 0 -1 0 0 -1 0 0 -1 0 0 -1 0 0 -1 0 0 -1 0 0 -1 0 0 -1 0 0 -1 0 0 -1 0 0 -1 0 0 -1 0 0 -1 0 0 -1 0 0 -1 0 0 -1 0 0 -1 0 0 -1 0 0 -1 0 0 -1 0 0 -1 0 0 -1 0 0 -1 0 0 -1 0 0 -1 0 0 -1 0 0 -1 0 0 -1 0 0 -1 0 0 -1 0 0 -1 0 0 -1 0 0 -1 0 0 -1 0 0 -1 0 0 -1 0 0 -1 0 0 -1 0 0 -1 0 0 -1 0 0 -1 0 0 -1 0 0 -1 0 0 -1 0 0 -1 0 0 -1 0 0 -1 0 0 -1 0 0 -1 0 0 -1 0 0 -1 0 0 -1 0 0 -1 0 0 -1 0 0 -1 0 0 -1 0 0 -1 0 0 -1 0 0 -1 0 0 -1 0 0 -1 0 0 -1 0 0 -1 0.995734 -0.0922684 0 0.995734 0.0922684 0 0.995734 0.0922684 0 0.961826 0.273663 0 0.961826 0.273663 0 0.895163 0.445738 0 0.895163 0.445738 0 0.798017 0.602635 0 0.798017 0.602635 0 0.673696 0.739009 0 0.673696 0.739009 0 0.526432 0.850217 0 0.526432 0.850217 0 0.361241 0.932472 0 0.361241 0.932472 0 0.183749 0.982973 0 0.183749 0.982973 0 0 1 0 0 1 0 -0.183749 0.982973 0 -0.183749 0.982973 0 -0.361241 0.932472 0 -0.361241 0.932472 0 -0.526432 0.850217 0 -0.526432 0.850217 0 -0.673696 0.739009 0 -0.673696 0.739009 0 -0.798017 0.602635 0 -0.798017 0.602635 0 -0.895163 0.445738 0 -0.895163 0.445738 0 -0.961826 0.273663 0 -0.961826 0.273663 0 -0.995734 0.0922684 0 -0.995734 0.0922684 0 -0.995734 -0.0922684 0 -0.995734 -0.0922684 0 -0.961826 -0.273663 0 -0.961826 -0.273663 0 -0.895163 -0.445738 0 -0.895163 -0.445738 0 -0.798017 -0.602634 0 -0.798017 -0.602634 0 -0.673695 -0.739009 0 -0.673695 -0.739009 0 -0.526432 -0.850217 0 -0.526432 -0.850217 0 -0.361242 -0.932472 0 -0.361242 -0.932472 0 -0.183749 -0.982973 0 -0.183749 -0.982973 0 0 -1 0 0 -1 0 0.183749 -0.982973 0 0.183749 -0.982973 0 0.361242 -0.932472 0 0.361242 -0.932472 0 0.526432 -0.850217 0 0.526432 -0.850217 0 0.673695 -0.739009 0 0.673695 -0.739009 0 0.798017 -0.602634 0 0.798017 -0.602634 0 0.895163 -0.445738 0 0.895163 -0.445738 0 0.961826 -0.273663 0 0.961826 -0.273663 0 0.995734 -0.0922684 0 0 0 -1 0 0 -1 0 0 -1 0 0 -1 0 0 -1 0 0 -1 0 0 -1 0 0 -1 0 0 -1 0 0 -1 0 0 -1 0 0 -1 0 0 -1 0 0 -1 0 0 -1 0 0 -1 0 0 -1 0 0 -1 0 0 -1 0 0 -1 0 0 -1 0 0 -1 0 0 -1 0 0 -1 0 0 -1 0 0 -1 0 0 -1 0 0 -1 0 0 -1 0 0 -1 0 0 -1 0 0 -1 0 -1 0 0 -1 0 0 -1 0 0 -1 0 0 -1 0 0 -1 0 0 -1 0 0 -1 0 0 -1 0 0 -1 0 0 -1 0 0 -1 0 0 -1 0 0 -1 0 0 -1 0 0 -1 0 0 -1 0 0 -1 0 0 -1 0 0 -1 0 0 -1 0 0 -1 0 0 -1 0 0 -1 0 0 -1 0 0 -1 0 0 -1 0 0 -1 0 0 -1 0 0 -1 0 0 -1 0 0 -1 0 0 -1 0 0 -1 0 0 -1 0 0 -1 0 0 -1 0 0 -1 0 0 -1 0 0 -1 0 0 -1 0 0 -1 0 0 -1 0 0 -1 0 0 -1 0 0 -1 0 0 -1 0 0 -1 0 0 -1 0 0 -1 0 0 -1 0 0 -1 0 0 -1 0 0 -1 0 0 -1 0 0 -1 0 0 -1 0 0.461083 0 0.887357 0.461083 0 0.887357 0.283583 0 0.958948 0.283583 0 0.958948 0.0956961 0 0.995411 0.0956961 0 0.995411 -0.0956961 0 0.995411 -0.0956961 0 0.995411 -0.283583 0 0.958948 -0.283583 0 0.958948 -0.461083 0 0.887357 -0.461083 0 0.887357 0 1 0 0 1 0 0 1 0 0 1 0 0 1 0 0 1 0 0 1 0 0 1 0 0 1 0 0 1 0 0 1 0 0 1 0 0 1 0 0 1 0 0 1 0 0 1 0 0 1 0 0 1 0 0 1 0 0 1 0 0 1 0 0 1 0 0 1 0 0 1 0 0 1 0 0 1 0 0 1 0 0 1 0 0 1 0 0 1 0 0 1 0 0 1 0 0 1 0 0 1 0 0 1 0 0 1 0 0 1 0 0 1 0 0 1 0 0 1 0 0 1 0 0 1 0 0 1 0 0 1 0 0 1 0 0 1 0 0 1 0 0 1 0 0 1 0 0 1 0 0 -1 0 0 -1 0 0 -1 0 0 -1 0 0 -1 0 0 -1 0 0 -1 0 0 -1 0 0 -1 0 0 -1 0 0 -1 0 0 -1 0 0 -1 0 0 -1 0 0 -1 0 0 -1 0 0 -1 0 0 -1 0 0 -1 0 0 -1 0 0 -1 0 0 -1 0 0 -1 0 0 -1 0 0 -1 0 0.993238 0 -0.116093 0.993238 0 0.116093 0.993238 0 0.116093 0.939693 0 0.34202 0.939693 0 0.34202 0.835488 0 0.549509 0.835488 0 0.549509 0.686242 0 0.727373 0.686242 0 0.727373 0.5 0 0.866026 0.5 0 0.866026 0.286803 0 0.95799 0.286803 0 0.95799 0.058145 0 0.998308 0.058145 0 0.998308 -0.173648 0 0.984808 -0.173648 0 0.984808 -0.39608 0 0.918216 -0.39608 0 0.918216 -0.597159 0 0.802123 -0.597159 0 0.802123 -0.766044 0 0.642788 -0.766044 0 0.642788 -0.893633 0 0.448799 -0.893633 0 0.448799 -0.973045 0 0.230616 -0.973045 0 0.230616 -1 0 0 -1 0 0 -0.973045 0 -0.230616 -0.973045 0 -0.230616 -0.893633 0 -0.448799 -0.893633 0 -0.448799 -0.766044 0 -0.642788 -0.766044 0 -0.642788 -0.597159 0 -0.802123 -0.597159 0 -0.802123 -0.39608 0 -0.918216 -0.39608 0 -0.918216 -0.173648 0 -0.984808 -0.173648 0 -0.984808 0.058145 0 -0.998308 0.058145 0 -0.998308 0.286804 0 -0.957989 0.286804 0 -0.957989 0.5 0 -0.866026 0.5 0 -0.866026 0.686242 0 -0.727373 0.686242 0 -0.727373 0.835488 0 -0.549509 0.835488 0 -0.549509 0.939693 0 -0.34202 0.939693 0 -0.34202 0.993238 0 -0.116093 0.987688 0 -0.156434 0.987688 0 0.156435 0.987688 0 0.156435 0.891006 0 0.453991 0.891006 0 0.453991 0.707107 0 0.707107 0.707107 0 0.707107 0.45399 0 0.891007 0.45399 0 0.891007 0.156435 0 0.987688 0.156435 0 0.987688 -0.156435 0 0.987688 -0.156435 0 0.987688 -0.45399 0 0.891007 -0.45399 0 0.891007 -0.707107 0 0.707107 -0.707107 0 0.707107 -0.891006 0 0.453991 -0.891006 0 0.453991 -0.987688 0 0.156435 -0.987688 0 0.156435 -0.987688 0 -0.156434 -0.987688 0 -0.156434 -0.891006 0 -0.453991 -0.891006 0 -0.453991 -0.707107 0 -0.707107 -0.707107 0 -0.707107 -0.453991 0 -0.891006 -0.453991 0 -0.891006 -0.156434 0 -0.987688 -0.156434 0 -0.987688 0.156434 0 -0.987688 0.156434 0 -0.987688 0.453991 0 -0.891006 0.453991 0 -0.891006 0.707107 0 -0.707107 0.707107 0 -0.707107 0.891006 0 -0.453991 0.891006 0 -0.453991 0.987688 0 -0.156434 0 1 0 0 1 0 0 1 0 0 1 0 0 1 0 0 1 0 0 1 0 0 1 0 0 1 0 0 1 0 0 1 0 0 1 0 0 1 0 0 1 0 0 1 0 0 1 0 0 1 0 0 1 0 -0.0823919 0.9966 0 -0.156414 0.987559 -0.0162061 -0.243109 0.969998 0.00118112 -0.487994 0.87284 -0.00344587 -0.386103 0.922033 -0.0279363 -0.45399 0.891004 -0.00234658 -0.243114 0.969997 0.00118151 -0.243111 0.969998 0.00118151 -0.755335 0.655338 -0.000654088 -0.702012 0.712081 -0.0109205 -0.639652 0.768305 -0.0234922 -0.707102 0.707103 -0.0034463 -0.623565 0.781768 0.00219504 -0.623562 0.781771 0.00219504 -0.928816 0.370541 2.29592e-05 -0.895034 0.445939 -0.0072676 -0.890976 0.453975 -0.00833806 -0.845032 0.534715 0.000563471 -0.84503 0.534719 0.000563471 -0.999653 0.0263561 0 -0.999653 0.0263518 7.82857e-08 -0.92878 0.370632 2.29592e-05 -0.987688 0.156434 -5.43391e-05 -0.964346 0.263728 -0.0220084 -0.989495 0.144518 -0.0038157 -0.846312 -0.00293931 -0.532679 -0.296623 -0.954988 0.00345976 -0.802552 0.0359966 -0.595495 -0.882279 -0.47065 -0.00848884 -0.890996 -0.453984 -0.00500476 -0.882277 -0.470654 -0.00848963 -0.935712 -0.352764 0.000348677 -0.987688 -0.156435 0.000348743 -0.969058 -0.246175 -0.0180275 -0.995535 -0.0943916 0 -0.850535 0.00119861 -0.525918 -0.737029 -0.675842 -0.00505356 -0.792017 -0.610495 0.00213529 -0.792017 -0.610495 0.00213529 -0.453987 -0.891002 0.00341204 -0.329946 -0.94292 -0.0451413 -0.430537 -0.902429 -0.0161264 -0.430535 -0.90243 -0.016127 -0.535183 -0.844735 0.00128079 -0.707106 -0.707107 0.00125229 -0.56849 -0.821219 -0.0491728 -0.675953 -0.736816 -0.0137949 -0.156435 -0.987688 0 -0.0610683 -0.997087 -0.0456856 -0.154431 -0.987922 -0.0126891 0.296626 0.954987 0.00346017 0.802552 -0.0359969 -0.595496 0.882277 0.470655 -0.00848965 0.935713 0.352763 0.000348762 0.987688 0.156434 0.000348781 0.969058 0.246176 -0.0180276 0.995535 0.0943913 0 0.850535 -0.00119861 -0.525918 0.737029 0.675842 -0.00505375 0.792019 0.610493 0.00213529 0.891005 0.453989 0.00210062 0.808165 0.587973 -0.0340318 0.808168 0.587968 -0.0340308 0.453988 0.891001 0.00341242 0.329946 0.94292 -0.0451413 0.430537 0.902429 -0.0161266 0.430536 0.902429 -0.0161267 0.535181 0.844736 0.00128051 0.707106 0.707107 0.00125205 0.568491 0.821219 -0.049173 0.675953 0.736816 -0.0137951 0.156435 0.987688 0 0.0610726 0.997087 -0.0456835 0.154428 0.987922 -0.0126893 0.0823897 -0.9966 0 0.156414 -0.987559 -0.0162066 0.487992 -0.872841 -0.00344593 0.487991 -0.872842 -0.00344628 0.386106 -0.922031 -0.0279353 0.453989 -0.891004 -0.00234695 0.243088 -0.970004 0.00118151 0.243113 -0.969997 0.00118151 0.845039 -0.534704 0.000563618 0.755335 -0.655338 -0.000654088 0.702012 -0.712081 -0.0109205 0.707072 -0.707073 -0.00984979 0.623564 -0.781769 0.00219504 0.623562 -0.781771 0.00219504 0.845031 -0.534717 0.000563618 0.890997 -0.453985 -0.00456915 0.851847 -0.523489 -0.0177858 0.999653 -0.0263543 0 0.757225 0.0840823 -0.647719 0.920662 -0.39036 2.28573e-05 0.92878 -0.370632 2.28706e-05 0.987688 -0.156435 -5.43763e-05 0.964346 -0.263727 -0.0220081 0.989495 -0.144518 -0.00381572 0.846312 0.00293929 -0.532679 0 0 1 0 0 1 0 0 1 0 0 1</float_array>
                    <technique_common>
                        <accessor count="916" source="#shape0-lib-normals-array" stride="3">
                            <param name="X" type="float"/>
                            <param name="Y" type="float"/>
                            <param name="Z" type="float"/>
                        </accessor>
                    </technique_common>
                </source>
                <vertices id="shape0-lib-vertices">
                    <input semantic="POSITION" source="#shape0-lib-positions"/>
                </vertices>
                <triangles count="916">
                    <input offset="0" semantic="VERTEX" source="#shape0-lib-vertices"/>
                    <input offset="1" semantic="NORMAL" source="#shape0-lib-normals"/>
                    <p>317 0 85 0 458 0 458 1 85 1 455 1 458 2 455 2 292 2 292 3 455 3 154 3 292 4 154 4 285 4 285 5 154 5 35 5 282 6 3 6 0 6 0 7 3 7 417 7 0 8 417 8 1 8 1 9 417 9 140 9 1 10 140 10 2 10 2 11 140 11 110 11 3 12 282 12 11 12 3 13 11 13 415 13 418 14 420 14 4 14 5 15 414 15 4 15 414 16 6 16 4 16 4 17 6 17 7 17 4 18 7 18 8 18 8 19 9 19 4 19 4 20 9 20 416 20 4 21 416 21 418 21 420 22 419 22 4 22 4 23 419 23 415 23 4 24 415 24 10 24 10 25 415 25 11 25 10 26 11 26 12 26 13 27 18 27 14 27 14 28 18 28 409 28 409 29 15 29 14 29 14 30 15 30 407 30 14 31 407 31 405 31 405 32 411 32 14 32 14 33 411 33 16 33 14 34 16 34 4 34 4 35 16 35 410 35 4 36 410 36 5 36 130 37 129 37 13 37 13 38 129 38 17 38 13 39 17 39 18 39 442 40 127 40 119 40 119 41 127 41 131 41 119 42 131 42 19 42 19 43 131 43 20 43 19 44 20 44 22 44 22 45 20 45 21 45 22 46 21 46 118 46 118 47 21 47 130 47 118 48 130 48 23 48 23 49 130 49 13 49 438 50 437 50 24 50 24 51 437 51 25 51 24 52 25 52 119 52 119 53 25 53 443 53 119 54 443 54 442 54 436 55 26 55 33 55 33 56 26 56 435 56 33 57 435 57 27 57 27 58 28 58 33 58 33 59 28 59 440 59 33 60 440 60 24 60 24 61 440 61 439 61 24 62 439 62 438 62 35 63 29 63 32 63 294 64 285 64 35 64 29 65 434 65 32 65 32 66 434 66 433 66 32 67 433 67 432 67 432 68 30 68 32 68 32 69 30 69 31 69 32 70 31 70 33 70 33 71 31 71 34 71 33 72 34 72 436 72 35 73 32 73 294 73 294 74 32 74 36 74 294 75 36 75 37 75 37 76 36 76 120 76 37 77 120 77 38 77 38 78 120 78 121 78 38 79 121 79 39 79 39 80 121 80 40 80 39 81 40 81 296 81 296 82 40 82 122 82 296 83 122 83 41 83 41 84 122 84 42 84 41 85 42 85 299 85 299 86 42 86 44 86 299 87 44 87 43 87 43 88 44 88 45 88 43 89 45 89 46 89 46 90 45 90 125 90 46 91 125 91 47 91 47 92 125 92 48 92 47 93 48 93 50 93 50 94 48 94 49 94 50 95 49 95 302 95 302 96 49 96 124 96 302 97 124 97 304 97 304 98 124 98 51 98 304 99 51 99 52 99 52 100 51 100 126 100 52 101 126 101 54 101 54 102 126 102 53 102 54 103 53 103 306 103 306 104 53 104 123 104 306 105 123 105 55 105 55 106 123 106 56 106 55 107 56 107 12 107 12 108 56 108 57 108 12 109 57 109 10 109 85 110 317 110 316 110 58 111 60 111 59 111 59 112 60 112 454 112 59 113 454 113 61 113 61 114 457 114 59 114 59 115 457 115 456 115 59 116 456 116 85 116 62 117 450 117 66 117 66 118 450 118 63 118 66 119 63 119 64 119 64 120 65 120 66 120 66 121 65 121 452 121 66 122 452 122 59 122 59 123 452 123 67 123 59 124 67 124 58 124 68 125 444 125 70 125 70 126 444 126 69 126 70 127 69 127 446 127 446 128 445 128 70 128 70 129 445 129 71 129 70 130 71 130 66 130 66 131 71 131 451 131 66 132 451 132 62 132 428 133 72 133 74 133 74 134 72 134 73 134 73 135 421 135 74 135 74 136 421 136 431 136 74 137 431 137 113 137 75 138 76 138 84 138 84 139 76 139 77 139 84 140 77 140 78 140 78 141 79 141 84 141 84 142 79 142 430 142 84 143 430 143 74 143 74 144 430 144 429 144 74 145 429 145 428 145 110 146 80 146 81 146 81 147 80 147 82 147 81 148 82 148 425 148 425 149 83 149 81 149 81 150 83 150 422 150 81 151 422 151 84 151 84 152 422 152 423 152 84 153 423 153 75 153 85 154 316 154 59 154 59 155 316 155 314 155 59 156 314 156 86 156 86 157 314 157 327 157 86 158 327 158 111 158 111 159 327 159 87 159 111 160 87 160 88 160 88 161 87 161 325 161 88 162 325 162 90 162 90 163 325 163 89 163 90 164 89 164 91 164 91 165 89 165 92 165 91 166 92 166 93 166 93 167 92 167 94 167 93 168 94 168 95 168 95 169 94 169 330 169 95 170 330 170 96 170 96 171 330 171 98 171 96 172 98 172 97 172 97 173 98 173 99 173 97 174 99 174 115 174 115 175 99 175 100 175 115 176 100 176 101 176 101 177 100 177 103 177 101 178 103 178 102 178 102 179 103 179 104 179 102 180 104 180 105 180 105 181 104 181 106 181 105 182 106 182 107 182 107 183 106 183 108 183 107 184 108 184 109 184 109 185 108 185 337 185 109 186 337 186 117 186 117 187 337 187 335 187 117 188 335 188 116 188 116 189 335 189 334 189 116 190 334 190 81 190 81 191 334 191 2 191 81 192 2 192 110 192 59 193 86 193 113 193 81 194 84 194 74 194 111 195 88 195 86 195 86 196 88 196 90 196 86 197 90 197 113 197 113 198 90 198 91 198 113 199 91 199 74 199 113 200 112 200 114 200 66 201 59 201 70 201 70 202 59 202 113 202 70 203 113 203 68 203 68 204 113 204 114 204 68 205 114 205 151 205 91 206 93 206 74 206 74 207 93 207 95 207 74 208 95 208 96 208 102 209 105 209 74 209 74 210 105 210 107 210 101 211 102 211 115 211 115 212 102 212 74 212 115 213 74 213 97 213 97 214 74 214 96 214 116 215 81 215 117 215 117 216 81 216 74 216 117 217 74 217 109 217 109 218 74 218 107 218 22 219 118 219 19 219 19 220 118 220 23 220 19 221 23 221 119 221 119 222 23 222 13 222 119 223 13 223 24 223 24 224 13 224 14 224 24 225 14 225 33 225 33 226 14 226 4 226 33 227 4 227 32 227 32 228 4 228 10 228 32 229 10 229 36 229 36 230 10 230 57 230 36 231 57 231 120 231 57 232 56 232 120 232 120 233 56 233 123 233 120 234 123 234 121 234 121 235 123 235 122 235 121 236 122 236 40 236 123 237 53 237 122 237 122 238 53 238 126 238 122 239 126 239 42 239 42 240 126 240 125 240 42 241 125 241 44 241 44 242 125 242 45 242 49 243 48 243 124 243 124 244 48 244 125 244 124 245 125 245 51 245 51 246 125 246 126 246 442 247 128 247 127 247 127 248 128 248 131 248 129 249 130 249 148 249 148 250 130 250 21 250 148 251 21 251 128 251 128 252 21 252 20 252 128 253 20 253 131 253 177 254 178 254 139 254 132 255 172 255 417 255 417 256 412 256 132 256 132 257 412 257 413 257 132 258 413 258 170 258 170 259 413 259 406 259 170 260 406 260 167 260 133 261 137 261 427 261 172 262 134 262 417 262 417 263 134 263 175 263 417 264 175 264 140 264 140 265 175 265 135 265 140 266 135 266 176 266 427 267 137 267 136 267 136 268 137 268 138 268 136 269 138 269 112 269 112 270 138 270 146 270 112 271 146 271 114 271 427 272 426 272 133 272 133 273 426 273 424 273 133 274 424 274 139 274 139 275 424 275 140 275 139 276 140 276 177 276 177 277 140 277 176 277 177 278 176 278 141 278 142 279 128 279 143 279 143 280 128 280 144 280 143 281 144 281 165 281 165 282 144 282 441 282 165 283 441 283 145 283 160 284 162 284 163 284 150 285 151 285 182 285 182 286 151 286 114 286 182 287 114 287 181 287 181 288 114 288 146 288 406 289 408 289 167 289 167 290 408 290 148 290 167 291 148 291 147 291 147 292 148 292 128 292 147 293 128 293 149 293 149 294 128 294 142 294 184 295 449 295 183 295 183 296 449 296 447 296 183 297 447 297 150 297 150 298 447 298 448 298 150 299 448 299 151 299 152 300 154 300 186 300 186 301 154 301 455 301 186 302 455 302 184 302 184 303 455 303 453 303 184 304 453 304 449 304 157 305 154 305 153 305 153 306 154 306 152 306 153 307 152 307 188 307 441 308 155 308 145 308 145 309 155 309 156 309 145 310 156 310 163 310 163 311 156 311 154 311 163 312 154 312 160 312 160 313 154 313 157 313 160 314 157 314 159 314 153 315 197 315 157 315 157 316 197 316 158 316 157 317 158 317 159 317 159 318 158 318 161 318 159 319 161 319 160 319 160 320 161 320 196 320 160 321 196 321 162 321 162 322 196 322 164 322 162 323 164 323 163 323 163 324 164 324 194 324 163 325 194 325 145 325 145 326 194 326 193 326 145 327 193 327 165 327 165 328 193 328 192 328 165 329 192 329 143 329 143 330 192 330 191 330 143 331 191 331 142 331 142 332 191 332 227 332 142 333 227 333 149 333 149 334 227 334 226 334 149 335 226 335 147 335 147 336 226 336 166 336 147 337 166 337 167 337 167 338 166 338 168 338 167 339 168 339 170 339 170 340 168 340 169 340 170 341 169 341 132 341 132 342 169 342 171 342 132 343 171 343 172 343 172 344 171 344 173 344 172 345 173 345 134 345 134 346 173 346 174 346 134 347 174 347 175 347 175 348 174 348 222 348 175 349 222 349 135 349 135 350 222 350 221 350 135 351 221 351 176 351 176 352 221 352 219 352 176 353 219 353 141 353 141 354 219 354 217 354 141 355 217 355 177 355 177 356 217 356 179 356 177 357 179 357 178 357 178 358 179 358 215 358 178 359 215 359 139 359 139 360 215 360 214 360 139 361 214 361 133 361 133 362 214 362 213 362 133 363 213 363 137 363 137 364 213 364 211 364 137 365 211 365 138 365 138 366 211 366 210 366 138 367 210 367 146 367 146 368 210 368 180 368 146 369 180 369 181 369 181 370 180 370 207 370 181 371 207 371 182 371 182 372 207 372 206 372 182 373 206 373 150 373 150 374 206 374 205 374 150 375 205 375 183 375 183 376 205 376 204 376 183 377 204 377 184 377 184 378 204 378 185 378 184 379 185 379 186 379 186 380 185 380 201 380 186 381 201 381 152 381 152 382 201 382 200 382 152 383 200 383 188 383 188 384 200 384 187 384 188 385 187 385 153 385 153 386 187 386 197 386 189 387 227 387 237 387 237 388 227 388 191 388 237 389 191 389 190 389 190 390 191 390 192 390 190 391 192 391 236 391 236 392 192 392 193 392 236 393 193 393 234 393 234 394 193 394 194 394 234 395 194 395 233 395 233 396 194 396 164 396 233 397 164 397 195 397 195 398 164 398 196 398 195 399 196 399 231 399 231 400 196 400 161 400 231 401 161 401 230 401 230 402 161 402 158 402 230 403 158 403 229 403 229 404 158 404 197 404 229 405 197 405 198 405 198 406 197 406 187 406 198 407 187 407 199 407 199 408 187 408 200 408 199 409 200 409 256 409 256 410 200 410 201 410 256 411 201 411 255 411 255 412 201 412 185 412 255 413 185 413 202 413 202 414 185 414 204 414 202 415 204 415 203 415 203 416 204 416 205 416 203 417 205 417 252 417 252 418 205 418 206 418 252 419 206 419 208 419 206 420 207 420 208 420 208 421 207 421 180 421 208 422 180 422 209 422 209 423 180 423 210 423 209 424 210 424 249 424 249 425 210 425 211 425 249 426 211 426 212 426 212 427 211 427 213 427 212 428 213 428 248 428 248 429 213 429 214 429 248 430 214 430 247 430 247 431 214 431 215 431 247 432 215 432 216 432 216 433 215 433 179 433 216 434 179 434 246 434 246 435 179 435 217 435 246 436 217 436 218 436 218 437 217 437 219 437 218 438 219 438 244 438 244 439 219 439 221 439 244 440 221 440 220 440 220 441 221 441 222 441 220 442 222 442 223 442 223 443 222 443 174 443 223 444 174 444 241 444 241 445 174 445 173 445 241 446 173 446 240 446 240 447 173 447 171 447 240 448 171 448 224 448 224 449 171 449 169 449 224 450 169 450 225 450 225 451 169 451 168 451 225 452 168 452 238 452 238 453 168 453 166 453 238 454 166 454 189 454 189 455 166 455 226 455 189 456 226 456 227 456 198 457 228 457 229 457 229 458 228 458 277 458 229 459 277 459 230 459 230 460 277 460 278 460 230 461 278 461 231 461 231 462 278 462 279 462 231 463 279 463 195 463 195 464 279 464 232 464 195 465 232 465 233 465 233 466 232 466 269 466 233 467 269 467 234 467 234 468 269 468 235 468 234 469 235 469 236 469 236 470 235 470 273 470 236 471 273 471 190 471 190 472 273 472 274 472 190 473 274 473 237 473 237 474 274 474 276 474 237 475 276 475 189 475 189 476 276 476 275 476 189 477 275 477 238 477 238 478 275 478 272 478 238 479 272 479 225 479 225 480 272 480 264 480 225 481 264 481 224 481 224 482 264 482 263 482 224 483 263 483 240 483 240 484 263 484 239 484 240 485 239 485 241 485 241 486 239 486 271 486 241 487 271 487 223 487 223 488 271 488 242 488 223 489 242 489 220 489 220 490 242 490 243 490 220 491 243 491 244 491 244 492 243 492 266 492 244 493 266 493 218 493 218 494 266 494 265 494 218 495 265 495 246 495 246 496 265 496 245 496 246 497 245 497 216 497 216 498 245 498 262 498 216 499 262 499 247 499 247 500 262 500 261 500 247 501 261 501 248 501 248 502 261 502 259 502 248 503 259 503 212 503 212 504 259 504 250 504 212 505 250 505 249 505 249 506 250 506 260 506 249 507 260 507 209 507 209 508 260 508 251 508 209 509 251 509 208 509 208 510 251 510 268 510 208 511 268 511 252 511 252 512 268 512 253 512 252 513 253 513 203 513 203 514 253 514 254 514 203 515 254 515 202 515 202 516 254 516 270 516 202 517 270 517 255 517 255 518 270 518 267 518 255 519 267 519 256 519 256 520 267 520 257 520 256 521 257 521 199 521 199 522 257 522 258 522 199 523 258 523 198 523 198 524 258 524 228 524 250 525 259 525 260 525 260 526 259 526 269 526 259 527 261 527 269 527 269 528 261 528 262 528 269 529 262 529 245 529 263 530 264 530 272 530 245 531 265 531 266 531 266 532 243 532 245 532 245 533 243 533 272 533 245 534 272 534 275 534 269 535 232 535 279 535 279 536 257 536 269 536 269 537 257 537 267 537 269 538 267 538 270 538 251 539 260 539 268 539 268 540 260 540 269 540 268 541 269 541 253 541 253 542 269 542 270 542 253 543 270 543 254 543 239 544 263 544 271 544 271 545 263 545 272 545 271 546 272 546 242 546 242 547 272 547 243 547 235 548 269 548 273 548 273 549 269 549 245 549 273 550 245 550 274 550 274 551 245 551 275 551 274 552 275 552 276 552 228 553 258 553 277 553 277 554 258 554 257 554 277 555 257 555 278 555 278 556 257 556 279 556 37 557 38 557 39 557 307 558 284 558 283 558 364 559 363 559 285 559 285 560 363 560 293 560 376 561 55 561 280 561 280 562 55 562 12 562 280 563 12 563 281 563 281 564 12 564 11 564 281 565 11 565 357 565 357 566 11 566 282 566 357 567 282 567 283 567 283 568 282 568 0 568 283 569 0 569 307 569 284 570 307 570 358 570 358 571 307 571 308 571 358 572 308 572 360 572 360 573 308 573 310 573 360 574 310 574 361 574 294 575 366 575 285 575 285 576 366 576 286 576 285 577 286 577 364 577 310 578 311 578 361 578 361 579 311 579 288 579 361 580 288 580 287 580 287 581 288 581 289 581 287 582 289 582 290 582 290 583 289 583 291 583 290 584 291 584 293 584 293 585 291 585 292 585 293 586 292 586 285 586 294 587 37 587 366 587 366 588 37 588 39 588 366 589 39 589 295 589 295 590 39 590 296 590 295 591 296 591 297 591 297 592 296 592 41 592 297 593 41 593 298 593 298 594 41 594 299 594 298 595 299 595 369 595 369 596 299 596 43 596 369 597 43 597 370 597 370 598 43 598 46 598 370 599 46 599 371 599 371 600 46 600 47 600 371 601 47 601 300 601 300 602 47 602 50 602 300 603 50 603 301 603 301 604 50 604 302 604 301 605 302 605 303 605 303 606 302 606 304 606 303 607 304 607 305 607 305 608 304 608 52 608 305 609 52 609 375 609 375 610 52 610 54 610 375 611 54 611 376 611 376 612 54 612 306 612 376 613 306 613 55 613 307 614 319 614 320 614 307 615 320 615 308 615 308 616 320 616 322 616 308 617 322 617 310 617 310 618 322 618 309 618 310 619 309 619 311 619 311 620 309 620 312 620 311 621 312 621 288 621 288 622 312 622 321 622 288 623 321 623 289 623 289 624 321 624 459 624 289 625 459 625 291 625 319 626 323 626 318 626 459 627 384 627 313 627 380 628 381 628 459 628 459 629 381 629 383 629 459 630 383 630 384 630 328 631 314 631 387 631 387 632 314 632 316 632 387 633 316 633 315 633 315 634 316 634 317 634 315 635 317 635 313 635 313 636 317 636 458 636 313 637 458 637 459 637 318 638 378 638 319 638 319 639 378 639 380 639 319 640 380 640 320 640 320 641 380 641 459 641 320 642 459 642 322 642 322 643 459 643 321 643 322 644 321 644 309 644 309 645 321 645 312 645 319 646 1 646 323 646 323 647 1 647 2 647 323 648 2 648 393 648 393 649 2 649 324 649 333 650 325 650 326 650 326 651 325 651 87 651 326 652 87 652 328 652 328 653 87 653 327 653 328 654 327 654 314 654 331 655 329 655 98 655 98 656 329 656 99 656 99 657 329 657 392 657 99 658 392 658 100 658 100 659 392 659 336 659 100 660 336 660 103 660 98 661 330 661 331 661 331 662 330 662 94 662 331 663 94 663 332 663 332 664 94 664 92 664 332 665 92 665 333 665 333 666 92 666 89 666 333 667 89 667 325 667 2 668 334 668 324 668 324 669 334 669 335 669 324 670 335 670 337 670 103 671 336 671 104 671 104 672 336 672 324 672 104 673 324 673 106 673 106 674 324 674 337 674 106 675 337 675 108 675 355 676 356 676 341 676 338 677 339 677 365 677 348 678 340 678 341 678 341 679 340 679 342 679 341 680 342 680 352 680 343 681 341 681 365 681 365 682 341 682 347 682 345 683 362 683 344 683 352 684 372 684 373 684 344 685 338 685 345 685 345 686 338 686 365 686 345 687 365 687 346 687 346 688 365 688 347 688 346 689 347 689 359 689 368 690 348 690 349 690 349 691 348 691 341 691 349 692 341 692 367 692 367 693 341 693 343 693 374 694 350 694 353 694 353 695 350 695 351 695 352 696 373 696 341 696 341 697 373 697 353 697 341 698 353 698 355 698 355 699 353 699 351 699 355 700 351 700 354 700 351 701 280 701 354 701 354 702 280 702 281 702 354 703 281 703 355 703 355 704 281 704 357 704 355 705 357 705 356 705 356 706 357 706 283 706 356 707 283 707 341 707 341 708 283 708 284 708 341 709 284 709 347 709 347 710 284 710 358 710 347 711 358 711 359 711 359 712 358 712 360 712 359 713 360 713 346 713 346 714 360 714 361 714 346 715 361 715 345 715 345 716 361 716 287 716 345 717 287 717 362 717 362 718 287 718 290 718 362 719 290 719 344 719 344 720 290 720 293 720 344 721 293 721 338 721 338 722 293 722 363 722 338 723 363 723 339 723 339 724 363 724 364 724 339 725 364 725 365 725 365 726 364 726 286 726 365 727 286 727 343 727 343 728 286 728 366 728 343 729 366 729 367 729 367 730 366 730 295 730 367 731 295 731 349 731 349 732 295 732 297 732 349 733 297 733 368 733 368 734 297 734 298 734 368 735 298 735 348 735 348 736 298 736 369 736 348 737 369 737 340 737 340 738 369 738 370 738 340 739 370 739 342 739 342 740 370 740 371 740 342 741 371 741 352 741 352 742 371 742 300 742 352 743 300 743 372 743 372 744 300 744 301 744 372 745 301 745 373 745 373 746 301 746 303 746 373 747 303 747 353 747 353 748 303 748 305 748 353 749 305 749 374 749 374 750 305 750 375 750 374 751 375 751 350 751 350 752 375 752 376 752 350 753 376 753 351 753 351 754 376 754 280 754 393 755 394 755 323 755 323 756 394 756 377 756 323 757 377 757 318 757 318 758 377 758 404 758 318 759 404 759 378 759 378 760 404 760 379 760 378 761 379 761 380 761 380 762 379 762 395 762 380 763 395 763 381 763 381 764 395 764 382 764 381 765 382 765 383 765 383 766 382 766 400 766 383 767 400 767 384 767 384 768 400 768 398 768 384 769 398 769 313 769 313 770 398 770 385 770 313 771 385 771 315 771 315 772 385 772 386 772 315 773 386 773 387 773 387 774 386 774 396 774 387 775 396 775 328 775 328 776 396 776 388 776 328 777 388 777 326 777 326 778 388 778 389 778 326 779 389 779 333 779 333 780 389 780 397 780 333 781 397 781 332 781 332 782 397 782 401 782 332 783 401 783 331 783 331 784 401 784 390 784 331 785 390 785 329 785 329 786 390 786 391 786 329 787 391 787 392 787 392 788 391 788 399 788 392 789 399 789 336 789 336 790 399 790 403 790 336 791 403 791 324 791 324 792 403 792 402 792 324 793 402 793 393 793 393 794 402 794 394 794 382 795 395 795 379 795 388 796 396 796 386 796 388 797 386 797 389 797 389 798 386 798 385 798 389 799 385 799 397 799 397 800 385 800 398 800 397 801 398 801 400 801 399 802 391 802 403 802 403 803 391 803 379 803 400 804 382 804 397 804 397 805 382 805 379 805 397 806 379 806 401 806 401 807 379 807 391 807 401 808 391 808 390 808 394 809 402 809 377 809 377 810 402 810 403 810 377 811 403 811 404 811 404 812 403 812 379 812 129 813 148 813 17 813 17 814 148 814 408 814 17 815 408 815 18 815 405 816 407 816 406 816 406 817 407 817 15 817 406 818 15 818 408 818 408 819 15 819 409 819 408 820 409 820 18 820 413 821 414 821 5 821 5 822 410 822 413 822 413 823 410 823 16 823 413 824 16 824 406 824 406 825 16 825 411 825 406 826 411 826 405 826 9 827 8 827 412 827 412 828 8 828 7 828 412 829 7 829 413 829 413 830 7 830 6 830 413 831 6 831 414 831 3 832 415 832 417 832 417 833 415 833 419 833 9 834 412 834 416 834 416 835 412 835 417 835 416 836 417 836 418 836 418 837 417 837 419 837 418 838 419 838 420 838 421 839 73 839 136 839 422 840 83 840 425 840 423 841 424 841 75 841 75 842 424 842 426 842 423 843 422 843 424 843 424 844 422 844 425 844 424 845 425 845 140 845 140 846 425 846 82 846 140 847 82 847 110 847 110 848 82 848 80 848 78 849 77 849 426 849 426 850 77 850 76 850 426 851 76 851 75 851 136 852 73 852 427 852 427 853 73 853 72 853 427 854 72 854 428 854 428 855 429 855 427 855 427 856 429 856 430 856 427 857 430 857 426 857 426 858 430 858 79 858 426 859 79 859 78 859 112 860 113 860 136 860 136 861 113 861 431 861 136 862 431 862 421 862 25 863 437 863 144 863 30 864 432 864 433 864 31 865 30 865 156 865 156 866 30 866 433 866 156 867 433 867 154 867 154 868 433 868 434 868 154 869 434 869 35 869 35 870 434 870 29 870 435 871 26 871 155 871 155 872 26 872 436 872 155 873 436 873 156 873 156 874 436 874 34 874 156 875 34 875 31 875 144 876 437 876 441 876 441 877 437 877 438 877 441 878 438 878 439 878 439 879 440 879 441 879 441 880 440 880 28 880 441 881 28 881 155 881 155 882 28 882 27 882 155 883 27 883 435 883 128 884 442 884 144 884 144 885 442 885 443 885 144 886 443 886 25 886 68 887 151 887 444 887 444 888 151 888 448 888 447 889 451 889 71 889 71 890 445 890 447 890 447 891 445 891 446 891 447 892 446 892 448 892 448 893 446 893 69 893 448 894 69 894 444 894 449 895 65 895 64 895 64 896 63 896 449 896 449 897 63 897 450 897 449 898 450 898 447 898 447 899 450 899 62 899 447 900 62 900 451 900 65 901 449 901 452 901 452 902 449 902 453 902 452 903 453 903 67 903 455 904 85 904 456 904 58 905 67 905 60 905 60 906 67 906 453 906 60 907 453 907 454 907 454 908 453 908 455 908 454 909 455 909 61 909 61 910 455 910 456 910 61 911 456 911 457 911 0 912 1 912 307 912 307 913 1 913 319 913 458 914 292 914 459 914 459 915 292 915 291 915</p>
                </triangles>
            </mesh>
        </geometry>
    </library_geometries>
    <library_visual_scenes>
        <visual_scene id="VisualSceneNode" name="VisualScene">
            <node id="node" name="node">
                <instance_geometry url="#shape0-lib">
                    <bind_material>
                        <technique_common/>
                    </bind_material>
                </instance_geometry>
            </node>
        </visual_scene>
    </library_visual_scenes>
    <scene>
        <instance_visual_scene url="#VisualSceneNode"/>
    </scene>
</COLLADA>
