===============================================================================
Primera computación de la matriz de inercia desde meshlab:
===============================================================================

LOG: 2 Mesh Bounding Box Size 0.092753 0.092753 0.116700
LOG: 2 Mesh Bounding Box Diag 0.175571 
LOG: 2 Mesh Volume  is 0.000319
LOG: 2 Mesh Surface is 0.055319
LOG: 2 Thin shell barycenter   0.000000   0.000000  -0.030816
LOG: 2 Center of Mass  is -0.000000 -0.000000 -0.054637
LOG: 2 Inertia Tensor is :
LOG: 2     |  0.000000  -0.000000   0.000000 |
LOG: 2     | -0.000000   0.000000   0.000000 |
LOG: 2     |  0.000000   0.000000   0.000000 |
LOG: 2 Principal axes are :
LOG: 2     |  0.937922  -0.346846  -0.000009 |
LOG: 2     |  0.346846   0.937922  -0.000011 |
LOG: 2     |  0.000012   0.000007   1.000000 |
LOG: 2 axis momenta are :
LOG: 2     |  0.000000   0.000000   0.000000 |

===============================================================================
Factor de escala: 1/Mesh Volume
===============================================================================

	s^3 = 1/0.000319 = 3134.8
	s = 14.635 
	s Meshlab = 10

===============================================================================
Segunda computación de la matriz de inercia desde meshlab:
===============================================================================

LOG: 2 Mesh Bounding Box Size 0.927528 0.927528 1.167000
LOG: 2 Mesh Bounding Box Diag 1.755707 
LOG: 2 Mesh Volume  is 0.318863
LOG: 2 Mesh Surface is 5.531906
LOG: 2 Thin shell barycenter   0.000000   0.000000   0.171993
LOG: 2 Center of Mass  is -0.000002 -0.000002 -0.066217
LOG: 2 Inertia Tensor is :
LOG: 2     |  0.045067  -0.000000   0.000000 |
LOG: 2     | -0.000000   0.045067   0.000000 |
LOG: 2     |  0.000000   0.000000   0.019191 |
LOG: 2 Principal axes are :
LOG: 2     |  0.928192  -0.372103  -0.000009 |
LOG: 2     |  0.372103   0.928192  -0.000011 |
LOG: 2     |  0.000012   0.000006   1.000000 |
LOG: 2 axis momenta are :
LOG: 2     |  0.045067   0.045067   0.019191 |

===============================================================================
Factor de escala: 1/Mesh Volume
===============================================================================

        s^3 = 1/0.318863 = 1.4637
        s = 1.4637
        s Meshlab = 1.4637

===============================================================================
Tercera computación de la matriz de inercia desde meshlab:
===============================================================================

LOG: 2 Mesh Bounding Box Size 1.357623 1.357623 1.708138
LOG: 2 Mesh Bounding Box Diag 2.569828 
LOG: 2 Mesh Volume  is 0.999908
LOG: 2 Mesh Surface is 11.851395
LOG: 2 Thin shell barycenter   0.000001   0.000000   0.276473
LOG: 2 Center of Mass  is -0.000002 -0.000003 -0.072183
LOG: 2 Inertia Tensor is :
LOG: 2     |  0.302775  -0.000000   0.000002 |
LOG: 2     | -0.000000   0.302775   0.000002 |
LOG: 2     |  0.000002   0.000002   0.128934 |
LOG: 2 Principal axes are :
LOG: 2     |  0.928863  -0.370424  -0.000009 |
LOG: 2     |  0.370424   0.928863  -0.000011 |
LOG: 2     |  0.000012   0.000007   1.000000 |
LOG: 2 axis momenta are :
LOG: 2     |  0.302775   0.302775   0.128934 |


===============================================================================
Multiplicando Inertia Tensor por 1/s^2 en Octave
===============================================================================

A = [0.302775 , -0.000000 ,  0.000002; -0.000000,   0.302775  , 0.000002; 0.000002 ,  0.000002 ,  0.128934]
A =

   0.30278  -0.00000   0.00000
  -0.00000   0.30278   0.00000
   0.00000   0.00000   0.12893

octave:34> A*(1/(14.637^2))
ans =

   0.0014132  -0.0000000   0.0000000
  -0.0000000   0.0014132   0.0000000
   0.0000000   0.0000000   0.0006018

===============================================================================
URDF tags
===============================================================================
        <xacro:property name="inertia_6_link">
                <inertia        ixx="0.0014132" ixy="0" ixz="0"
                                         iyy="0.0014132"  iyz="0"
                                                 izz="0.0006018"/>
        </xacro:property>

