===============================================================================
Primera computación de la matriz de inercia desde meshlab:
===============================================================================


===============================================================================
Factor de escala: 1/Mesh Volume
===============================================================================

	s^3 = 1/? = 
	s = 
	s Meshlab = 

===============================================================================
Segunda computación de la matriz de inercia desde meshlab:
===============================================================================


===============================================================================
Multiplicando Inertia Tensor por 1/s^2 en Octave
===============================================================================


===============================================================================
URDF tags
===============================================================================

