<?xml version="1.0"?>

<robot name="rescuer" xmlns:xacro="http://www.ros.org/wiki/xacro">

	<xacro:property name="gravityOff" value="false" />
	<xacro:property name="selfCollide" value="true" />
	<xacro:property name="selfCollideFixedJoint" value="false" />

  <xacro:macro name="rescuer_modular_gazebo" params="name">
    
	<gazebo reference="${name}_0_link">
		<material value="Gazebo/Red" />
		<turnGravityOff>${gravityOff}</turnGravityOff>
		<selfCollide>${selfCollideFixedJoint}</selfCollide>
	</gazebo>

	<gazebo reference="${name}_1_link">
		<material value="Gazebo/Green" />
		<turnGravityOff>${gravityOff}</turnGravityOff>
		<selfCollide>${selfCollide}</selfCollide>
	</gazebo>
	
	<gazebo reference="${name}_2_link">
		<material value="Gazebo/Red" />
		<turnGravityOff>${gravityOff}</turnGravityOff>
		<selfCollide>${selfCollide}</selfCollide>
	</gazebo>
	
	<gazebo reference="${name}_3_link">
		<material value="Gazebo/Green" />
		<turnGravityOff>${gravityOff}</turnGravityOff>
		<selfCollide>${selfCollide}</selfCollide>
	</gazebo>
	
	<gazebo reference="${name}_4_link">
		<material value="Gazebo/Red" />
		<turnGravityOff>${gravityOff}</turnGravityOff>
		<selfCollide>${selfCollide}</selfCollide>
	</gazebo>

	<gazebo reference="${name}_5_link">
		<material value="Gazebo/Green" />
		<turnGravityOff>${gravityOff}</turnGravityOff>
		<selfCollide>${selfCollide}</selfCollide>
	</gazebo>

	<gazebo reference="${name}_6_link">
		<material value="Gazebo/Red" />
		<turnGravityOff>${gravityOff}</turnGravityOff>
		<selfCollide>${selfCollide}</selfCollide>
	</gazebo>


  </xacro:macro>

</robot>
