digraph G {
node [shape=box];
"base" [label="base"];
"arm_0_link" [label="arm_0_link"];
"arm_1_link" [label="arm_1_link"];
"arm_2_link" [label="arm_2_link"];
"arm_3_link" [label="arm_3_link"];
"arm_4_link" [label="arm_4_link"];
"arm_5_link" [label="arm_5_link"];
"arm_6_link" [label="arm_6_link"];
node [shape=ellipse, color=blue, fontcolor=blue];
"base" -> "arm_0_joint" [label="xyz: 0 0 0 \nrpy: 0 -0 0"]
"arm_0_joint" -> "arm_0_link"
"arm_0_link" -> "arm_1_joint" [label="xyz: 0 0 -0.24 \nrpy: 0 -0 3.14159"]
"arm_1_joint" -> "arm_1_link"
"arm_1_link" -> "arm_2_joint" [label="xyz: 0 0 0 \nrpy: 1.5708 -0 0"]
"arm_2_joint" -> "arm_2_link"
"arm_2_link" -> "arm_3_joint" [label="xyz: 0 -0.395 0 \nrpy: -1.5708 0 0"]
"arm_3_joint" -> "arm_3_link"
"arm_3_link" -> "arm_4_joint" [label="xyz: 0 0 -0.2715 \nrpy: 1.5708 -0 0"]
"arm_4_joint" -> "arm_4_link"
"arm_4_link" -> "arm_5_joint" [label="xyz: 0 0 0 \nrpy: -1.57079 -1.57079 -3.14159"]
"arm_5_joint" -> "arm_5_link"
"arm_5_link" -> "arm_6_joint" [label="xyz: 0 0 0.1847 \nrpy: 0 -0 0"]
"arm_6_joint" -> "arm_6_link"
}
