<?xml version="1.0"?>


<robot name="rescuer" xmlns:xacro="http://www.ros.org/wiki/xacro">
  <xacro:macro name="rescuer_kinect_gazebo" params="name">
    
	<gazebo reference="${name}_link">
		
		<material value="Gazebo/Blue" />
		<turnGravityOff>false</turnGravityOff>
		<sensor type="depth" name="openni_camera_camera">       
			<always_on>1</always_on>
			<visualize>true</visualize>             
			<camera>
			    <horizontal_fov>1.047</horizontal_fov>  
			    <image>
				<width>640</width>
				<height>480</height>
				<format>R8G8B8</format>
			    </image>
			    <depth_camera>

			    </depth_camera>
			    <clip>
				<near>0.1</near>
				<far>100</far>
			    </clip>
			</camera>
			<plugin name="${name}_link_controller" filename="libgazebo_ros_openni_kinect.so">
				<!--robotNamespace>/rescuer</robotNamespace-->
				<baseline>0.2</baseline>
				<alwaysOn>true</alwaysOn>
				<updateRate>1.0</updateRate>
				<cameraName>rescuer/${name}</cameraName>
				<imageTopicName>depth_registered/image_raw</imageTopicName>
				<cameraInfoTopicName>depth_registered/camera_info</cameraInfoTopicName>
				<depthImageTopicName>depth_registered/image_raw</depthImageTopicName>
				<depthImageInfoTopicName>depth_registered/camera_info</depthImageInfoTopicName>
				<pointCloudTopicName>depth_registered/points</pointCloudTopicName>
				<frameName>camera_depth_optical_frame</frameName>
				<pointCloudCutoff>0.5</pointCloudCutoff>
				<distortionK1>0</distortionK1>
				<distortionK2>0</distortionK2>
				<distortionK3>0</distortionK3>
				<distortionT1>0</distortionT1>
				 <distortionT2>0</distortionT2>
				<CxPrime>0</CxPrime>
				<Cx>0</Cx>
				<Cy>0</Cy>
				<focalLength>0</focalLength>
				<hackBaseline>0</hackBaseline>
				<depthImageCameraInfoTopicName>depthcamerainfo</depthImageCameraInfoTopicName>
			</plugin>
		</sensor>

	</gazebo>

	<gazebo reference="${name}_depth_frame">
		<material value="Gazebo/Black" />
		<turnGravityOff>false</turnGravityOff>

	</gazebo>
	
	<gazebo reference="${name}_depth_optical_frame">
		<material value="Gazebo/Black" />
		<turnGravityOff>false</turnGravityOff>
	</gazebo>
	
  </xacro:macro>

</robot>
