<?xml version="1.0" encoding="UTF-8" standalone="no"?>
<!-- Created with Inkscape (http://www.inkscape.org/) -->

<svg
   xmlns:dc="http://purl.org/dc/elements/1.1/"
   xmlns:cc="http://creativecommons.org/ns#"
   xmlns:rdf="http://www.w3.org/1999/02/22-rdf-syntax-ns#"
   xmlns:svg="http://www.w3.org/2000/svg"
   xmlns="http://www.w3.org/2000/svg"
   xmlns:sodipodi="http://sodipodi.sourceforge.net/DTD/sodipodi-0.dtd"
   xmlns:inkscape="http://www.inkscape.org/namespaces/inkscape"
   width="372.04724"
   height="262.20471"
   id="svg2"
   version="1.1"
   inkscape:version="0.48.3.1 r9886"
   sodipodi:docname="barretBase2.svg"
   inkscape:export-filename="/home/xulioxesus/development/rescuer_catkin/rescuer_catkin/doc/TFI/images/barretBase2.png"
   inkscape:export-xdpi="500"
   inkscape:export-ydpi="500">
  <defs
     id="defs4" />
  <sodipodi:namedview
     id="base"
     pagecolor="#ffffff"
     bordercolor="#666666"
     borderopacity="1.0"
     inkscape:pageopacity="0.0"
     inkscape:pageshadow="2"
     inkscape:zoom="1.4"
     inkscape:cx="-25.278448"
     inkscape:cy="267.28221"
     inkscape:document-units="px"
     inkscape:current-layer="layer1"
     showgrid="false"
     inkscape:window-width="1920"
     inkscape:window-height="1031"
     inkscape:window-x="0"
     inkscape:window-y="25"
     inkscape:window-maximized="1" />
  <metadata
     id="metadata7">
    <rdf:RDF>
      <cc:Work
         rdf:about="">
        <dc:format>image/svg+xml</dc:format>
        <dc:type
           rdf:resource="http://purl.org/dc/dcmitype/StillImage" />
        <dc:title></dc:title>
      </cc:Work>
    </rdf:RDF>
  </metadata>
  <g
     inkscape:label="Capa 1"
     inkscape:groupmode="layer"
     id="layer1"
     transform="translate(0,-790.15742)">
    <path
       sodipodi:type="arc"
       style="fill:none;stroke:#000000;stroke-width:1;stroke-miterlimit:4;stroke-opacity:0.11792453;stroke-dasharray:none"
       id="path2985"
       sodipodi:cx="53.92857"
       sodipodi:cy="53.276142"
       sodipodi:rx="12.5"
       sodipodi:ry="12.5"
       d="m 66.42857,53.276142 a 12.5,12.5 0 1 1 -25,0 12.5,12.5 0 1 1 25,0 z"
       transform="matrix(-1,0,0,1,334.68752,811.94313)" />
    <path
       sodipodi:type="arc"
       style="fill:#f31c34;fill-opacity:1;stroke:#000000;stroke-width:1;stroke-miterlimit:4;stroke-opacity:1;stroke-dasharray:none"
       id="path2985-2"
       sodipodi:cx="53.92857"
       sodipodi:cy="53.276142"
       sodipodi:rx="12.5"
       sodipodi:ry="12.5"
       d="m 66.42857,53.276142 a 12.5,12.5 0 1 1 -25,0 12.5,12.5 0 1 1 25,0 z"
       transform="matrix(-1,0,0,1,124.03275,883.90742)" />
    <path
       sodipodi:type="arc"
       style="fill:#000000;fill-opacity:1;stroke:#000000;stroke-width:1;stroke-miterlimit:4;stroke-opacity:1;stroke-dasharray:none"
       id="path2985-0"
       sodipodi:cx="53.92857"
       sodipodi:cy="53.276142"
       sodipodi:rx="12.5"
       sodipodi:ry="12.5"
       d="m 66.42857,53.276142 a 12.5,12.5 0 1 1 -25,0 12.5,12.5 0 1 1 25,0 z"
       transform="matrix(-1,0,0,1,183.19199,883.90742)" />
    <path
       sodipodi:type="arc"
       style="fill:none;stroke:#000000;stroke-width:1;stroke-miterlimit:4;stroke-opacity:0.11764706;stroke-dasharray:none"
       id="path2985-2-4"
       sodipodi:cx="53.92857"
       sodipodi:cy="53.276142"
       sodipodi:rx="12.5"
       sodipodi:ry="12.5"
       d="m 66.42857,53.276142 a 12.5,12.5 0 1 1 -25,0 12.5,12.5 0 1 1 25,0 z"
       transform="matrix(-1,0,0,1,161.29467,811.94313)" />
    <path
       sodipodi:type="arc"
       style="fill:none;stroke:#000000;stroke-width:1;stroke-miterlimit:4;stroke-opacity:0.11792453;stroke-dasharray:none"
       id="path2985-1"
       sodipodi:cx="53.92857"
       sodipodi:cy="53.276142"
       sodipodi:rx="12.5"
       sodipodi:ry="12.5"
       d="m 66.42857,53.276142 a 12.5,12.5 0 1 1 -25,0 12.5,12.5 0 1 1 25,0 z"
       transform="matrix(-1,0,0,1,360.66966,883.90742)" />
    <path
       sodipodi:type="arc"
       style="fill:none;stroke:#000000;stroke-width:1;stroke-miterlimit:4;stroke-opacity:0.11792453;stroke-dasharray:none"
       id="path2985-2-0"
       sodipodi:cx="53.92857"
       sodipodi:cy="53.276142"
       sodipodi:rx="12.5"
       sodipodi:ry="12.5"
       d="m 66.42857,53.276142 a 12.5,12.5 0 1 1 -25,0 12.5,12.5 0 1 1 25,0 z"
       transform="matrix(-1,0,0,1,301.51044,883.90742)" />
    <path
       sodipodi:type="arc"
       style="fill:#0062c1;fill-opacity:1;stroke:#000000;stroke-width:1;stroke-miterlimit:4;stroke-opacity:1;stroke-dasharray:none"
       id="path2985-0-2"
       sodipodi:cx="53.92857"
       sodipodi:cy="53.276142"
       sodipodi:rx="12.5"
       sodipodi:ry="12.5"
       d="m 66.42857,53.276142 a 12.5,12.5 0 1 1 -25,0 12.5,12.5 0 1 1 25,0 z"
       transform="matrix(-1,0,0,1,276.8899,811.94313)" />
    <path
       sodipodi:type="arc"
       style="fill:#a3716f;fill-opacity:1;stroke:#000000;stroke-width:1;stroke-miterlimit:4;stroke-opacity:1;stroke-dasharray:none"
       id="path2985-2-4-0"
       sodipodi:cx="53.92857"
       sodipodi:cy="53.276142"
       sodipodi:rx="12.5"
       sodipodi:ry="12.5"
       d="m 66.42857,53.276142 a 12.5,12.5 0 1 1 -25,0 12.5,12.5 0 1 1 25,0 z"
       transform="matrix(-1,0,0,1,152.82144,954.44314)" />
    <path
       sodipodi:type="arc"
       style="fill:#a6a6a6;fill-opacity:1;stroke:#000000;stroke-width:1;stroke-miterlimit:4;stroke-opacity:1;stroke-dasharray:none"
       id="path2985-2-4-0-5"
       sodipodi:cx="53.92857"
       sodipodi:cy="53.276142"
       sodipodi:rx="12.5"
       sodipodi:ry="12.5"
       d="m 66.42857,53.276142 a 12.5,12.5 0 1 1 -25,0 12.5,12.5 0 1 1 25,0 z"
       transform="matrix(-1,0,0,1,93.61608,954.44314)" />
    <path
       sodipodi:type="arc"
       style="fill:none;stroke:#000000;stroke-width:1;stroke-miterlimit:4;stroke-opacity:0.11792453;stroke-dasharray:none"
       id="path2985-1-7"
       sodipodi:cx="53.92857"
       sodipodi:cy="53.276142"
       sodipodi:rx="12.5"
       sodipodi:ry="12.5"
       d="m 66.42857,53.276142 a 12.5,12.5 0 1 1 -25,0 12.5,12.5 0 1 1 25,0 z"
       transform="matrix(-1,0,0,1,389.64287,954.44314)" />
    <path
       sodipodi:type="arc"
       style="fill:none;stroke:#000000;stroke-width:1;stroke-miterlimit:4;stroke-opacity:0.11764706;stroke-dasharray:none"
       id="path2985-2-0-2"
       sodipodi:cx="53.92857"
       sodipodi:cy="53.276142"
       sodipodi:rx="12.5"
       sodipodi:ry="12.5"
       d="m 66.42857,53.276142 a 12.5,12.5 0 1 1 -25,0 12.5,12.5 0 1 1 25,0 z"
       transform="matrix(-1,0,0,1,330.43752,954.44314)" />
    <path
       sodipodi:type="arc"
       style="fill:none;stroke:#000000;stroke-width:1;stroke-miterlimit:4;stroke-opacity:1;stroke-dasharray:none"
       id="path2985-0-2-0"
       sodipodi:cx="53.92857"
       sodipodi:cy="53.276142"
       sodipodi:rx="12.5"
       sodipodi:ry="12.5"
       d="m 66.42857,53.276142 a 12.5,12.5 0 1 1 -25,0 12.5,12.5 0 1 1 25,0 z"
       transform="matrix(-1,0,0,1,212.0268,954.44314)" />
    <path
       sodipodi:type="arc"
       style="fill:#fffd00;fill-opacity:1;stroke:#000000;stroke-width:1;stroke-miterlimit:4;stroke-opacity:1;stroke-dasharray:none"
       id="path2985-2-4-0-4"
       sodipodi:cx="53.92857"
       sodipodi:cy="53.276142"
       sodipodi:rx="12.5"
       sodipodi:ry="12.5"
       d="m 66.42857,53.276142 a 12.5,12.5 0 1 1 -25,0 12.5,12.5 0 1 1 25,0 z"
       transform="matrix(-1,0,0,1,242.35121,883.90742)" />
    <path
       sodipodi:type="arc"
       style="fill:#ff00cc;fill-opacity:1;stroke:#000000;stroke-width:1;stroke-miterlimit:4;stroke-opacity:1;stroke-dasharray:none"
       id="path2985-2-4-0-5-7"
       sodipodi:cx="53.92857"
       sodipodi:cy="53.276142"
       sodipodi:rx="12.5"
       sodipodi:ry="12.5"
       d="m 66.42857,53.276142 a 12.5,12.5 0 1 1 -25,0 12.5,12.5 0 1 1 25,0 z"
       transform="matrix(-1,0,0,1,219.09228,811.94313)" />
    <path
       sodipodi:type="arc"
       style="fill:#c700f6;fill-opacity:1;stroke:#000000;stroke-width:1;stroke-miterlimit:4;stroke-opacity:1;stroke-dasharray:none"
       id="path2985-2-4-0-5-7-7"
       sodipodi:cx="53.92857"
       sodipodi:cy="53.276142"
       sodipodi:rx="12.5"
       sodipodi:ry="12.5"
       d="m 66.42857,53.276142 a 12.5,12.5 0 1 1 -25,0 12.5,12.5 0 1 1 25,0 z"
       transform="matrix(-1,0,0,1.0076541,271.23215,954.03536)" />
    <text
       xml:space="preserve"
       style="font-size:40px;font-style:normal;font-weight:normal;line-height:125%;letter-spacing:0px;word-spacing:0px;fill:#000000;fill-opacity:1;stroke:none;font-family:Sans"
       x="126.42857"
       y="825.93353"
       id="text3917"
       sodipodi:linespacing="125%"><tspan
         sodipodi:role="line"
         id="tspan3919"
         x="126.42857"
         y="825.93353">Base</tspan></text>
  </g>
</svg>
