<?xml version="1.0"?>

<robot name="rescuer" xmlns:xacro="http://www.ros.org/wiki/xacro">
        <xacro:include filename="$(find rescuer_description)/urdf/kinect/kinect.gazebo.xacro" />
        <!--xacro:include filename="$(find rescuer_description)/urdf/kinect/kinect.transmission.xacro" /-->

	<xacro:property name="pi" value="3.14159265359" />

	<!-- Origin is set outside by: origin xyz="0.6 0 0.34" rpy="0 0 0" /-->
	<!-- Default offsets for kinect on turtlebot -->
	<xacro:property name="cam_px" value="-0.087" />
	<xacro:property name="cam_py" value="-0.0125" />
	<xacro:property name="cam_pz" value="0.2870" />

        <xacro:macro name="rescuer_kinect_urdf" params="parent name *origin">
		
		<!-- joint between base_link and kinect_link -->
                <joint name="camera_rgb_joint" type="fixed" >
                        <insert_block name="origin" />
                        <parent link="${parent}" />
                        <child link="camera_rgb_frame" />
                </joint>

		<link name="camera_rgb_frame">
      			<inertial>
				<mass value="0.001" />
				<origin xyz="0 0 0" />
				<inertia ixx="0.0001" ixy="0.0" ixz="0.0"
				 iyy="0.0001" iyz="0.0"
				 izz="0.0001" />
		      	</inertial>
		</link>
		
		<joint name="camera_rgb_optical_joint" type="fixed">
	      		<origin xyz="0 0 0" rpy="${-pi/2} 0 ${-pi/2}" />
			<parent link="camera_rgb_frame" />
			<child link="camera_rgb_optical_frame" />
		</joint>

		<link name="camera_rgb_optical_frame">
			<inertial>
				<mass value="0.001" />
				<origin xyz="0 0 0" />
				<inertia ixx="0.0001" ixy="0.0" ixz="0.0"
				 iyy="0.0001" iyz="0.0"
				 izz="0.0001" />
			</inertial>
		</link>

		<joint name="camera_joint" type="fixed">
			<origin xyz="-0.031 ${-cam_py} -0.016" rpy="0 0 0"/>
			<parent link="camera_rgb_frame"/>
			<child link="camera_link"/>
		</joint>

		<link name="camera_link">
			<visual>
				<!--origin xyz="0 0 0" rpy="0 0 ${pi/2}"/-->
				<origin xyz="0.032 0 0.01905" rpy="0 0 0"/>
				<geometry>
		    			<box size="0.064 0.121 0.0381" />
					<!--mesh filename="package://rescuer_description/meshes/kinect/kinect.dae"/-->
		    		</geometry>
		    		<material name="Gazebo/Blue" />
			</visual>
			<collision>
				<!--origin xyz="0.0 0.0 0.0" rpy="0 0 0"/-->
				<origin xyz="0.032 0 0.01905" rpy="0 0 0"/>
				<geometry>
		    			<box size="0.064 0.121 0.0381" />
				</geometry>
			</collision>
			<inertial>
				<mass value="0.001" />
				<origin xyz="0 0 0" />
				<inertia ixx="0.0001" ixy="0.0" ixz="0.0"
				iyy="0.0001" iyz="0.0"
				izz="0.0001" />
			</inertial>
		</link>

		<joint name="camera_depth_joint" type="fixed">
		  	<!--origin xyz="0 0.028 0" rpy="${-pi/2} 0 ${-pi/2}" /-->
		  	<origin xyz="0 0.028 0" rpy="0 0 0" />
		  	<parent link="camera_rgb_frame" />
		  	<child link="camera_depth_frame" />
		</joint>

		<link name="camera_depth_frame">
			<inertial>
		      		<mass value="0.0001" />
		      		<origin xyz="0 0 0" />
		      		<inertia ixx="0.0001" ixy="0.0" ixz="0.0" iyy="0.0001" iyz="0.0" izz="0.0001" />
		  	</inertial>
		</link>

		<joint name="camera_depth_optical_joint" type="fixed">
		  	<!--origin xyz="0 0 0" rpy="0 0 0" /-->
		  	<origin xyz="0 0 0" rpy="${-pi/2} 0 ${-pi/2}" />
			<parent link="camera_depth_frame" />
			<child link="camera_depth_optical_frame" />
		</joint>

		<link name="camera_depth_optical_frame">
		 	<inertial>
		      		<mass value="0.0001" />
		      		<origin xyz="0 0 0" />
		      		<inertia ixx="0.0001" ixy="0.0" ixz="0.0" iyy="0.0001" iyz="0.0" izz="0.0001" />
		  	</inertial>
		</link>

	 	<!-- extensions -->
                <xacro:rescuer_kinect_gazebo name="${name}" />
                <!--xacro:rescuer_kinect_transmission name="${name}" /-->
        </xacro:macro>
</robot>
