\relax 
\ifx\hyper@anchor\@undefined
\global \let \oldcontentsline\contentsline
\gdef \contentsline#1#2#3#4{\oldcontentsline{#1}{#2}{#3}}
\global \let \oldnewlabel\newlabel
\gdef \newlabel#1#2{\newlabelxx{#1}#2}
\gdef \newlabelxx#1#2#3#4#5#6{\oldnewlabel{#1}{{#2}{#3}}}
\AtEndDocument{\let \contentsline\oldcontentsline
\let \newlabel\oldnewlabel}
\else
\global \let \hyper@last\relax 
\fi

\citation{Sim15}
\citation{Sim15-3}
\citation{Sim15-4}
\citation{Sim15-2}
\select@language{english}
\@writefile{toc}{\select@language{english}}
\@writefile{lof}{\select@language{english}}
\@writefile{lot}{\select@language{english}}
\@writefile{toc}{\contentsline {chapter}{\numberline {1}Simulaci\'on. Gazebo.}{1}{chapter.1}}
\@writefile{lof}{\addvspace {10\p@ }}
\@writefile{lot}{\addvspace {10\p@ }}
\@writefile{lol}{\addvspace {10\p@ }}
\@writefile{toc}{\contentsline {section}{\numberline {1.1}Introducci\'on.}{1}{section.1.1}}
\@writefile{toc}{\contentsline {section}{\numberline {1.2}Instalaci\'on de Gazebo.}{1}{section.1.2}}
\@writefile{toc}{\contentsline {section}{\numberline {1.3}Integraci\'on con ROS.}{1}{section.1.3}}
\@writefile{toc}{\contentsline {section}{\numberline {1.4}Calculando inercias.}{1}{section.1.4}}
\@writefile{toc}{\contentsline {section}{\numberline {1.5}Problems.}{1}{section.1.5}}
