<?xml version="1.0" encoding="UTF-8"?>
<COLLADA xmlns="http://www.collada.org/2005/11/COLLADASchema" version="1.4.1">
    <asset>
        <contributor>
            <author>VCGLab</author>
            <authoring_tool>VCGLib | MeshLab</authoring_tool>
        </contributor>
        <up_axis>Y_UP</up_axis>
        <created>mar nov 10 10:52:53 2015</created>
        <modified>mar nov 10 10:52:53 2015</modified>
    </asset>
    <library_images/>
    <library_materials/>
    <library_effects/>
    <library_geometries>
        <geometry id="shape0-lib" name="shape0">
            <mesh>
                <source id="shape0-lib-positions" name="position">
                    <float_array id="shape0-lib-positions-array" count="2988">0.0900235 0.3905 -0.056 0.136547 0.312 -0.056 0.0900235 0.312 -0.056 0.21207 0.3905 -0.056 0.21207 0.312 -0.056 0.287594 0.3905 -0.056 0.465943 0.3905 0.0345906 0.444587 0.312 -0.00674166 0.479255 0.312 0.0603548 0.535278 0.312 0.168784 0.569017 0.3905 0.236215 0.564122 0.3905 0.224607 0.568921 0.3905 0.287649 0.558498 0.312 0.308268 0.418765 0.3905 0.342789 0.418765 0.312 0.342789 0.465289 0.312 0.342789 0.343242 0.312 0.342789 0.389765 0.312 0.342789 0.267718 0.312 0.342789 0.314242 0.312 0.342789 0.192195 0.312 0.342789 0.116671 0.312 0.342789 0.0411478 0.3905 0.342789 0.0411478 0.312 0.342789 0.0121479 0.312 0.342789 -0.0633756 0.312 0.342789 -0.138899 0.312 0.342789 -0.260946 0.3905 0.342789 -0.214423 0.3905 0.342789 -0.260946 0.312 0.342789 -0.214423 0.312 0.342789 -0.336469 0.3905 0.342789 -0.289946 0.312 0.342789 -0.365469 0.312 0.342789 -0.454166 0.3905 0.342789 -0.470685 0.312 0.341087 -0.48651 0.3905 0.336051 -0.524705 0.3905 0.301604 -0.363117 0.3905 -0.056 -0.24107 0.3905 -0.056 -0.24107 0.312 -0.056 -0.21207 0.312 -0.056 -0.392117 0.3905 -0.0555506 -0.458513 0.3905 0.0378633 -0.458513 0.312 0.0378633 -0.530238 0.312 0.233966 -0.534458 0.312 0.251103 0.537874 0.312 0.328656 0.517099 0.3905 0.338854 0.494289 0.3905 0.342761 0.517099 0.312 0.338854 0.392117 0.3905 -0.0555506 0.413914 0.312 -0.0479804 0.430808 0.312 -0.0322646 0.598728 0.312 0.251181 -0.336469 0.312 0.342789 -0.289946 0.312 0.342789 -0.529124 0.312 0.264312 -0.522711 0.312 0.29223 -0.440993 0.312 0.358789 -0.421993 0.312 0.368789 -0.440993 0.312 0.342789 -0.510397 0.312 0.17972 0.363117 0.312 -0.072 -0.185422 0.312 0.342789 -0.535385 0.312 0.201459 -0.484455 0.312 0.108791 -0.279946 0.312 0.368789 -0.289946 0.312 0.358789 -0.260946 0.312 0.358789 -0.355469 0.312 0.368789 -0.346469 0.312 0.368789 -0.365469 0.312 0.358789 -0.336469 0.312 0.358789 -0.468475 0.312 0.0650987 -0.489458 0.312 0.0467763 -0.483501 0.312 0.0596028 -0.214423 0.312 0.358789 -0.214423 0.312 0.342789 0.549493 0.312 0.161439 -0.138899 0.312 0.358789 -0.119899 0.312 0.368789 -0.138899 0.312 0.342789 0.513923 0.312 0.127451 0.586153 0.312 0.233778 0.566471 0.312 0.251648 0.564122 0.312 0.224607 0.558791 0.312 0.227361 0.0121479 0.312 0.358789 -0.0633756 0.312 0.358789 -0.0633756 0.312 0.342789 -0.0343756 0.312 0.342789 -0.411993 0.312 0.342789 -0.520236 0.312 0.334274 -0.5175 0.312 0.348149 -0.510025 0.312 0.353162 -0.49615 0.312 0.350426 -0.524603 0.312 0.236027 -0.0900234 0.312 -0.056 0.385037 0.312 -0.05 -0.00450002 0.312 -0.082 0.0145 0.312 -0.072 0.493469 0.312 0.0530102 0.500611 0.312 0.101687 0.0876713 0.312 0.358789 0.0976713 0.312 0.368789 -0.551747 0.312 0.251928 -0.24107 0.312 -0.072 -0.23107 0.312 -0.082 -0.0900234 0.312 -0.072 0.429458 0.312 -0.0229517 0.54859 0.312 0.194548 0.163195 0.312 0.342789 0.192195 0.312 0.358789 0.163195 0.312 0.358789 0.173195 0.312 0.368789 -0.454166 0.312 0.342789 -0.5063 0.312 0.315707 -0.48651 0.312 0.336051 -0.510595 0.312 0.319899 -0.524705 0.312 0.301604 -0.533077 0.312 0.28007 -0.136547 0.312 -0.072 -0.155547 0.312 -0.082 0.49216 0.312 0.336789 0.238718 0.312 0.342789 0.267718 0.312 0.358789 0.238718 0.312 0.358789 0.165547 0.312 -0.056 0.24107 0.312 -0.072 0.22207 0.312 -0.082 0.24107 0.312 -0.056 0.0800235 0.312 -0.082 0.0610234 0.312 -0.072 0.136547 0.312 -0.072 0.306594 0.312 -0.082 0.297594 0.312 -0.082 0.316594 0.312 -0.056 0.333242 0.312 0.368789 -0.382117 0.312 -0.082 -0.363117 0.312 -0.056 -0.306594 0.312 -0.082 -0.287594 0.312 -0.056 -0.22207 0.312 -0.082 -0.165547 0.312 -0.056 0.475289 0.312 0.368789 0.465289 0.312 0.358789 0.389765 0.312 0.358789 -0.463496 0.312 -0.024256 0.287594 0.312 -0.072 0.287594 0.312 -0.056 0.21207 0.312 -0.072 -0.442533 0.312 -0.00582932 -0.431995 0.312 -0.0171748 -0.42137 0.312 -0.0343501 -0.430725 0.312 -0.0323814 -0.385037 0.312 -0.05 -0.413853 0.312 -0.0480173 -0.392117 0.312 -0.0555506 0.497763 0.312 0.0395357 0.573099 0.312 0.264926 0.568921 0.312 0.287649 0.556219 0.312 0.300795 0.539469 0.312 0.319986 0.517262 0.312 0.332463 0.494289 0.312 0.342761 0.494289 0.312 0.358789 0.484289 0.312 0.368789 0.458964 0.312 -0.0355565 0.44549 0.312 -0.0398503 0.463095 0.312 -0.0275607 0.402867 0.312 -0.0467128 0.392117 0.312 -0.0555506 0.392117 0.312 -0.072 0.373117 0.312 -0.082 -0.411993 0.3905 0.342789 -0.0533756 0.3905 0.368789 0.314242 0.3905 0.358789 -0.510595 0.3905 0.319899 -0.5175 0.3905 0.348149 0.465289 0.3905 0.358789 -0.482284 0.3905 0.331319 -0.470685 0.3905 0.341087 -0.522711 0.3905 0.29223 -0.533077 0.3905 0.28007 -0.49615 0.3905 0.350426 -0.204423 0.3905 0.368789 0.0221478 0.3905 0.368789 0.0311479 0.3905 0.368789 0.0411478 0.3905 0.358789 0.163195 0.3905 0.342789 0.163195 0.3905 0.358789 -0.365469 0.3905 0.342789 -0.365469 0.3905 0.358789 -0.336469 0.3905 0.358789 0.248718 0.3905 0.368789 0.267718 0.3905 0.358789 0.389765 0.3905 0.342789 -0.525424 0.3905 0.174224 -0.185422 0.3905 0.342789 0.0876713 0.3905 0.358789 0.106671 0.3905 0.368789 0.116671 0.3905 0.358789 0.116671 0.3905 0.342789 0.0876713 0.3905 0.342789 0.238718 0.3905 0.342789 0.267718 0.3905 0.342789 0.192195 0.3905 0.342789 0.535278 0.3905 0.168784 0.567099 0.3905 0.173729 -0.468475 0.3905 0.0650987 -0.484455 0.3905 0.108791 -0.494417 0.3905 0.136027 -0.510397 0.3905 0.17972 -0.440993 0.3905 0.342789 0.343242 0.3905 0.342789 0.314242 0.3905 0.342789 0.484289 0.3905 0.368789 0.475289 0.3905 0.368789 0.494289 0.3905 0.358789 0.465289 0.3905 0.342789 0.514825 0.3905 0.0943425 0.500611 0.3905 0.101687 0.287594 0.3905 -0.072 -0.486366 0.3905 0.0383239 -0.512308 0.3905 0.109252 -0.529124 0.3905 0.264312 -0.530238 0.3905 0.233966 -0.524603 0.3905 0.236027 -0.520359 0.3905 0.206955 -0.53825 0.3905 0.18018 -0.109899 0.3905 0.342789 0.136547 0.3905 -0.072 0.136547 0.3905 -0.056 0.0121479 0.3905 0.342789 0.49216 0.3905 0.336789 -0.0343756 0.3905 0.342789 0.480157 0.3905 0.0272461 0.444587 0.3905 -0.00674166 0.429458 0.3905 -0.0229517 0.316594 0.3905 -0.072 0.566471 0.3905 0.251648 0.539469 0.3905 0.319986 0.570666 0.3905 0.320577 0.564184 0.3905 0.341046 0.537874 0.3905 0.328656 0.558498 0.3905 0.308268 0.54859 0.3905 0.194548 0.363117 0.3905 -0.056 0.363117 0.3905 -0.072 0.165547 0.3905 -0.072 0.479255 0.3905 0.0603548 0.44549 0.3905 -0.0398503 0.24107 0.3905 -0.072 0.23107 0.3905 -0.082 0.316594 0.3905 -0.056 0.22207 0.3905 -0.082 0.413914 0.3905 -0.0479804 0.0145 0.3905 -0.056 -0.0610235 0.3905 -0.056 -0.0900234 0.3905 -0.056 -0.385037 0.3905 -0.05 -0.165547 0.3905 -0.056 -0.23107 0.3905 -0.082 -0.165547 0.3905 -0.072 -0.136547 0.3905 -0.072 -0.21207 0.3905 -0.072 0.00449998 0.3905 -0.082 -0.00450002 0.3905 -0.082 -0.0145 0.3905 -0.056 -0.287594 0.3905 -0.056 -0.21207 0.3905 -0.056 -0.460371 0.3905 -0.0326959 -0.382117 0.3905 -0.082 -0.413853 0.3905 -0.0480173 -0.430725 0.3905 -0.0323814 -0.431995 0.3905 -0.0171748 -0.447521 0.3905 -0.0386009 -0.404817 0.312 -0.0459212 -0.404817 0.3905 -0.0459212 -0.42137 0.3905 -0.0343501 -0.5063 0.3905 0.315707 -0.482284 0.312 0.331319 -0.454166 0.3905 0.336789 -0.454166 0.312 0.336789 0.517262 0.3905 0.332463 0.556219 0.3905 0.300795 0.565579 0.3905 0.277105 0.565579 0.312 0.277105 0.558791 0.3905 0.227361 0.418353 0.3905 -0.0372834 0.418353 0.312 -0.0372834 0.402867 0.3905 -0.0467128 0.385037 0.3905 -0.05 -0.0145 0.312 -0.056 -0.0145 0.3905 -0.072 0.0145 0.3905 -0.072 0.0145 0.312 -0.056 0.00449998 0.312 -0.082 -0.0145 0.312 -0.072 -0.0900234 0.3905 -0.072 -0.0610235 0.312 -0.072 -0.0610235 0.312 -0.056 -0.0800235 0.312 -0.082 -0.0710234 0.3905 -0.082 -0.0710234 0.312 -0.082 -0.0610235 0.3905 -0.072 -0.0800235 0.3905 -0.082 -0.136547 0.3905 -0.056 -0.136547 0.312 -0.056 -0.146547 0.3905 -0.082 -0.146547 0.312 -0.082 -0.165547 0.312 -0.072 -0.155547 0.3905 -0.082 -0.24107 0.3905 -0.072 -0.22207 0.3905 -0.082 -0.21207 0.312 -0.072 -0.316594 0.312 -0.056 -0.316594 0.3905 -0.072 -0.316594 0.3905 -0.056 -0.306594 0.3905 -0.082 -0.297594 0.3905 -0.082 -0.297594 0.312 -0.082 -0.287594 0.3905 -0.072 -0.287594 0.312 -0.072 -0.316594 0.312 -0.072 -0.392117 0.312 -0.072 -0.392117 0.3905 -0.072 -0.363117 0.3905 -0.072 -0.363117 0.312 -0.072 -0.373117 0.3905 -0.082 -0.373117 0.312 -0.082 -0.457591 0.3905 -0.0114057 -0.442533 0.3905 -0.00582932 -0.447521 0.312 -0.0386009 -0.460371 0.312 -0.0326959 -0.463496 0.3905 -0.024256 -0.457591 0.312 -0.0114057 -0.47354 0.3905 0.0323673 -0.47354 0.312 0.0323673 -0.489458 0.3905 0.0467763 -0.486366 0.312 0.0383239 -0.483501 0.3905 0.0596028 -0.509443 0.312 0.130531 -0.494417 0.312 0.136027 -0.509443 0.3905 0.130531 -0.499482 0.312 0.103296 -0.5154 0.312 0.117704 -0.499482 0.3905 0.103296 -0.512308 0.312 0.109252 -0.5154 0.3905 0.117704 -0.535385 0.3905 0.201459 -0.520359 0.312 0.206955 -0.525424 0.312 0.174224 -0.541342 0.3905 0.188633 -0.53825 0.312 0.18018 -0.541342 0.312 0.188633 -0.550365 0.3905 0.280895 -0.534458 0.3905 0.251103 -0.561259 0.3905 0.262393 -0.561259 0.312 0.262393 -0.551747 0.3905 0.251928 -0.56083 0.3905 0.271383 -0.550365 0.312 0.280895 -0.56083 0.312 0.271383 -0.520236 0.3905 0.334274 -0.510025 0.3905 0.353162 -0.411993 0.312 0.358789 -0.411993 0.3905 0.358789 -0.430993 0.312 0.368789 -0.430993 0.3905 0.368789 -0.440993 0.3905 0.358789 -0.421993 0.3905 0.368789 -0.365469 0.312 0.342789 -0.355469 0.3905 0.368789 -0.346469 0.3905 0.368789 -0.260946 0.3905 0.358789 -0.289946 0.3905 0.358789 -0.289946 0.3905 0.342789 -0.270946 0.3905 0.368789 -0.279946 0.3905 0.368789 -0.270946 0.312 0.368789 -0.185422 0.3905 0.358789 -0.214423 0.3905 0.358789 -0.204423 0.312 0.368789 -0.195423 0.3905 0.368789 -0.185422 0.312 0.358789 -0.195423 0.312 0.368789 -0.109899 0.312 0.358789 -0.109899 0.312 0.342789 -0.138899 0.3905 0.342789 -0.119899 0.3905 0.368789 -0.128899 0.3905 0.368789 -0.128899 0.312 0.368789 -0.138899 0.3905 0.358789 -0.109899 0.3905 0.358789 -0.0343756 0.312 0.358789 -0.0343756 0.3905 0.358789 -0.0633756 0.3905 0.358789 -0.0633756 0.3905 0.342789 -0.0533756 0.312 0.368789 -0.0443756 0.3905 0.368789 -0.0443756 0.312 0.368789 0.0121479 0.312 0.342789 0.0311479 0.312 0.368789 0.0121479 0.3905 0.358789 0.0221478 0.312 0.368789 0.0411478 0.312 0.358789 0.116671 0.312 0.358789 0.0876713 0.312 0.342789 0.0976713 0.3905 0.368789 0.106671 0.312 0.368789 0.173195 0.3905 0.368789 0.192195 0.3905 0.358789 0.182195 0.3905 0.368789 0.182195 0.312 0.368789 0.257718 0.312 0.368789 0.238718 0.3905 0.358789 0.248718 0.312 0.368789 0.257718 0.3905 0.368789 0.343242 0.312 0.358789 0.333242 0.3905 0.368789 0.324242 0.3905 0.368789 0.324242 0.312 0.368789 0.314242 0.312 0.358789 0.343242 0.3905 0.358789 0.399765 0.3905 0.368789 0.399765 0.312 0.368789 0.389765 0.3905 0.358789 0.418765 0.3905 0.358789 0.418765 0.312 0.358789 0.408765 0.3905 0.368789 0.408765 0.312 0.368789 0.550042 0.3905 0.340965 0.550042 0.312 0.340965 0.570585 0.312 0.334719 0.564184 0.312 0.341046 0.570585 0.3905 0.334719 0.570666 0.312 0.320577 0.569017 0.312 0.236215 0.573099 0.3905 0.264926 0.590235 0.312 0.262489 0.597461 0.312 0.242271 0.598728 0.3905 0.251181 0.590235 0.3905 0.262489 0.586153 0.3905 0.233778 0.597461 0.3905 0.242271 0.562968 0.3905 0.165733 0.562968 0.312 0.165733 0.562805 0.3905 0.187203 0.567099 0.312 0.173729 0.562805 0.312 0.187203 0.549493 0.3905 0.161439 0.513923 0.3905 0.127451 0.528137 0.312 0.120107 0.532431 0.3905 0.106632 0.5283 0.312 0.0986364 0.528137 0.3905 0.120107 0.532431 0.312 0.106632 0.514825 0.312 0.0943425 0.5283 0.3905 0.0986364 0.465943 0.312 0.0345906 0.493632 0.3905 0.0315399 0.497763 0.3905 0.0395357 0.493469 0.3905 0.0530102 0.480157 0.312 0.0272461 0.493632 0.312 0.0315399 0.430808 0.3905 -0.0322646 0.458802 0.3905 -0.0140862 0.458802 0.312 -0.0140862 0.463095 0.3905 -0.0275607 0.458964 0.3905 -0.0355565 0.363117 0.312 -0.056 0.382117 0.3905 -0.082 0.392117 0.3905 -0.072 0.382117 0.312 -0.082 0.373117 0.3905 -0.082 0.316594 0.312 -0.072 0.297594 0.3905 -0.082 0.306594 0.3905 -0.082 0.21207 0.3905 -0.072 0.24107 0.3905 -0.056 0.23107 0.312 -0.082 0.165547 0.3905 -0.056 0.155547 0.3905 -0.082 0.155547 0.312 -0.082 0.165547 0.312 -0.072 0.146547 0.3905 -0.082 0.146547 0.312 -0.082 0.0610234 0.312 -0.056 0.0610234 0.3905 -0.072 0.0610234 0.3905 -0.056 0.0900235 0.3905 -0.072 0.0710235 0.3905 -0.082 0.0800235 0.3905 -0.082 0.0900235 0.312 -0.072 0.0710235 0.312 -0.082 0.0145 -0.3905 -0.056 0.165547 -0.312 -0.056 0.165547 -0.3905 -0.056 0.287594 -0.312 -0.056 0.444587 -0.3905 -0.00674166 0.479255 -0.3905 0.0603548 0.569017 -0.312 0.236215 0.569017 -0.3905 0.236215 0.568921 -0.312 0.287649 0.573099 -0.312 0.264926 0.418765 -0.312 0.342789 0.389765 -0.3905 0.342789 0.238718 -0.3905 0.342789 0.116671 -0.3905 0.342789 0.0121479 -0.312 0.342789 -0.0343756 -0.3905 0.342789 -0.0633756 -0.312 0.342789 -0.138899 -0.312 0.342789 -0.214423 -0.312 0.342789 -0.289946 -0.312 0.342789 -0.365469 -0.312 0.342789 -0.470685 -0.312 0.341087 -0.510595 -0.3905 0.319899 -0.510397 -0.312 0.17972 -0.484455 -0.3905 0.108791 -0.21207 -0.312 -0.056 -0.165547 -0.3905 -0.056 -0.136547 -0.3905 -0.056 -0.0145 -0.3905 -0.056 -0.413853 -0.3905 -0.0480173 -0.392117 -0.312 -0.0555506 -0.458513 -0.3905 0.0378633 -0.534458 -0.312 0.251103 -0.530238 -0.312 0.233966 -0.454166 -0.3905 0.342789 0.517099 -0.3905 0.338854 0.517099 -0.312 0.338854 0.537874 -0.3905 0.328656 0.564122 -0.312 0.224607 0.564122 -0.3905 0.224607 0.430808 -0.3905 -0.0322646 0.430808 -0.312 -0.0322646 0.413914 -0.312 -0.0479804 0.413914 -0.3905 -0.0479804 0.363117 -0.312 -0.056 -0.289946 -0.312 0.358789 -0.411993 -0.312 0.342789 -0.411993 -0.312 0.358789 -0.440993 -0.312 0.342789 -0.440993 -0.312 0.358789 -0.510025 -0.312 0.353162 -0.49615 -0.312 0.350426 -0.48651 -0.312 0.336051 -0.482284 -0.312 0.331319 -0.454166 -0.312 0.336789 -0.454166 -0.312 0.342789 -0.56083 -0.312 0.271383 -0.533077 -0.312 0.28007 -0.524705 -0.312 0.301604 -0.510595 -0.312 0.319899 -0.520236 -0.312 0.334274 -0.5175 -0.312 0.348149 -0.0443756 -0.312 0.368789 -0.0343756 -0.312 0.358789 -0.109899 -0.312 0.358789 0.399765 -0.312 0.368789 0.0411478 -0.312 0.342789 0.163195 -0.312 0.358789 0.182195 -0.312 0.368789 0.192195 -0.312 0.358789 0.192195 -0.312 0.342789 -0.336469 -0.312 0.342789 -0.365469 -0.312 0.342789 -0.336469 -0.312 0.358789 -0.365469 -0.312 0.358789 -0.346469 -0.312 0.368789 -0.355469 -0.312 0.368789 0.116671 -0.312 0.342789 0.0876713 -0.312 0.342789 0.116671 -0.312 0.358789 0.0976713 -0.312 0.368789 0.408765 -0.312 0.368789 0.418765 -0.312 0.358789 -0.195423 -0.312 0.368789 -0.185422 -0.312 0.358789 -0.204423 -0.312 0.368789 -0.185422 -0.312 0.342789 -0.214423 -0.312 0.342789 -0.260946 -0.312 0.342789 -0.260946 -0.312 0.358789 0.314242 -0.312 0.358789 0.333242 -0.312 0.368789 -0.138899 -0.312 0.342789 -0.109899 -0.312 0.342789 -0.494417 -0.312 0.136027 -0.484455 -0.312 0.108791 -0.0633756 -0.312 0.342789 0.0121479 -0.312 0.342789 0.0121479 -0.312 0.358789 0.0411478 -0.312 0.358789 0.0221478 -0.312 0.368789 0.0311479 -0.312 0.368789 0.343242 -0.312 0.342789 0.267718 -0.312 0.342789 -0.0145 -0.312 -0.072 -0.5154 -0.312 0.117704 -0.509443 -0.312 0.130531 -0.520359 -0.312 0.206955 -0.53825 -0.312 0.18018 0.484289 -0.312 0.368789 0.567099 -0.312 0.173729 -0.483501 -0.312 0.0596028 -0.561259 -0.312 0.262393 -0.529124 -0.312 0.264312 -0.524603 -0.312 0.236027 0.597461 -0.312 0.242271 0.532431 -0.312 0.106632 0.528137 -0.312 0.120107 -0.0610235 -0.312 -0.072 -0.24107 -0.312 -0.072 0.389765 -0.312 0.342789 0.49216 -0.312 0.336789 0.465289 -0.312 0.342789 0.517262 -0.312 0.332463 0.494289 -0.312 0.342761 0.570666 -0.312 0.320577 0.385037 -0.312 -0.05 0.0145 -0.312 -0.056 -0.155547 -0.312 -0.082 -0.146547 -0.312 -0.082 -0.21207 -0.312 -0.072 0.558498 -0.312 0.308268 0.556219 -0.312 0.300795 0.598728 -0.312 0.251181 0.54859 -0.312 0.194548 0.493632 -0.312 0.0315399 0.287594 -0.312 -0.072 0.306594 -0.312 -0.082 0.316594 -0.312 -0.072 0.535278 -0.312 0.168784 0.513923 -0.312 0.127451 0.429458 -0.312 -0.0229517 0.500611 -0.312 0.101687 0.479255 -0.312 0.0603548 0.465943 -0.312 0.0345906 0.493469 -0.312 0.0530102 0.24107 -0.312 -0.072 -0.287594 -0.312 -0.072 0.165547 -0.312 -0.072 0.0710235 -0.312 -0.082 0.0800235 -0.312 -0.082 0.0900235 -0.312 -0.072 0.0610234 -0.312 -0.056 0.0900235 -0.312 -0.056 0.463095 -0.312 -0.0275607 -0.363117 -0.312 -0.056 0.373117 -0.312 -0.082 0.382117 -0.312 -0.082 -0.0610235 -0.312 -0.056 -0.136547 -0.312 -0.056 -0.385037 -0.312 -0.05 -0.165547 -0.312 -0.056 -0.22207 -0.312 -0.082 -0.24107 -0.312 -0.056 -0.316594 -0.312 -0.056 -0.460371 -0.312 -0.0326959 -0.447521 -0.312 -0.0386009 -0.373117 -0.312 -0.082 -0.413853 -0.312 -0.0480173 -0.442533 -0.312 -0.00582932 -0.431995 -0.312 -0.0171748 -0.458513 -0.312 0.0378633 0.597461 -0.3905 0.242271 0.598728 -0.3905 0.251181 -0.128899 -0.3905 0.368789 -0.119899 -0.3905 0.368789 0.49216 -0.3905 0.336789 0.314242 -0.3905 0.342789 -0.0633756 -0.3905 0.342789 -0.138899 -0.3905 0.342789 -0.109899 -0.3905 0.342789 -0.109899 -0.3905 0.358789 0.564184 -0.3905 0.341046 0.267718 -0.3905 0.342789 0.192195 -0.3905 0.342789 0.0121479 -0.3905 0.342789 0.0411478 -0.3905 0.358789 0.0311479 -0.3905 0.368789 -0.289946 -0.3905 0.342789 -0.270946 -0.3905 0.368789 0.399765 -0.3905 0.368789 0.389765 -0.3905 0.358789 0.418765 -0.3905 0.358789 0.418765 -0.3905 0.342789 0.314242 -0.3905 0.358789 0.333242 -0.3905 0.368789 0.238718 -0.3905 0.358789 -0.214423 -0.3905 0.342789 -0.185422 -0.3905 0.342789 0.590235 -0.3905 0.262489 0.565579 -0.3905 0.277105 0.573099 -0.3905 0.264926 0.556219 -0.3905 0.300795 0.568921 -0.3905 0.287649 0.558498 -0.3905 0.308268 0.539469 -0.3905 0.319986 0.173195 -0.3905 0.368789 0.163195 -0.3905 0.342789 0.192195 -0.3905 0.358789 0.0876713 -0.3905 0.358789 0.0876713 -0.3905 0.342789 0.116671 -0.3905 0.358789 -0.0533756 -0.3905 0.368789 -0.0633756 -0.3905 0.358789 0.494289 -0.3905 0.342761 0.465289 -0.3905 0.342789 -0.355469 -0.3905 0.368789 -0.365469 -0.3905 0.358789 -0.365469 -0.3905 0.342789 -0.421993 -0.3905 0.368789 -0.440993 -0.3905 0.358789 -0.440993 -0.3905 0.342789 0.5283 -0.3905 0.0986364 0.586153 -0.3905 0.233778 0.566471 -0.3905 0.251648 0.535278 -0.3905 0.168784 -0.541342 -0.3905 0.188633 0.532431 -0.3905 0.106632 0.513923 -0.3905 0.127451 0.500611 -0.3905 0.101687 -0.411993 -0.3905 0.358789 -0.411993 -0.3905 0.342789 -0.454166 -0.3905 0.336789 -0.373117 -0.3905 -0.082 -0.382117 -0.3905 -0.082 -0.363117 -0.3905 -0.056 -0.297594 -0.3905 -0.082 -0.287594 -0.3905 -0.072 -0.287594 -0.3905 -0.056 -0.316594 -0.3905 -0.056 0.385037 -0.3905 -0.05 0.21207 -0.3905 -0.056 -0.530238 -0.3905 0.233966 -0.520359 -0.3905 0.206955 -0.510397 -0.3905 0.17972 -0.535385 -0.3905 0.201459 -0.460371 -0.3905 -0.0326959 -0.23107 -0.3905 -0.082 -0.21207 -0.3905 -0.056 0.136547 -0.3905 -0.072 0.22207 -0.3905 -0.082 0.24107 -0.3905 -0.072 0.21207 -0.3905 -0.072 -0.551747 -0.3905 0.251928 -0.534458 -0.3905 0.251103 -0.550365 -0.3905 0.280895 -0.524603 -0.3905 0.236027 -0.442533 -0.3905 -0.00582932 -0.431995 -0.3905 -0.0171748 -0.42137 -0.3905 -0.0343501 -0.404817 -0.3905 -0.0459212 -0.430725 -0.3905 -0.0323814 -0.385037 -0.3905 -0.05 -0.392117 -0.3905 -0.0555506 -0.136547 -0.3905 -0.072 0.316594 -0.3905 -0.072 0.297594 -0.3905 -0.082 0.316594 -0.3905 -0.056 0.287594 -0.3905 -0.072 0.465943 -0.3905 0.0345906 0.480157 -0.3905 0.0272461 -0.470685 -0.3905 0.341087 -0.48651 -0.3905 0.336051 -0.5063 -0.3905 0.315707 -0.524705 -0.3905 0.301604 -0.0710234 -0.3905 -0.082 -0.0610235 -0.3905 -0.072 -0.0800235 -0.3905 -0.082 -0.00450002 -0.3905 -0.082 0.0145 -0.3905 -0.072 0.0900235 -0.3905 -0.056 0.363117 -0.3905 -0.056 0.287594 -0.3905 -0.056 0.24107 -0.3905 -0.056 0.44549 -0.3905 -0.0398503 0.558791 -0.3905 0.227361 0.373117 -0.3905 -0.082 0.392117 -0.3905 -0.0555506 0.402867 -0.3905 -0.0467128 0.418353 -0.3905 -0.0372834 0.429458 -0.3905 -0.0229517 -0.42137 -0.312 -0.0343501 -0.404817 -0.312 -0.0459212 -0.482284 -0.3905 0.331319 -0.522711 -0.3905 0.29223 -0.5063 -0.312 0.315707 -0.522711 -0.312 0.29223 -0.529124 -0.3905 0.264312 0.566471 -0.312 0.251648 0.565579 -0.312 0.277105 0.539469 -0.312 0.319986 0.517262 -0.3905 0.332463 0.558791 -0.312 0.227361 0.402867 -0.312 -0.0467128 0.418353 -0.312 -0.0372834 -0.0145 -0.312 -0.056 -0.0145 -0.3905 -0.072 0.0145 -0.312 -0.072 0.00449998 -0.3905 -0.082 0.00449998 -0.312 -0.082 -0.00450002 -0.312 -0.082 -0.0900234 -0.312 -0.056 -0.0900234 -0.312 -0.072 -0.0900234 -0.3905 -0.056 -0.0900234 -0.3905 -0.072 -0.0610235 -0.3905 -0.056 -0.0800235 -0.312 -0.082 -0.0710234 -0.312 -0.082 -0.136547 -0.312 -0.072 -0.146547 -0.3905 -0.082 -0.155547 -0.3905 -0.082 -0.165547 -0.3905 -0.072 -0.165547 -0.312 -0.072 -0.24107 -0.3905 -0.056 -0.24107 -0.3905 -0.072 -0.21207 -0.3905 -0.072 -0.22207 -0.3905 -0.082 -0.23107 -0.312 -0.082 -0.316594 -0.312 -0.072 -0.316594 -0.3905 -0.072 -0.287594 -0.312 -0.056 -0.306594 -0.3905 -0.082 -0.297594 -0.312 -0.082 -0.306594 -0.312 -0.082 -0.363117 -0.3905 -0.072 -0.363117 -0.312 -0.072 -0.382117 -0.312 -0.082 -0.392117 -0.3905 -0.072 -0.392117 -0.312 -0.072 -0.430725 -0.312 -0.0323814 -0.447521 -0.3905 -0.0386009 -0.463496 -0.3905 -0.024256 -0.463496 -0.312 -0.024256 -0.457591 -0.3905 -0.0114057 -0.457591 -0.312 -0.0114057 -0.468475 -0.312 0.0650987 -0.468475 -0.3905 0.0650987 -0.483501 -0.3905 0.0596028 -0.47354 -0.3905 0.0323673 -0.47354 -0.312 0.0323673 -0.486366 -0.3905 0.0383239 -0.486366 -0.312 0.0383239 -0.489458 -0.312 0.0467763 -0.489458 -0.3905 0.0467763 -0.494417 -0.3905 0.136027 -0.499482 -0.3905 0.103296 -0.499482 -0.312 0.103296 -0.512308 -0.312 0.109252 -0.512308 -0.3905 0.109252 -0.5154 -0.3905 0.117704 -0.509443 -0.3905 0.130531 -0.535385 -0.312 0.201459 -0.525424 -0.3905 0.174224 -0.541342 -0.312 0.188633 -0.53825 -0.3905 0.18018 -0.525424 -0.312 0.174224 -0.533077 -0.3905 0.28007 -0.550365 -0.312 0.280895 -0.561259 -0.3905 0.262393 -0.56083 -0.3905 0.271383 -0.551747 -0.312 0.251928 -0.49615 -0.3905 0.350426 -0.520236 -0.3905 0.334274 -0.5175 -0.3905 0.348149 -0.510025 -0.3905 0.353162 -0.430993 -0.312 0.368789 -0.430993 -0.3905 0.368789 -0.421993 -0.312 0.368789 -0.336469 -0.3905 0.342789 -0.346469 -0.3905 0.368789 -0.336469 -0.3905 0.358789 -0.260946 -0.3905 0.342789 -0.260946 -0.3905 0.358789 -0.289946 -0.312 0.342789 -0.279946 -0.3905 0.368789 -0.279946 -0.312 0.368789 -0.270946 -0.312 0.368789 -0.289946 -0.3905 0.358789 -0.185422 -0.3905 0.358789 -0.214423 -0.3905 0.358789 -0.195423 -0.3905 0.368789 -0.214423 -0.312 0.358789 -0.204423 -0.3905 0.368789 -0.138899 -0.3905 0.358789 -0.119899 -0.312 0.368789 -0.138899 -0.312 0.358789 -0.128899 -0.312 0.368789 -0.0343756 -0.312 0.342789 -0.0633756 -0.312 0.358789 -0.0533756 -0.312 0.368789 -0.0443756 -0.3905 0.368789 -0.0343756 -0.3905 0.358789 0.0411478 -0.3905 0.342789 0.0221478 -0.3905 0.368789 0.0121479 -0.3905 0.358789 0.0876713 -0.312 0.358789 0.106671 -0.312 0.368789 0.0976713 -0.3905 0.368789 0.106671 -0.3905 0.368789 0.163195 -0.312 0.342789 0.182195 -0.3905 0.368789 0.173195 -0.312 0.368789 0.163195 -0.3905 0.358789 0.267718 -0.3905 0.358789 0.238718 -0.312 0.342789 0.238718 -0.312 0.358789 0.257718 -0.3905 0.368789 0.248718 -0.312 0.368789 0.248718 -0.3905 0.368789 0.257718 -0.312 0.368789 0.267718 -0.312 0.358789 0.343242 -0.3905 0.342789 0.343242 -0.312 0.358789 0.314242 -0.312 0.342789 0.324242 -0.3905 0.368789 0.324242 -0.312 0.368789 0.343242 -0.3905 0.358789 0.389765 -0.312 0.358789 0.408765 -0.3905 0.368789 0.494289 -0.312 0.358789 0.494289 -0.3905 0.358789 0.484289 -0.3905 0.368789 0.465289 -0.3905 0.358789 0.475289 -0.3905 0.368789 0.465289 -0.312 0.358789 0.475289 -0.312 0.368789 0.550042 -0.3905 0.340965 0.537874 -0.312 0.328656 0.550042 -0.312 0.340965 0.570585 -0.3905 0.334719 0.564184 -0.312 0.341046 0.570666 -0.3905 0.320577 0.570585 -0.312 0.334719 0.586153 -0.312 0.233778 0.590235 -0.312 0.262489 0.54859 -0.3905 0.194548 0.562805 -0.3905 0.187203 0.567099 -0.3905 0.173729 0.562968 -0.3905 0.165733 0.562805 -0.312 0.187203 0.549493 -0.3905 0.161439 0.562968 -0.312 0.165733 0.549493 -0.312 0.161439 0.514825 -0.312 0.0943425 0.528137 -0.3905 0.120107 0.514825 -0.3905 0.0943425 0.5283 -0.312 0.0986364 0.497763 -0.3905 0.0395357 0.493632 -0.3905 0.0315399 0.493469 -0.3905 0.0530102 0.497763 -0.312 0.0395357 0.480157 -0.312 0.0272461 0.444587 -0.312 -0.00674166 0.458964 -0.3905 -0.0355565 0.458964 -0.312 -0.0355565 0.458802 -0.3905 -0.0140862 0.463095 -0.3905 -0.0275607 0.458802 -0.312 -0.0140862 0.44549 -0.312 -0.0398503 0.363117 -0.312 -0.072 0.392117 -0.3905 -0.072 0.392117 -0.312 -0.0555506 0.392117 -0.312 -0.072 0.382117 -0.3905 -0.082 0.363117 -0.3905 -0.072 0.316594 -0.312 -0.056 0.306594 -0.3905 -0.082 0.297594 -0.312 -0.082 0.21207 -0.312 -0.056 0.24107 -0.312 -0.056 0.23107 -0.312 -0.082 0.23107 -0.3905 -0.082 0.22207 -0.312 -0.082 0.21207 -0.312 -0.072 0.136547 -0.312 -0.056 0.136547 -0.3905 -0.056 0.146547 -0.3905 -0.082 0.146547 -0.312 -0.082 0.165547 -0.3905 -0.072 0.155547 -0.3905 -0.082 0.155547 -0.312 -0.082 0.136547 -0.312 -0.072 0.0610234 -0.3905 -0.056 0.0610234 -0.312 -0.072 0.0900235 -0.3905 -0.072 0.0800235 -0.3905 -0.082 0.0710235 -0.3905 -0.082 0.0610234 -0.3905 -0.072</float_array>
                    <technique_common>
                        <accessor count="996" source="#shape0-lib-positions-array" stride="3">
                            <param name="X" type="float"/>
                            <param name="Y" type="float"/>
                            <param name="Z" type="float"/>
                        </accessor>
                    </technique_common>
                </source>
                <source id="shape0-lib-normals" name="normal">
                    <float_array id="shape0-lib-normals-array" count="5904">0 0 -1 0 0 -1 0 0 -1 0 0 -1 0 0 -1 0 0 -1 0 0 -1 0 0 -1 0.888418 0 -0.459034 0.888418 0 -0.459034 0.888418 0 -0.459034 0.888418 0 -0.459034 0.888418 0 -0.459035 0.888418 0 -0.459035 0.921425 0 -0.388556 0.921425 0 -0.388556 0.983512 0 0.180841 0.983512 0 0.180841 0.892448 0 0.45115 0.892448 0 0.45115 0 0 1 0 0 1 0 0 1 0 0 1 0 0 1 0 0 1 0 0 1 0 0 1 0 0 1 0 0 1 0 0 1 0 0 1 0 0 1 0 0 1 0 0 1 0 0 1 0 0 1 0 0 1 0 0 1 0 0 1 0 0 1 0 0 1 0 0 1 0 0 1 -0.102509 0 0.994732 -0.102509 0 0.994732 -0.303218 0 0.952921 -0.303218 0 0.952921 -0.791848 0 0.610719 -0.791848 0 0.610719 -0.932053 0 0.362322 -0.932053 0 0.362322 -0.939154 0 -0.343496 -0.939154 0 -0.343496 -0.939154 0 -0.343496 -0.939154 0 -0.343496 -0.939154 0 -0.343496 -0.939154 0 -0.343496 0 0 -1 0 0 -1 0 0 -1 0 0 -1 0 0 -1 0 0 -1 0 0 -1 0 0 -1 0 0 -1 0 0 -1 -0.679708 0 -0.733483 -0.679708 0 -0.733483 -0.327483 0 -0.944857 -0.327483 0 -0.944857 -0.939154 0 -0.343495 -0.939154 0 -0.343495 -0.970987 0 -0.239134 -0.970987 0 -0.239134 0 0 1 0 0 1 0.440653 0 0.897678 0.440653 0 0.897678 0.168817 0 0.985647 0.168817 0 0.985647 0.888418 0 -0.459036 0.888418 0 -0.459036 0.328086 0 -0.944648 0.328086 0 -0.944648 0.681112 0 -0.732179 0.681112 0 -0.732179 0 0 -1 0 0 -1 0 -1 0 0 -1 0 0 -1 0 0 -1 0 0 -1 0 0 -1 0 0 -1 0 0 -1 0 0 -1 0 0 -1 0 0 -1 0 0 -1 0 0 -1 0 0 -1 0 0 -1 0 0 -1 0 0 -1 0 0 -1 0 0 -1 0 0 -1 0 0 -1 0 0 -1 0 0 -1 0 0 -1 0 0 -1 0 0 -1 0 0 -1 0 0 -1 0 0 -1 0 0 -1 0 0 -1 0 0 -1 0 0 -1 0 0 -1 0 0 -1 0 0 -1 0 0 -1 0 0 -1 0 0 -1 0 0 -1 0 0 -1 0 0 -1 0 0 -1 0 0 -1 0 0 -1 0 0 -1 0 0 -1 0 0 -1 0 0 -1 0 0 -1 0 0 -1 0 0 -1 0 0 -1 0 0 -1 0 0 -1 0 0 -1 0 0 -1 0 0 -1 0 0 -1 0 0 -1 0 0 -1 0 0 -1 0 0 -1 0 0 -1 0 0 -1 0 0 -1 0 0 -1 0 0 -1 0 0 -1 0 0 -1 0 0 -1 0 0 -1 0 0 -1 0 0 -1 0 0 -1 0 0 -1 0 0 -1 0 0 -1 0 0 -1 0 0 -1 0 0 -1 0 0 -1 0 0 -1 0 0 -1 0 0 -1 0 0 -1 0 0 -1 0 0 -1 0 0 -1 0 0 -1 0 0 -1 0 0 -1 0 0 -1 0 0 -1 0 0 -1 0 0 -1 0 0 -1 0 0 -1 0 0 -1 0 0 -1 0 0 -1 0 0 -1 0 0 -1 0 0 -1 0 0 -1 0 0 -1 0 0 -1 0 0 -1 0 0 -1 0 0 -1 0 0 -1 0 0 -1 0 0 -1 0 0 -1 0 0 -1 0 0 -1 0 0 -1 0 0 -1 0 0 -1 0 0 -1 0 0 -1 0 0 -1 0 0 -1 0 0 -1 0 0 -1 0 0 -1 0 0 -1 0 0 -1 0 0 -1 0 0 -1 0 0 -1 0 0 -1 0 0 -1 0 0 -1 0 0 -1 0 0 -1 0 0 -1 0 0 -1 0 0 -1 0 0 -1 0 0 -1 0 0 -1 0 0 -1 0 0 -1 0 0 -1 0 0 -1 0 0 -1 0 0 -1 0 0 -1 0 0 -1 0 0 -1 0 0 -1 0 0 -1 0 0 -1 0 0 -1 0 0 -1 0 0 -1 0 0 -1 0 0 -1 0 0 -1 0 0 -1 0 0 -1 0 0 -1 0 0 -1 0 0 -1 0 0 -1 0 0 -1 0 0 -1 0 0 -1 0 0 -1 0 0 -1 0 0 -1 0 0 -1 0 0 -1 0 0 -1 0 0 -1 0 0 -1 0 0 -1 0 0 -1 0 0 -1 0 0 -1 0 0 -1 0 0 -1 0 0 -1 0 0 -1 0 0 -1 0 0 -1 0 0 -1 0 0 -1 0 0 -1 0 0 -1 0 0 -1 0 0 -1 0 0 -1 0 0 -1 0 0 -1 0 0 -1 0 0 -1 0 0 -1 0 0 -1 0 0 -1 0 0 -1 0 0 -1 0 0 -1 0 0 -1 0 0 -1 0 0 -1 0 0 -1 0 0 -1 0 0 -1 0 0 -1 0 0 -1 0 0 -1 0 0 -1 0 0 -1 0 0 -1 0 0 -1 0 0 -1 0 0 -1 0 0 -1 0 0 -1 0 0 -1 0 0 -1 0 0 -1 0 0 -1 0 0 -1 0 0 -1 0 0 -1 0 0 -1 0 0 -1 0 0 -1 0 0 -1 0 0 -1 0 0 -1 0 0 -1 0 0 -1 0 0 -1 0 0 -1 0 0 -1 0 0 -1 0 0 -1 0 0 -1 0 0 -1 0 0 -1 0 0 -1 0 0 -1 0 0 1 0 0 1 0 0 1 0 0 1 0 0 1 0 0 1 0 0 1 0 0 1 0 0 1 0 0 1 0 0 1 0 0 1 0 0 1 0 0 1 0 0 1 0 0 1 0 0 1 0 0 1 0 0 1 0 0 1 0 0 1 0 0 1 0 0 1 0 0 1 0 0 1 0 0 1 0 0 1 0 0 1 0 0 1 0 0 1 0 0 1 0 0 1 0 0 1 0 0 1 0 0 1 0 0 1 0 0 1 0 0 1 0 0 1 0 0 1 0 0 1 0 0 1 0 0 1 0 0 1 0 0 1 0 0 1 0 0 1 0 0 1 0 0 1 0 0 1 0 0 1 0 0 1 0 0 1 0 0 1 0 0 1 0 0 1 0 0 1 0 0 1 0 0 1 0 0 1 0 0 1 0 0 1 0 0 1 0 0 1 0 0 1 0 0 1 0 0 1 0 0 1 0 0 1 0 0 1 0 0 1 0 0 1 0 0 1 0 0 1 0 0 1 0 0 1 0 0 1 0 0 1 0 0 1 0 0 1 0 0 1 0 0 1 0 0 1 0 0 1 0 0 1 0 0 1 0 0 1 0 0 1 0 0 1 0 0 1 0 0 1 0 0 1 0 0 1 0 0 1 0 0 1 0 0 1 0 0 1 0 0 1 0 0 1 0 0 1 0 0 1 0 0 1 0 0 1 0 0 1 0 0 1 0 0 1 0 0 1 0 0 1 0 0 1 0 0 1 0 0 1 0 0 1 0 0 1 0 0 1 0 0 1 0 0 1 0 0 1 0 0 1 0 0 1 0 0 1 0 0 1 0 0 1 0 0 1 0 0 1 0 0 1 0 0 1 0 0 1 0 0 1 0 0 1 0 0 1 0 0 1 0 0 1 0 0 1 0 0 1 0 0 1 0 0 1 0 0 1 0 0 1 0 0 1 0 0 1 0 0 1 0 0 1 0 0 1 0 0 1 0 0 1 0 0 1 0 0 1 0 0 1 0 0 1 0 0 1 0 0 1 0 0 1 0 0 1 0 0 1 0 0 1 0 0 1 0 0 1 0 0 1 0 0 1 0 0 1 0 0 1 0 0 1 0 0 1 0 0 1 0 0 1 0 0 1 0 0 1 0 0 1 0 0 1 0 0 1 0 0 1 0 0 1 0 0 1 0 0 1 0 0 1 0 0 1 0 0 1 0 0 1 0 0 1 0 0 1 0 0 1 0 0 1 0 0 1 0 0 1 0 0 1 0 0 1 0 0 1 0 0 1 0 0 1 0 0 1 0 0 1 0 0 1 0 0 1 0 0 1 0 0 1 0 0 1 0 0 1 0 0 1 0 0 1 0 0 1 0 0 1 0 0 1 0 0 1 0 0 1 0 0 1 0 0 1 0 0 1 0 0 1 0 0 1 0 0 1 0 0 1 0 0 1 0 0 1 0 0 1 0 0 1 0 0 1 0 0 1 0 0 1 0 0 1 0 0 1 0 0 1 0 0 1 0 0 1 0 0 1 0 0 1 0 0 1 0 0 1 0 0 1 0 0 1 0 0 1 0 0 1 0 0 1 0 0 1 0 0 1 0 0 1 0 0 1 0 0 1 0 0 1 0 0 1 0 0 1 0 0 1 0 0 1 0 0 1 0 0 1 0 0 1 0 0 1 0 0.201961 0 0.979394 0.201961 0 0.979394 0.572933 0 0.819602 0.572933 0 0.819602 0.850429 0 0.52609 0.850429 0 0.52609 0.939154 0 0.343496 0.939154 0 0.343496 0.987466 0 0.15783 0.987466 0 0.15783 0.974617 0 -0.22388 0.974617 0 -0.22388 0.819602 0 -0.572933 0.819602 0 -0.572933 0.545034 0 -0.838414 0.545034 0 -0.838414 0.190963 0 -0.981597 0.190963 0 -0.981597 0 0 -1 0 0 -1 -0.169815 0 -0.985476 -0.169815 0 -0.985476 -0.489858 0 -0.871802 -0.489858 0 -0.871802 -0.753396 0 -0.657568 -0.753396 0 -0.657568 -0.93003 0 -0.367485 -0.93003 0 -0.367485 -0.999387 0 -0.0350108 -0.999387 0 -0.0350108 -0.953466 0 0.301502 -0.953466 0 0.301502 -0.888418 0 0.459034 -0.888418 0 0.459034 -0.790469 0 0.612502 -0.790469 0 0.612502 -0.52008 0 0.854118 -0.52008 0 0.854118 -0.181306 0 0.983427 -0.181306 0 0.983427 0 0 1 0 0 1 -1 0 0 -1 0 0 1 0 0 1 0 0 0 0 -1 0 0 -1 0.707107 0 -0.707106 0.707107 0 -0.707106 -0.707107 0 -0.707106 -0.707107 0 -0.707106 -1 0 0 -1 0 0 1 0 0 1 0 0 0 0 -1 0 0 -1 0.707107 0 -0.707106 0.707107 0 -0.707106 -0.707107 0 -0.707106 -0.707107 0 -0.707106 -1 0 0 -1 0 0 1 0 0 1 0 0 0 0 -1 0 0 -1 0.707106 0 -0.707107 0.707106 0 -0.707107 -0.707106 0 -0.707107 -0.707106 0 -0.707107 -1 0 0 -1 0 0 1 0 0 1 0 0 0 0 -1 0 0 -1 0.707107 0 -0.707106 0.707107 0 -0.707106 -0.707107 0 -0.707106 -0.707107 0 -0.707106 -1 0 0 -1 0 0 1 0 0 1 0 0 0 0 -1 0 0 -1 0.707107 0 -0.707106 0.707107 0 -0.707106 -0.707106 0 -0.707107 -0.707106 0 -0.707107 -1 0 0 -1 0 0 1 0 0 1 0 0 0 0 -1 0 0 -1 0.707107 0 -0.707106 0.707107 0 -0.707106 -0.707107 0 -0.707106 -0.707107 0 -0.707106 -0.347268 0 0.937766 -0.347268 0 0.937766 0.347268 0 -0.937766 0.347268 0 -0.937766 -0.937765 0 -0.34727 -0.937765 0 -0.34727 -0.417546 0 -0.908656 -0.417546 0 -0.908656 -0.908656 0 0.417545 -0.908656 0 0.417545 -0.343495 0 0.939154 -0.343495 0 0.939154 0.343495 0 -0.939154 0.343495 0 -0.939154 -0.939155 0 -0.343495 -0.939155 0 -0.343495 -0.421194 0 -0.906971 -0.421194 0 -0.906971 -0.90697 0 0.421194 -0.90697 0 0.421194 -0.343495 0 0.939154 -0.343495 0 0.939154 0.343496 0 -0.939154 0.343496 0 -0.939154 -0.939154 0 -0.343495 -0.939154 0 -0.343495 -0.421194 0 -0.90697 -0.421194 0 -0.90697 -0.90697 0 0.421194 -0.90697 0 0.421194 -0.343495 0 0.939154 -0.343495 0 0.939154 0.343495 0 -0.939154 0.343495 0 -0.939154 -0.939154 0 -0.343495 -0.939154 0 -0.343495 -0.421194 0 -0.90697 -0.421194 0 -0.90697 -0.90697 0 0.421194 -0.90697 0 0.421194 0.0476502 0 0.998864 0.0476502 0 0.998864 -0.0476519 0 -0.998864 -0.0476519 0 -0.998864 -0.998864 0 0.0476506 -0.998864 0 0.0476506 -0.739998 0 -0.672609 -0.739998 0 -0.672609 -0.672609 0 0.739998 -0.672609 0 0.739998 0.83053 0 0.556974 0.83053 0 0.556974 -0.83053 0 -0.556974 -0.83053 0 -0.556974 -0.556975 0 0.83053 -0.556975 0 0.83053 -0.981113 0 0.193433 -0.981113 0 0.193433 0.193433 0 0.981113 0.193433 0 0.981113 1 0 0 1 0 0 -1 0 0 -1 0 0 0 0 1 0 0 1 -0.707107 0 0.707107 -0.707107 0 0.707107 0.707107 0 0.707107 0.707107 0 0.707107 1 0 0 1 0 0 -1 0 0 -1 0 0 0 0 1 0 0 1 -0.707107 0 0.707107 -0.707107 0 0.707107 0.707106 0 0.707108 0.707106 0 0.707108 1 0 0 1 0 0 -1 0 0 -1 0 0 0 0 1 0 0 1 -0.707107 0 0.707107 -0.707107 0 0.707107 0.707107 0 0.707107 0.707107 0 0.707107 1 0 0 1 0 0 -1 0 0 -1 0 0 0 0 1 0 0 1 -0.707108 0 0.707106 -0.707108 0 0.707106 0.707107 0 0.707107 0.707107 0 0.707107 1 0 0 1 0 0 -1 0 0 -1 0 0 0 0 1 0 0 1 -0.707108 0 0.707106 -0.707108 0 0.707106 0.707108 0 0.707106 0.707108 0 0.707106 1 0 0 1 0 0 -1 0 0 -1 0 0 0 0 1 0 0 1 -0.707108 0 0.707106 -0.707108 0 0.707106 0.707107 0 0.707107 0.707107 0 0.707107 1 0 0 1 0 0 -1 0 0 -1 0 0 0 0 1 0 0 1 -0.707108 0 0.707106 -0.707108 0 0.707106 0.707108 0 0.707106 0.707108 0 0.707106 1 0 0 1 0 0 -1 0 0 -1 0 0 0 0 1 0 0 1 -0.707108 0 0.707106 -0.707108 0 0.707106 0.707108 0 0.707106 0.707108 0 0.707106 1 0 0 1 0 0 -1 0 0 -1 0 0 0 0 1 0 0 1 -0.707106 0 0.707108 -0.707106 0 0.707108 0.707106 0 0.707108 0.707106 0 0.707108 1 0 0 1 0 0 -1 0 0 -1 0 0 0 0 1 0 0 1 -0.707108 0 0.707106 -0.707108 0 0.707106 0.707108 0 0.707106 0.707108 0 0.707106 1 0 0 1 0 0 -1 0 0 -1 0 0 0 0 1 0 0 1 -0.707108 0 0.707106 -0.707108 0 0.707106 0.707108 0 0.707106 0.707108 0 0.707106 1 0 0 1 0 0 -1 0 0 -1 0 0 0 0 1 0 0 1 -0.707108 0 0.707106 -0.707108 0 0.707106 0.707108 0 0.707106 0.707108 0 0.707106 1 0 0 1 0 0 -1 0 0 -1 0 0 0 0 1 0 0 1 -0.707106 0 0.707108 -0.707106 0 0.707108 0.70711 0 0.707104 0.70711 0 0.707104 0.711156 0 -0.703034 0.711156 0 -0.703034 -0.711156 0 0.703034 -0.711156 0 0.703034 0.703032 0 0.711158 0.703032 0 0.711158 -0.00574461 0 0.999983 -0.00574461 0 0.999983 0.999984 0 0.00574041 0.999984 0 0.00574041 -0.140777 0 -0.990041 -0.140777 0 -0.990041 0.140777 0 0.990041 0.140777 0 0.990041 0.990042 0 -0.140773 0.990042 0 -0.140773 0.799611 0 0.600518 0.799611 0 0.600518 0.60052 0 -0.79961 0.60052 0 -0.79961 -0.459036 0 -0.888417 -0.459036 0 -0.888417 0.459033 0 0.888419 0.459033 0 0.888419 0.888418 0 -0.459035 0.888418 0 -0.459035 0.952794 0 0.303618 0.952794 0 0.303618 0.303619 0 -0.952793 0.303619 0 -0.952793 -0.459036 0 -0.888418 -0.459036 0 -0.888418 0.459036 0 0.888417 0.459036 0 0.888417 0.888418 0 -0.459035 0.888418 0 -0.459035 0.952792 0 0.303625 0.952792 0 0.303625 0.303619 0 -0.952793 0.303619 0 -0.952793 -0.459035 0 -0.888418 -0.459035 0 -0.888418 0.459036 0 0.888418 0.459036 0 0.888418 0.888418 0 -0.459035 0.888418 0 -0.459035 0.952791 0 0.303625 0.952791 0 0.303625 0.303619 0 -0.952793 0.303619 0 -0.952793 -0.459034 0 -0.888418 -0.459034 0 -0.888418 0.459035 0 0.888418 0.459035 0 0.888418 0.888418 0 -0.459035 0.888418 0 -0.459035 0.952793 0 0.303622 0.952793 0 0.303622 0.30362 0 -0.952793 0.30362 0 -0.952793 -1 0 0 -1 0 0 1 0 0 1 0 0 0 0 -1 0 0 -1 0.707107 0 -0.707106 0.707107 0 -0.707106 -0.707107 0 -0.707106 -0.707107 0 -0.707106 -1 0 0 -1 0 0 1 0 0 1 0 0 0 0 -1 0 0 -1 0.707105 0 -0.707108 0.707105 0 -0.707108 -0.707107 0 -0.707106 -0.707107 0 -0.707106 -1 0 0 -1 0 0 1 0 0 1 0 0 0 0 -1 0 0 -1 0.707107 0 -0.707106 0.707107 0 -0.707106 -0.707107 0 -0.707106 -0.707107 0 -0.707106 -1 0 0 -1 0 0 1 0 0 1 0 0 0 0 -1 0 0 -1 0.707107 0 -0.707106 0.707107 0 -0.707106 -0.707107 0 -0.707106 -0.707107 0 -0.707106 -1 0 0 -1 0 0 1 0 0 1 0 0 0 0 -1 0 0 -1 0.707107 0 -0.707106 0.707107 0 -0.707106 -0.707105 0 -0.707108 -0.707105 0 -0.707108 0 0 -1 0 0 -1 0 0 -1 0 0 -1 0 0 -1 0 0 -1 0 0 -1 0 0 -1 0.888418 0 -0.459034 0.888418 0 -0.459034 0.888418 0 -0.459034 0.888418 0 -0.459034 0.888418 0 -0.459035 0.888418 0 -0.459035 0.921425 0 -0.388556 0.921425 0 -0.388556 0.892448 0 0.45115 0.892448 0 0.45115 0.983512 0 0.180841 0.983512 0 0.180841 0 0 1 0 0 1 0 0 1 0 0 1 0 0 1 0 0 1 0 0 1 0 0 1 0 0 1 0 0 1 0 0 1 0 0 1 0 0 1 0 0 1 0 0 1 0 0 1 0 0 1 0 0 1 0 0 1 0 0 1 0 0 1 0 0 1 0 0 1 0 0 1 -0.303218 0 0.952921 -0.303218 0 0.952921 -0.102509 0 0.994732 -0.102509 0 0.994732 -0.932053 0 0.362322 -0.932053 0 0.362322 -0.791848 0 0.610719 -0.791848 0 0.610719 -0.939154 0 -0.343496 -0.939154 0 -0.343496 -0.939154 0 -0.343496 -0.939154 0 -0.343496 -0.939154 0 -0.343496 -0.939154 0 -0.343496 0 0 -1 0 0 -1 0 0 -1 0 0 -1 0 0 -1 0 0 -1 0 0 -1 0 0 -1 0 0 -1 0 0 -1 -0.327483 0 -0.944857 -0.327483 0 -0.944857 -0.679708 0 -0.733483 -0.679708 0 -0.733483 -0.939154 0 -0.343495 -0.939154 0 -0.343495 -0.970987 0 -0.239134 -0.970987 0 -0.239134 0 0 1 0 0 1 0.168817 0 0.985647 0.168817 0 0.985647 0.440653 0 0.897678 0.440653 0 0.897678 0.888418 0 -0.459036 0.888418 0 -0.459036 0.681112 0 -0.732179 0.681112 0 -0.732179 0.328086 0 -0.944648 0.328086 0 -0.944648 0 0 -1 0 0 -1 0 1 0 0 1 0 0 1 0 0 1 0 0 1 0 0 1 0 0 1 0 0 1 0 0 1 0 0 1 0 0 1 0 0 1 0 0 1 0 0 1 0 0 1 0 0 1 0 0 1 0 0 1 0 0 1 0 0 1 0 0 1 0 0 1 0 0 1 0 0 1 0 0 1 0 0 1 0 0 1 0 0 1 0 0 1 0 0 1 0 0 1 0 0 1 0 0 1 0 0 1 0 0 1 0 0 1 0 0 1 0 0 1 0 0 1 0 0 1 0 0 1 0 0 1 0 0 1 0 0 1 0 0 1 0 0 1 0 0 1 0 0 1 0 0 1 0 0 1 0 0 1 0 0 1 0 0 1 0 0 1 0 0 1 0 0 1 0 0 1 0 0 1 0 0 1 0 0 1 0 0 1 0 0 1 0 0 1 0 0 1 0 0 1 0 0 1 0 0 1 0 0 1 0 0 1 0 0 1 0 0 1 0 0 1 0 0 1 0 0 1 0 0 1 0 0 1 0 0 1 0 0 1 0 0 1 0 0 1 0 0 1 0 0 1 0 0 1 0 0 1 0 0 1 0 0 1 0 0 1 0 0 1 0 0 1 0 0 1 0 0 1 0 0 1 0 0 1 0 0 1 0 0 1 0 0 1 0 0 1 0 0 1 0 0 1 0 0 1 0 0 1 0 0 1 0 0 1 0 0 1 0 0 1 0 0 1 0 0 1 0 0 1 0 0 1 0 0 1 0 0 1 0 0 1 0 0 1 0 0 1 0 0 1 0 0 1 0 0 1 0 0 1 0 0 1 0 0 1 0 0 1 0 0 1 0 0 1 0 0 1 0 0 1 0 0 1 0 0 1 0 0 1 0 0 1 0 0 1 0 0 1 0 0 1 0 0 1 0 0 1 0 0 1 0 0 1 0 0 1 0 0 1 0 0 1 0 0 1 0 0 1 0 0 1 0 0 1 0 0 1 0 0 1 0 0 1 0 0 1 0 0 1 0 0 1 0 0 1 0 0 1 0 0 1 0 0 1 0 0 1 0 0 1 0 0 1 0 0 1 0 0 1 0 0 1 0 0 1 0 0 1 0 0 1 0 0 1 0 0 1 0 0 1 0 0 1 0 0 1 0 0 1 0 0 1 0 0 1 0 0 1 0 0 1 0 0 1 0 0 1 0 0 1 0 0 1 0 0 1 0 0 1 0 0 1 0 0 1 0 0 1 0 0 1 0 0 1 0 0 1 0 0 1 0 0 1 0 0 1 0 0 1 0 0 1 0 0 1 0 0 1 0 0 1 0 0 1 0 0 1 0 0 1 0 0 1 0 0 1 0 0 1 0 0 1 0 0 1 0 0 1 0 0 1 0 0 1 0 0 1 0 0 1 0 0 1 0 0 1 0 0 1 0 0 1 0 0 1 0 0 1 0 0 1 0 0 1 0 0 1 0 0 1 0 0 1 0 0 1 0 0 1 0 0 1 0 0 1 0 0 1 0 0 1 0 0 1 0 0 1 0 0 1 0 0 1 0 0 1 0 0 1 0 0 1 0 0 1 0 0 1 0 0 1 0 0 1 0 0 1 0 0 1 0 0 1 0 0 1 0 0 1 0 0 1 0 0 1 0 0 1 0 0 1 0 0 1 0 0 1 0 0 1 0 0 1 0 0 -1 0 0 -1 0 0 -1 0 0 -1 0 0 -1 0 0 -1 0 0 -1 0 0 -1 0 0 -1 0 0 -1 0 0 -1 0 0 -1 0 0 -1 0 0 -1 0 0 -1 0 0 -1 0 0 -1 0 0 -1 0 0 -1 0 0 -1 0 0 -1 0 0 -1 0 0 -1 0 0 -1 0 0 -1 0 0 -1 0 0 -1 0 0 -1 0 0 -1 0 0 -1 0 0 -1 0 0 -1 0 0 -1 0 0 -1 0 0 -1 0 0 -1 0 0 -1 0 0 -1 0 0 -1 0 0 -1 0 0 -1 0 0 -1 0 0 -1 0 0 -1 0 0 -1 0 0 -1 0 0 -1 0 0 -1 0 0 -1 0 0 -1 0 0 -1 0 0 -1 0 0 -1 0 0 -1 0 0 -1 0 0 -1 0 0 -1 0 0 -1 0 0 -1 0 0 -1 0 0 -1 0 0 -1 0 0 -1 0 0 -1 0 0 -1 0 0 -1 0 0 -1 0 0 -1 0 0 -1 0 0 -1 0 0 -1 0 0 -1 0 0 -1 0 0 -1 0 0 -1 0 0 -1 0 0 -1 0 0 -1 0 0 -1 0 0 -1 0 0 -1 0 0 -1 0 0 -1 0 0 -1 0 0 -1 0 0 -1 0 0 -1 0 0 -1 0 0 -1 0 0 -1 0 0 -1 0 0 -1 0 0 -1 0 0 -1 0 0 -1 0 0 -1 0 0 -1 0 0 -1 0 0 -1 0 0 -1 0 0 -1 0 0 -1 0 0 -1 0 0 -1 0 0 -1 0 0 -1 0 0 -1 0 0 -1 0 0 -1 0 0 -1 0 0 -1 0 0 -1 0 0 -1 0 0 -1 0 0 -1 0 0 -1 0 0 -1 0 0 -1 0 0 -1 0 0 -1 0 0 -1 0 0 -1 0 0 -1 0 0 -1 0 0 -1 0 0 -1 0 0 -1 0 0 -1 0 0 -1 0 0 -1 0 0 -1 0 0 -1 0 0 -1 0 0 -1 0 0 -1 0 0 -1 0 0 -1 0 0 -1 0 0 -1 0 0 -1 0 0 -1 0 0 -1 0 0 -1 0 0 -1 0 0 -1 0 0 -1 0 0 -1 0 0 -1 0 0 -1 0 0 -1 0 0 -1 0 0 -1 0 0 -1 0 0 -1 0 0 -1 0 0 -1 0 0 -1 0 0 -1 0 0 -1 0 0 -1 0 0 -1 0 0 -1 0 0 -1 0 0 -1 0 0 -1 0 0 -1 0 0 -1 0 0 -1 0 0 -1 0 0 -1 0 0 -1 0 0 -1 0 0 -1 0 0 -1 0 0 -1 0 0 -1 0 0 -1 0 0 -1 0 0 -1 0 0 -1 0 0 -1 0 0 -1 0 0 -1 0 0 -1 0 0 -1 0 0 -1 0 0 -1 0 0 -1 0 0 -1 0 0 -1 0 0 -1 0 0 -1 0 0 -1 0 0 -1 0 0 -1 0 0 -1 0 0 -1 0 0 -1 0 0 -1 0 0 -1 0 0 -1 0 0 -1 0 0 -1 0 0 -1 0 0 -1 0 0 -1 0 0 -1 0 0 -1 0 0 -1 0 0 -1 0 0 -1 0 0 -1 0 0 -1 0 0 -1 0 0 -1 0 0 -1 0 0 -1 0 0 -1 0 0 -1 0 0 -1 0 0 -1 0 0 -1 0 0 -1 0 0 -1 0 0 -1 0 0 -1 0 0 -1 0 0 -1 0 0 -1 0 0 -1 0 0 -1 0 0 -1 0 0 -1 0 0 -1 0 0 -1 0 0 -1 0 0 -1 0 0 -1 0 0 -1 0 0 -1 0 0 -1 0 0 -1 0 0 -1 0 0 -1 0 0 -1 0 0 -1 0 0.850429 0 0.52609 0.850429 0 0.52609 0.572933 0 0.819602 0.572933 0 0.819602 0.201961 0 0.979394 0.201961 0 0.979394 0.939154 0 0.343496 0.939154 0 0.343496 0.190963 0 -0.981597 0.190963 0 -0.981597 0.545034 0 -0.838414 0.545034 0 -0.838414 0.819602 0 -0.572933 0.819602 0 -0.572933 0.974617 0 -0.22388 0.974617 0 -0.22388 0.987466 0 0.15783 0.987466 0 0.15783 0 0 -1 0 0 -1 -0.953466 0 0.301502 -0.953466 0 0.301502 -0.999387 0 -0.0350108 -0.999387 0 -0.0350108 -0.93003 0 -0.367485 -0.93003 0 -0.367485 -0.753396 0 -0.657568 -0.753396 0 -0.657568 -0.489858 0 -0.871802 -0.489858 0 -0.871802 -0.169815 0 -0.985476 -0.169815 0 -0.985476 -0.888418 0 0.459034 -0.888418 0 0.459034 -0.181306 0 0.983427 -0.181306 0 0.983427 -0.52008 0 0.854118 -0.52008 0 0.854118 -0.790469 0 0.612502 -0.790469 0 0.612502 0 0 1 0 0 1 -1 0 0 -1 0 0 1 0 0 1 0 0 0 0 -1 0 0 -1 0.707107 0 -0.707106 0.707107 0 -0.707106 -0.707107 0 -0.707106 -0.707107 0 -0.707106 -1 0 0 -1 0 0 1 0 0 1 0 0 0 0 -1 0 0 -1 0.707107 0 -0.707106 0.707107 0 -0.707106 -0.707107 0 -0.707106 -0.707107 0 -0.707106 -1 0 0 -1 0 0 1 0 0 1 0 0 0 0 -1 0 0 -1 0.707106 0 -0.707107 0.707106 0 -0.707107 -0.707106 0 -0.707107 -0.707106 0 -0.707107 -1 0 0 -1 0 0 1 0 0 1 0 0 0 0 -1 0 0 -1 0.707107 0 -0.707106 0.707107 0 -0.707106 -0.707107 0 -0.707106 -0.707107 0 -0.707106 -1 0 0 -1 0 0 1 0 0 1 0 0 0 0 -1 0 0 -1 0.707107 0 -0.707106 0.707107 0 -0.707106 -0.707106 0 -0.707107 -0.707106 0 -0.707107 -1 0 0 -1 0 0 1 0 0 1 0 0 0 0 -1 0 0 -1 0.707107 0 -0.707106 0.707107 0 -0.707106 -0.707107 0 -0.707106 -0.707107 0 -0.707106 -0.347268 0 0.937766 -0.347268 0 0.937766 0.347268 0 -0.937766 0.347268 0 -0.937766 -0.937765 0 -0.34727 -0.937765 0 -0.34727 -0.417546 0 -0.908656 -0.417546 0 -0.908656 -0.908656 0 0.417545 -0.908656 0 0.417545 -0.343495 0 0.939154 -0.343495 0 0.939154 0.343495 0 -0.939154 0.343495 0 -0.939154 -0.939155 0 -0.343495 -0.939155 0 -0.343495 -0.421194 0 -0.906971 -0.421194 0 -0.906971 -0.90697 0 0.421194 -0.90697 0 0.421194 -0.343495 0 0.939154 -0.343495 0 0.939154 0.343496 0 -0.939154 0.343496 0 -0.939154 -0.939154 0 -0.343495 -0.939154 0 -0.343495 -0.421194 0 -0.90697 -0.421194 0 -0.90697 -0.90697 0 0.421194 -0.90697 0 0.421194 -0.343495 0 0.939154 -0.343495 0 0.939154 0.343495 0 -0.939154 0.343495 0 -0.939154 -0.939154 0 -0.343495 -0.939154 0 -0.343495 -0.421194 0 -0.90697 -0.421194 0 -0.90697 -0.90697 0 0.421194 -0.90697 0 0.421194 0.0476502 0 0.998864 0.0476502 0 0.998864 -0.0476519 0 -0.998864 -0.0476519 0 -0.998864 -0.998864 0 0.0476506 -0.998864 0 0.0476506 -0.739998 0 -0.672609 -0.739998 0 -0.672609 -0.672609 0 0.739998 -0.672609 0 0.739998 0.83053 0 0.556974 0.83053 0 0.556974 -0.83053 0 -0.556974 -0.83053 0 -0.556974 -0.556975 0 0.83053 -0.556975 0 0.83053 -0.981113 0 0.193433 -0.981113 0 0.193433 0.193433 0 0.981113 0.193433 0 0.981113 1 0 0 1 0 0 -1 0 0 -1 0 0 0 0 1 0 0 1 -0.707107 0 0.707107 -0.707107 0 0.707107 0.707107 0 0.707107 0.707107 0 0.707107 1 0 0 1 0 0 -1 0 0 -1 0 0 0 0 1 0 0 1 -0.707107 0 0.707107 -0.707107 0 0.707107 0.707106 0 0.707108 0.707106 0 0.707108 1 0 0 1 0 0 -1 0 0 -1 0 0 0 0 1 0 0 1 -0.707107 0 0.707107 -0.707107 0 0.707107 0.707107 0 0.707107 0.707107 0 0.707107 1 0 0 1 0 0 -1 0 0 -1 0 0 0 0 1 0 0 1 -0.707108 0 0.707106 -0.707108 0 0.707106 0.707107 0 0.707107 0.707107 0 0.707107 1 0 0 1 0 0 -1 0 0 -1 0 0 0 0 1 0 0 1 -0.707108 0 0.707106 -0.707108 0 0.707106 0.707108 0 0.707106 0.707108 0 0.707106 1 0 0 1 0 0 -1 0 0 -1 0 0 0 0 1 0 0 1 -0.707108 0 0.707106 -0.707108 0 0.707106 0.707107 0 0.707107 0.707107 0 0.707107 1 0 0 1 0 0 -1 0 0 -1 0 0 0 0 1 0 0 1 -0.707108 0 0.707106 -0.707108 0 0.707106 0.707108 0 0.707106 0.707108 0 0.707106 1 0 0 1 0 0 -1 0 0 -1 0 0 0 0 1 0 0 1 -0.707108 0 0.707106 -0.707108 0 0.707106 0.707108 0 0.707106 0.707108 0 0.707106 1 0 0 1 0 0 -1 0 0 -1 0 0 0 0 1 0 0 1 -0.707106 0 0.707108 -0.707106 0 0.707108 0.707106 0 0.707108 0.707106 0 0.707108 1 0 0 1 0 0 -1 0 0 -1 0 0 0 0 1 0 0 1 -0.707108 0 0.707106 -0.707108 0 0.707106 0.707108 0 0.707106 0.707108 0 0.707106 1 0 0 1 0 0 -1 0 0 -1 0 0 0 0 1 0 0 1 -0.707108 0 0.707106 -0.707108 0 0.707106 0.707108 0 0.707106 0.707108 0 0.707106 1 0 0 1 0 0 -1 0 0 -1 0 0 0 0 1 0 0 1 -0.707108 0 0.707106 -0.707108 0 0.707106 0.707108 0 0.707106 0.707108 0 0.707106 1 0 0 1 0 0 -1 0 0 -1 0 0 0 0 1 0 0 1 -0.707106 0 0.707108 -0.707106 0 0.707108 0.70711 0 0.707104 0.70711 0 0.707104 0.711156 0 -0.703034 0.711156 0 -0.703034 -0.711156 0 0.703034 -0.711156 0 0.703034 0.703032 0 0.711158 0.703032 0 0.711158 -0.00574461 0 0.999983 -0.00574461 0 0.999983 0.999984 0 0.00574041 0.999984 0 0.00574041 -0.140777 0 -0.990041 -0.140777 0 -0.990041 0.140777 0 0.990041 0.140777 0 0.990041 0.990042 0 -0.140773 0.990042 0 -0.140773 0.799611 0 0.600518 0.799611 0 0.600518 0.60052 0 -0.79961 0.60052 0 -0.79961 -0.459036 0 -0.888417 -0.459036 0 -0.888417 0.459033 0 0.888419 0.459033 0 0.888419 0.888418 0 -0.459035 0.888418 0 -0.459035 0.952794 0 0.303618 0.952794 0 0.303618 0.303619 0 -0.952793 0.303619 0 -0.952793 -0.459036 0 -0.888418 -0.459036 0 -0.888418 0.459036 0 0.888417 0.459036 0 0.888417 0.888418 0 -0.459035 0.888418 0 -0.459035 0.952792 0 0.303625 0.952792 0 0.303625 0.303619 0 -0.952793 0.303619 0 -0.952793 -0.459035 0 -0.888418 -0.459035 0 -0.888418 0.459036 0 0.888418 0.459036 0 0.888418 0.888418 0 -0.459035 0.888418 0 -0.459035 0.952791 0 0.303625 0.952791 0 0.303625 0.303619 0 -0.952793 0.303619 0 -0.952793 -0.459034 0 -0.888418 -0.459034 0 -0.888418 0.459035 0 0.888418 0.459035 0 0.888418 0.888418 0 -0.459035 0.888418 0 -0.459035 0.952793 0 0.303622 0.952793 0 0.303622 0.30362 0 -0.952793 0.30362 0 -0.952793 -1 0 0 -1 0 0 1 0 0 1 0 0 0 0 -1 0 0 -1 0.707107 0 -0.707106 0.707107 0 -0.707106 -0.707107 0 -0.707106 -0.707107 0 -0.707106 -1 0 0 -1 0 0 1 0 0 1 0 0 0 0 -1 0 0 -1 0.707105 0 -0.707108 0.707105 0 -0.707108 -0.707107 0 -0.707106 -0.707107 0 -0.707106 -1 0 0 -1 0 0 1 0 0 1 0 0 0 0 -1 0 0 -1 0.707107 0 -0.707106 0.707107 0 -0.707106 -0.707107 0 -0.707106 -0.707107 0 -0.707106 -1 0 0 -1 0 0 1 0 0 1 0 0 0 0 -1 0 0 -1 0.707107 0 -0.707106 0.707107 0 -0.707106 -0.707107 0 -0.707106 -0.707107 0 -0.707106 -1 0 0 -1 0 0 1 0 0 1 0 0 0 0 -1 0 0 -1 0.707107 0 -0.707106 0.707107 0 -0.707106 -0.707105 0 -0.707108 -0.707105 0 -0.707108</float_array>
                    <technique_common>
                        <accessor count="1968" source="#shape0-lib-normals-array" stride="3">
                            <param name="X" type="float"/>
                            <param name="Y" type="float"/>
                            <param name="Z" type="float"/>
                        </accessor>
                    </technique_common>
                </source>
                <vertices id="shape0-lib-vertices">
                    <input semantic="POSITION" source="#shape0-lib-positions"/>
                </vertices>
                <triangles count="1968">
                    <input offset="0" semantic="VERTEX" source="#shape0-lib-vertices"/>
                    <input offset="1" semantic="NORMAL" source="#shape0-lib-normals"/>
                    <p>298 0 259 0 490 0 490 1 259 1 492 1 234 2 1 2 0 2 0 3 1 3 2 3 3 4 4 4 484 4 484 5 4 5 129 5 5 6 151 6 482 6 482 7 151 7 132 7 6 8 462 8 239 8 239 9 462 9 7 9 223 10 104 10 252 10 252 11 104 11 8 11 209 12 9 12 454 12 454 13 9 13 84 13 440 14 87 14 10 14 10 15 87 15 11 15 161 16 441 16 12 16 161 17 12 17 162 17 162 18 12 18 247 18 162 19 247 19 13 19 14 20 15 20 221 20 221 21 15 21 16 21 216 22 17 22 198 22 198 23 17 23 18 23 207 24 19 24 217 24 217 25 19 25 20 25 208 26 21 26 206 26 206 27 21 27 126 27 204 28 22 28 191 28 191 29 22 29 113 29 23 30 24 30 205 30 205 31 24 31 410 31 237 32 92 32 235 32 235 33 92 33 25 33 232 34 390 34 400 34 400 35 390 35 26 35 200 36 65 36 391 36 391 37 65 37 27 37 28 38 30 38 29 38 29 39 30 39 31 39 32 40 56 40 379 40 379 41 56 41 33 41 176 42 93 42 193 42 193 43 93 43 34 43 117 44 35 44 183 44 117 45 183 45 36 45 36 46 183 46 37 46 36 47 37 47 119 47 120 48 179 48 38 48 120 49 38 49 121 49 121 50 38 50 185 50 121 51 185 51 122 51 46 52 228 52 353 52 353 53 228 53 230 53 213 54 345 54 214 54 214 55 345 55 63 55 211 56 75 56 212 56 212 57 75 57 67 57 320 58 318 58 39 58 39 59 318 59 141 59 40 60 41 60 271 60 271 61 41 61 143 61 263 62 145 62 272 62 272 63 145 63 42 63 261 64 99 64 309 64 309 65 99 65 310 65 270 66 295 66 260 66 260 67 295 67 303 67 156 68 276 68 275 68 156 69 275 69 158 69 158 70 275 70 43 70 158 71 43 71 159 71 334 72 153 72 44 72 44 73 153 73 45 73 46 74 47 74 228 74 228 75 47 75 359 75 35 76 117 76 215 76 215 77 117 77 62 77 48 78 246 78 49 78 48 79 49 79 51 79 51 80 49 80 50 80 51 81 50 81 166 81 11 82 87 82 248 82 248 83 87 83 112 83 173 84 52 84 258 84 173 85 258 85 53 85 53 86 258 86 468 86 53 87 468 87 54 87 249 88 473 88 256 88 256 89 473 89 138 89 443 90 55 90 86 90 56 91 285 91 57 91 57 92 285 92 125 92 57 93 125 93 30 93 58 94 59 94 47 94 370 95 60 95 61 95 61 96 60 96 62 96 61 97 62 97 368 97 67 98 98 98 345 98 345 99 98 99 63 99 473 100 64 100 175 100 390 101 83 101 125 101 83 102 65 102 125 102 125 103 65 103 79 103 125 104 79 104 30 104 66 105 357 105 353 105 353 106 357 106 356 106 347 107 67 107 350 107 350 108 67 108 345 108 350 109 345 109 348 109 348 110 345 110 344 110 68 111 69 111 382 111 382 112 69 112 57 112 382 113 57 113 70 113 70 114 57 114 30 114 71 115 73 115 72 115 72 116 73 116 374 116 72 117 374 117 74 117 340 118 45 118 342 118 342 119 45 119 75 119 342 120 75 120 76 120 76 121 75 121 77 121 404 122 92 122 125 122 125 123 92 123 91 123 125 124 91 124 390 124 385 125 78 125 388 125 388 126 78 126 79 126 388 127 79 127 387 127 387 128 79 128 65 128 58 129 47 129 98 129 80 130 449 130 9 130 9 131 449 131 451 131 125 132 410 132 24 132 394 133 81 133 82 133 82 134 81 134 83 134 82 135 83 135 389 135 389 136 83 136 390 136 459 137 455 137 84 137 85 138 443 138 440 138 440 139 443 139 86 139 440 140 86 140 87 140 87 141 86 141 88 141 87 142 88 142 112 142 125 143 113 143 22 143 125 144 24 144 404 144 404 145 24 145 408 145 404 146 408 146 89 146 89 147 408 147 405 147 89 148 405 148 407 148 401 149 90 149 403 149 403 150 90 150 91 150 403 151 91 151 397 151 397 152 91 152 92 152 368 153 62 153 93 153 93 154 62 154 285 154 93 155 285 155 374 155 374 156 285 156 56 156 374 157 56 157 74 157 94 158 120 158 95 158 95 159 120 159 119 159 95 160 119 160 96 160 96 161 119 161 97 161 47 162 46 162 98 162 98 163 46 163 353 163 98 164 353 164 63 164 63 165 353 165 356 165 63 166 356 166 354 166 310 167 99 167 100 167 100 168 99 168 303 168 100 169 303 169 295 169 299 170 102 170 101 170 101 171 102 171 298 171 101 172 298 172 300 172 300 173 298 173 295 173 160 174 103 174 8 174 104 175 460 175 457 175 125 176 126 176 21 176 125 177 22 177 410 177 410 178 22 178 409 178 410 179 409 179 105 179 105 180 409 180 412 180 105 181 412 181 106 181 361 182 107 182 365 182 365 183 107 183 47 183 365 184 47 184 364 184 41 185 108 185 109 185 306 186 302 186 304 186 304 187 302 187 303 187 304 188 303 188 110 188 110 189 303 189 99 189 88 190 111 190 104 190 104 191 111 191 8 191 457 192 459 192 104 192 104 193 459 193 84 193 104 194 84 194 88 194 88 195 84 195 9 195 88 196 9 196 112 196 112 197 9 197 451 197 112 198 451 198 452 198 125 199 21 199 113 199 113 200 21 200 114 200 113 201 114 201 115 201 115 202 114 202 416 202 115 203 416 203 116 203 62 204 117 204 285 204 285 205 117 205 36 205 285 206 36 206 283 206 283 207 36 207 119 207 283 208 119 208 118 208 118 209 119 209 120 209 118 210 120 210 59 210 59 211 120 211 121 211 59 212 121 212 47 212 47 213 121 213 122 213 47 214 122 214 364 214 144 215 317 215 42 215 312 216 123 216 124 216 124 217 123 217 310 217 17 218 20 218 125 218 125 219 20 219 19 219 125 220 19 220 126 220 126 221 19 221 127 221 126 222 127 222 128 222 128 223 127 223 417 223 128 224 417 224 419 224 295 225 298 225 100 225 100 226 298 226 490 226 100 227 490 227 2 227 2 228 1 228 100 228 100 229 1 229 129 229 100 230 129 230 4 230 483 231 130 231 131 231 131 232 130 232 132 232 131 233 132 233 152 233 466 234 467 234 462 234 462 235 467 235 160 235 16 236 15 236 125 236 125 237 15 237 18 237 125 238 18 238 17 238 133 239 496 239 497 239 497 240 496 240 2 240 497 241 2 241 134 241 134 242 2 242 490 242 486 243 487 243 489 243 489 244 487 244 129 244 489 245 129 245 135 245 135 246 129 246 1 246 136 247 478 247 137 247 137 248 478 248 138 248 137 249 138 249 150 249 424 250 425 250 139 250 139 251 425 251 20 251 139 252 20 252 421 252 421 253 20 253 17 253 332 254 330 254 140 254 140 255 330 255 141 255 140 256 141 256 327 256 323 257 325 257 142 257 142 258 325 258 143 258 142 259 143 259 326 259 326 260 143 260 318 260 327 261 141 261 157 261 157 262 141 262 318 262 157 263 318 263 100 263 100 264 318 264 143 264 100 265 143 265 41 265 109 266 144 266 41 266 41 267 144 267 42 267 41 268 42 268 100 268 100 269 42 269 145 269 100 270 145 270 310 270 310 271 145 271 313 271 310 272 313 272 124 272 138 273 473 273 100 273 13 274 439 274 436 274 146 275 147 275 168 275 168 276 147 276 16 276 428 277 148 277 433 277 433 278 148 278 18 278 433 279 18 279 431 279 431 280 18 280 15 280 336 281 335 281 149 281 149 282 335 282 156 282 149 283 156 283 338 283 338 284 156 284 153 284 150 285 138 285 151 285 151 286 138 286 100 286 151 287 100 287 132 287 132 288 100 288 4 288 132 289 4 289 152 289 67 290 75 290 98 290 98 291 75 291 45 291 98 292 45 292 154 292 154 293 45 293 153 293 154 294 153 294 155 294 155 295 153 295 156 295 155 296 156 296 279 296 279 297 156 297 158 297 279 298 158 298 157 298 157 299 158 299 159 299 157 300 159 300 327 300 160 301 8 301 462 301 462 302 8 302 111 302 462 303 111 303 7 303 7 304 111 304 171 304 7 305 171 305 470 305 55 306 442 306 86 306 86 307 442 307 161 307 86 308 161 308 289 308 289 309 161 309 162 309 289 310 162 310 163 310 163 311 162 311 13 311 163 312 13 312 164 312 436 313 437 313 13 313 13 314 437 314 435 314 13 315 435 315 164 315 164 316 435 316 48 316 164 317 48 317 165 317 165 318 48 318 51 318 165 319 51 319 125 319 125 320 51 320 166 320 125 321 166 321 16 321 16 322 166 322 167 322 16 323 167 323 168 323 169 324 171 324 170 324 170 325 171 325 111 325 170 326 111 326 54 326 54 327 111 327 292 327 54 328 292 328 53 328 53 329 292 329 172 329 53 330 172 330 173 330 173 331 172 331 100 331 173 332 100 332 174 332 174 333 100 333 473 333 174 334 473 334 476 334 476 335 473 335 175 335 379 336 378 336 381 336 373 337 369 337 176 337 215 338 372 338 371 338 391 339 395 339 393 339 400 340 399 340 177 340 217 341 178 341 423 341 363 342 358 342 185 342 23 343 205 343 236 343 366 344 180 344 179 344 179 345 180 345 367 345 221 346 181 346 219 346 282 347 37 347 182 347 182 348 37 348 183 348 182 349 183 349 284 349 284 350 183 350 35 350 284 351 35 351 215 351 360 352 363 352 227 352 227 353 363 353 185 353 227 354 185 354 184 354 184 355 185 355 38 355 184 356 38 356 282 356 282 357 38 357 179 357 282 358 179 358 37 358 37 359 179 359 367 359 37 360 367 360 186 360 386 361 383 361 187 361 187 362 383 362 29 362 187 363 29 363 384 363 188 364 189 364 406 364 406 365 189 365 190 365 406 366 190 366 235 366 191 367 192 367 413 367 290 368 242 368 10 368 32 369 193 369 195 369 195 370 193 370 194 370 195 371 194 371 376 371 376 372 194 372 375 372 355 373 352 373 230 373 196 374 420 374 418 374 418 375 420 375 197 375 418 376 197 376 206 376 207 377 217 377 236 377 427 378 432 378 429 378 429 379 432 379 430 379 429 380 430 380 198 380 214 381 199 381 231 381 236 382 200 382 391 382 411 383 202 383 201 383 201 384 202 384 203 384 201 385 203 385 205 385 205 386 203 386 204 386 205 387 204 387 236 387 236 388 204 388 191 388 197 389 207 389 206 389 206 390 207 390 236 390 206 391 236 391 208 391 208 392 236 392 191 392 208 393 191 393 414 393 414 394 191 394 413 394 414 395 413 395 415 395 242 396 441 396 445 396 448 397 453 397 210 397 210 398 453 398 209 398 210 399 209 399 450 399 450 400 209 400 248 400 211 401 212 401 229 401 229 402 212 402 213 402 229 403 213 403 214 403 371 404 373 404 215 404 215 405 373 405 176 405 215 406 176 406 284 406 284 407 176 407 193 407 284 408 193 408 236 408 236 409 193 409 32 409 236 410 32 410 379 410 430 411 14 411 198 411 198 412 14 412 236 412 198 413 236 413 216 413 216 414 236 414 217 414 216 415 217 415 426 415 426 416 217 416 423 416 426 417 423 417 422 417 218 418 220 418 219 418 219 419 220 419 50 419 219 420 50 420 221 420 461 421 222 421 456 421 456 422 222 422 223 422 456 423 223 423 458 423 458 424 223 424 454 424 479 425 224 425 5 425 343 426 211 426 341 426 341 427 211 427 44 427 341 428 44 428 225 428 225 429 44 429 339 429 346 430 213 430 351 430 351 431 213 431 212 431 351 432 212 432 226 432 226 433 212 433 349 433 362 434 360 434 359 434 359 435 360 435 227 435 359 436 227 436 228 436 228 437 227 437 229 437 228 438 229 438 230 438 230 439 229 439 214 439 230 440 214 440 355 440 355 441 214 441 231 441 400 442 236 442 232 442 232 443 236 443 391 443 232 444 391 444 396 444 396 445 391 445 393 445 396 446 393 446 392 446 488 447 233 447 234 447 383 448 200 448 29 448 29 449 200 449 236 449 29 450 236 450 28 450 28 451 236 451 379 451 28 452 379 452 377 452 377 453 379 453 381 453 377 454 381 454 380 454 190 455 23 455 235 455 235 456 23 456 236 456 235 457 236 457 237 457 237 458 236 458 400 458 237 459 400 459 398 459 398 460 400 460 177 460 398 461 177 461 402 461 463 462 238 462 464 462 464 463 238 463 6 463 6 464 239 464 240 464 240 465 239 465 291 465 256 466 241 466 480 466 446 467 10 467 447 467 447 468 10 468 242 468 447 469 242 469 444 469 444 470 242 470 445 470 14 471 221 471 236 471 236 472 221 472 50 472 236 473 50 473 286 473 286 474 50 474 49 474 286 475 49 475 243 475 243 476 49 476 246 476 244 477 247 477 438 477 438 478 247 478 243 478 438 479 243 479 245 479 245 480 243 480 246 480 245 481 246 481 434 481 441 482 242 482 12 482 12 483 242 483 288 483 12 484 288 484 247 484 247 485 288 485 287 485 247 486 287 486 243 486 10 487 11 487 290 487 290 488 11 488 248 488 290 489 248 489 240 489 240 490 248 490 209 490 240 491 209 491 454 491 256 492 294 492 249 492 249 493 294 493 477 493 249 494 477 494 250 494 294 495 3 495 484 495 484 496 251 496 485 496 262 497 294 497 259 497 259 498 294 498 492 498 39 499 329 499 331 499 454 500 223 500 240 500 240 501 223 501 252 501 240 502 252 502 6 502 6 503 252 503 465 503 6 504 465 504 464 504 472 505 253 505 471 505 471 506 253 506 468 506 471 507 468 507 469 507 254 508 255 508 482 508 482 509 255 509 257 509 480 510 479 510 256 510 256 511 479 511 5 511 256 512 5 512 294 512 294 513 5 513 482 513 294 514 482 514 3 514 3 515 482 515 257 515 3 516 257 516 481 516 493 517 495 517 0 517 0 518 495 518 494 518 485 519 488 519 484 519 484 520 488 520 234 520 484 521 234 521 294 521 294 522 234 522 0 522 294 523 0 523 492 523 492 524 0 524 494 524 492 525 494 525 491 525 474 526 477 526 475 526 475 527 477 527 294 527 475 528 294 528 52 528 52 529 294 529 293 529 52 530 293 530 258 530 258 531 293 531 291 531 258 532 291 532 468 532 468 533 291 533 239 533 468 534 239 534 469 534 269 535 296 535 270 535 259 536 297 536 268 536 307 537 305 537 260 537 260 538 305 538 308 538 261 539 309 539 262 539 262 540 309 540 263 540 262 541 263 541 272 541 264 542 315 542 40 542 265 543 263 543 314 543 314 544 263 544 309 544 314 545 309 545 311 545 311 546 309 546 266 546 272 547 267 547 316 547 268 548 269 548 259 548 259 549 269 549 270 549 259 550 270 550 262 550 262 551 270 551 260 551 262 552 260 552 261 552 261 553 260 553 308 553 261 554 308 554 301 554 324 555 322 555 271 555 271 556 322 556 321 556 320 557 39 557 262 557 316 558 264 558 272 558 272 559 264 559 40 559 272 560 40 560 262 560 262 561 40 561 271 561 262 562 271 562 320 562 320 563 271 563 321 563 320 564 321 564 319 564 277 565 273 565 337 565 331 566 274 566 39 566 39 567 274 567 328 567 39 568 328 568 262 568 262 569 328 569 43 569 262 570 43 570 280 570 280 571 43 571 275 571 280 572 275 572 281 572 281 573 275 573 276 573 281 574 276 574 277 574 277 575 276 575 278 575 277 576 278 576 273 576 211 577 229 577 44 577 44 578 229 578 277 578 44 579 277 579 334 579 334 580 277 580 337 580 334 581 337 581 333 581 157 582 262 582 280 582 157 583 280 583 279 583 279 584 280 584 281 584 279 585 281 585 155 585 155 586 281 586 277 586 155 587 277 587 154 587 98 588 154 588 229 588 229 589 154 589 277 589 98 590 229 590 227 590 98 591 227 591 58 591 58 592 227 592 184 592 58 593 184 593 59 593 59 594 184 594 282 594 59 595 282 595 118 595 118 596 282 596 182 596 118 597 182 597 283 597 283 598 182 598 284 598 283 599 284 599 285 599 125 600 285 600 236 600 236 601 285 601 284 601 125 602 236 602 286 602 125 603 286 603 165 603 165 604 286 604 243 604 165 605 243 605 164 605 164 606 243 606 287 606 164 607 287 607 163 607 163 608 287 608 288 608 163 609 288 609 289 609 289 610 288 610 242 610 289 611 242 611 86 611 86 612 242 612 290 612 86 613 290 613 88 613 111 614 88 614 240 614 240 615 88 615 290 615 111 616 240 616 291 616 111 617 291 617 292 617 292 618 291 618 293 618 292 619 293 619 172 619 172 620 293 620 294 620 172 621 294 621 100 621 157 622 100 622 262 622 262 623 100 623 294 623 300 624 295 624 296 624 296 625 295 625 270 625 297 626 259 626 102 626 102 627 259 627 298 627 269 628 268 628 101 628 101 629 268 629 299 629 268 630 297 630 299 630 299 631 297 631 102 631 296 632 269 632 300 632 300 633 269 633 101 633 110 634 99 634 301 634 301 635 99 635 261 635 307 636 260 636 302 636 302 637 260 637 303 637 308 638 305 638 304 638 304 639 305 639 306 639 305 640 307 640 306 640 306 641 307 641 302 641 301 642 308 642 110 642 110 643 308 643 304 643 313 644 145 644 265 644 265 645 145 645 263 645 266 646 309 646 123 646 123 647 309 647 310 647 314 648 311 648 124 648 124 649 311 649 312 649 311 650 266 650 312 650 312 651 266 651 123 651 265 652 314 652 313 652 313 653 314 653 124 653 108 654 41 654 315 654 315 655 41 655 40 655 267 656 272 656 317 656 317 657 272 657 42 657 264 658 316 658 109 658 109 659 316 659 144 659 316 660 267 660 144 660 144 661 267 661 317 661 315 662 264 662 108 662 108 663 264 663 109 663 326 664 318 664 319 664 319 665 318 665 320 665 324 666 271 666 325 666 325 667 271 667 143 667 321 668 322 668 142 668 142 669 322 669 323 669 322 670 324 670 323 670 323 671 324 671 325 671 319 672 321 672 326 672 326 673 321 673 142 673 327 674 159 674 328 674 328 675 159 675 43 675 329 676 39 676 330 676 330 677 39 677 141 677 274 678 331 678 140 678 140 679 331 679 332 679 331 680 329 680 332 680 332 681 329 681 330 681 328 682 274 682 327 682 327 683 274 683 140 683 338 684 153 684 333 684 333 685 153 685 334 685 278 686 276 686 335 686 335 687 276 687 156 687 337 688 273 688 149 688 149 689 273 689 336 689 273 690 278 690 336 690 336 691 278 691 335 691 333 692 337 692 338 692 338 693 337 693 149 693 77 694 75 694 343 694 343 695 75 695 211 695 339 696 44 696 340 696 340 697 44 697 45 697 341 698 225 698 76 698 76 699 225 699 342 699 225 700 339 700 342 700 342 701 339 701 340 701 343 702 341 702 77 702 77 703 341 703 76 703 344 704 345 704 346 704 346 705 345 705 213 705 349 706 212 706 347 706 347 707 212 707 67 707 351 708 226 708 348 708 348 709 226 709 350 709 226 710 349 710 350 710 350 711 349 711 347 711 346 712 351 712 344 712 344 713 351 713 348 713 66 714 353 714 352 714 352 715 353 715 230 715 199 716 214 716 354 716 354 717 214 717 63 717 355 718 231 718 357 718 357 719 231 719 356 719 231 720 199 720 356 720 356 721 199 721 354 721 352 722 355 722 66 722 66 723 355 723 357 723 364 724 122 724 358 724 358 725 122 725 185 725 362 726 359 726 107 726 107 727 359 727 47 727 363 728 360 728 365 728 365 729 360 729 361 729 360 730 362 730 361 730 361 731 362 731 107 731 358 732 363 732 364 732 364 733 363 733 365 733 97 734 119 734 186 734 186 735 119 735 37 735 366 736 179 736 94 736 94 737 179 737 120 737 367 738 180 738 96 738 96 739 180 739 95 739 180 740 366 740 95 740 95 741 366 741 94 741 186 742 367 742 97 742 97 743 367 743 96 743 368 744 93 744 369 744 369 745 93 745 176 745 372 746 215 746 60 746 60 747 215 747 62 747 373 748 371 748 61 748 61 749 371 749 370 749 371 750 372 750 370 750 370 751 372 751 60 751 369 752 373 752 368 752 368 753 373 753 61 753 74 754 56 754 195 754 195 755 56 755 32 755 194 756 193 756 73 756 73 757 193 757 374 757 376 758 375 758 72 758 72 759 375 759 71 759 375 760 194 760 71 760 71 761 194 761 73 761 195 762 376 762 74 762 74 763 376 763 72 763 70 764 30 764 377 764 377 765 30 765 28 765 378 766 379 766 69 766 69 767 379 767 57 767 380 768 381 768 382 768 382 769 381 769 68 769 381 770 378 770 68 770 68 771 378 771 69 771 377 772 380 772 70 772 70 773 380 773 382 773 387 774 65 774 383 774 383 775 65 775 200 775 384 776 29 776 78 776 78 777 29 777 79 777 386 778 187 778 388 778 388 779 187 779 385 779 187 780 384 780 385 780 385 781 384 781 78 781 383 782 386 782 387 782 387 783 386 783 388 783 389 784 390 784 396 784 396 785 390 785 232 785 395 786 391 786 81 786 81 787 391 787 83 787 392 788 393 788 82 788 82 789 393 789 394 789 393 790 395 790 394 790 394 791 395 791 81 791 396 792 392 792 389 792 389 793 392 793 82 793 397 794 92 794 398 794 398 795 92 795 237 795 399 796 400 796 90 796 90 797 400 797 91 797 402 798 177 798 403 798 403 799 177 799 401 799 177 800 399 800 401 800 401 801 399 801 90 801 398 802 402 802 397 802 397 803 402 803 403 803 408 804 24 804 190 804 190 805 24 805 23 805 406 806 235 806 89 806 89 807 235 807 404 807 189 808 188 808 405 808 405 809 188 809 407 809 188 810 406 810 407 810 407 811 406 811 89 811 190 812 189 812 408 812 408 813 189 813 405 813 409 814 22 814 203 814 203 815 22 815 204 815 201 816 205 816 105 816 105 817 205 817 410 817 202 818 411 818 412 818 412 819 411 819 106 819 411 820 201 820 106 820 106 821 201 821 105 821 203 822 202 822 409 822 409 823 202 823 412 823 114 824 21 824 414 824 414 825 21 825 208 825 192 826 191 826 115 826 115 827 191 827 113 827 415 828 413 828 416 828 416 829 413 829 116 829 413 830 192 830 116 830 116 831 192 831 115 831 414 832 415 832 114 832 114 833 415 833 416 833 127 834 19 834 197 834 197 835 19 835 207 835 418 836 206 836 128 836 128 837 206 837 126 837 420 838 196 838 417 838 417 839 196 839 419 839 196 840 418 840 419 840 419 841 418 841 128 841 197 842 420 842 127 842 127 843 420 843 417 843 421 844 17 844 426 844 426 845 17 845 216 845 178 846 217 846 425 846 425 847 217 847 20 847 422 848 423 848 139 848 139 849 423 849 424 849 423 850 178 850 424 850 424 851 178 851 425 851 426 852 422 852 421 852 421 853 422 853 139 853 431 854 15 854 430 854 430 855 15 855 14 855 429 856 198 856 148 856 148 857 198 857 18 857 432 858 427 858 433 858 433 859 427 859 428 859 427 860 429 860 428 860 428 861 429 861 148 861 430 862 432 862 431 862 431 863 432 863 433 863 167 864 166 864 220 864 220 865 166 865 50 865 181 866 221 866 147 866 147 867 221 867 16 867 218 868 219 868 168 868 168 869 219 869 146 869 219 870 181 870 146 870 146 871 181 871 147 871 220 872 218 872 167 872 167 873 218 873 168 873 439 874 13 874 244 874 244 875 13 875 247 875 434 876 246 876 435 876 435 877 246 877 48 877 438 878 245 878 436 878 436 879 245 879 437 879 245 880 434 880 437 880 437 881 434 881 435 881 244 882 438 882 439 882 439 883 438 883 436 883 85 884 440 884 446 884 446 885 440 885 10 885 445 886 441 886 442 886 442 887 441 887 161 887 447 888 444 888 443 888 443 889 444 889 55 889 444 890 445 890 55 890 55 891 445 891 442 891 446 892 447 892 85 892 85 893 447 893 443 893 80 894 9 894 453 894 453 895 9 895 209 895 450 896 248 896 452 896 452 897 248 897 112 897 448 898 210 898 449 898 449 899 210 899 451 899 210 900 450 900 451 900 451 901 450 901 452 901 453 902 448 902 80 902 80 903 448 903 449 903 460 904 104 904 222 904 222 905 104 905 223 905 458 906 454 906 455 906 455 907 454 907 84 907 461 908 456 908 457 908 457 909 456 909 459 909 456 910 458 910 459 910 459 911 458 911 455 911 222 912 461 912 460 912 460 913 461 913 457 913 466 914 462 914 238 914 238 915 462 915 6 915 465 916 252 916 103 916 103 917 252 917 8 917 463 918 464 918 467 918 467 919 464 919 160 919 464 920 465 920 160 920 160 921 465 921 103 921 238 922 463 922 466 922 466 923 463 923 467 923 170 924 54 924 253 924 253 925 54 925 468 925 469 926 239 926 470 926 470 927 239 927 7 927 472 928 471 928 169 928 169 929 471 929 171 929 471 930 469 930 171 930 171 931 469 931 470 931 253 932 472 932 170 932 170 933 472 933 169 933 64 934 473 934 250 934 250 935 473 935 249 935 475 936 52 936 174 936 174 937 52 937 173 937 477 938 474 938 175 938 175 939 474 939 476 939 474 940 475 940 476 940 476 941 475 941 174 941 250 942 477 942 64 942 64 943 477 943 175 943 150 944 151 944 224 944 224 945 151 945 5 945 241 946 256 946 478 946 478 947 256 947 138 947 479 948 480 948 137 948 137 949 480 949 136 949 480 950 241 950 136 950 136 951 241 951 478 951 224 952 479 952 150 952 150 953 479 953 137 953 152 954 4 954 481 954 481 955 4 955 3 955 254 956 482 956 130 956 130 957 482 957 132 957 257 958 255 958 131 958 131 959 255 959 483 959 255 960 254 960 483 960 483 961 254 961 130 961 481 962 257 962 152 962 152 963 257 963 131 963 135 964 1 964 233 964 233 965 1 965 234 965 251 966 484 966 487 966 487 967 484 967 129 967 488 968 485 968 489 968 489 969 485 969 486 969 485 970 251 970 486 970 486 971 251 971 487 971 233 972 488 972 135 972 135 973 488 973 489 973 134 974 490 974 491 974 491 975 490 975 492 975 493 976 0 976 496 976 496 977 0 977 2 977 494 978 495 978 497 978 497 979 495 979 133 979 495 980 493 980 133 980 133 981 493 981 496 981 491 982 494 982 134 982 134 983 494 983 497 983 498 984 625 984 990 984 990 985 625 985 650 985 982 986 983 986 651 986 651 987 983 987 778 987 976 988 739 988 499 988 499 989 739 989 500 989 501 990 780 990 977 990 977 991 780 991 781 991 642 992 767 992 960 992 960 993 767 993 502 993 640 994 727 994 641 994 641 995 727 995 503 995 637 996 723 996 638 996 638 997 723 997 726 997 536 998 504 998 537 998 537 999 504 999 505 999 629 1000 702 1000 701 1000 629 1001 701 1001 506 1001 506 1002 701 1002 699 1002 506 1003 699 1003 507 1003 508 1004 691 1004 620 1004 620 1005 691 1005 713 1005 600 1006 919 1006 618 1006 618 1007 919 1007 509 1007 601 1008 681 1008 921 1008 921 1009 681 1009 675 1009 568 1010 682 1010 912 1010 912 1011 682 1011 510 1011 575 1012 511 1012 907 1012 907 1013 511 1013 705 1013 564 1014 900 1014 576 1014 576 1015 900 1015 708 1015 895 1016 513 1016 512 1016 512 1017 513 1017 683 1017 591 1018 678 1018 514 1018 514 1019 678 1019 676 1019 584 1020 696 1020 515 1020 515 1021 696 1021 677 1021 586 1022 879 1022 516 1022 516 1023 879 1023 695 1023 569 1024 876 1024 517 1024 517 1025 876 1025 686 1025 544 1026 729 1026 518 1026 518 1027 729 1027 716 1027 550 1028 770 1028 769 1028 550 1029 769 1029 519 1029 519 1030 769 1030 532 1030 519 1031 532 1031 553 1031 555 1032 864 1032 772 1032 555 1033 772 1033 556 1033 556 1034 772 1034 520 1034 556 1035 520 1035 557 1035 740 1036 531 1036 741 1036 741 1037 531 1037 605 1037 592 1038 852 1038 521 1038 521 1039 852 1039 742 1039 843 1040 844 1040 593 1040 593 1041 844 1041 522 1041 662 1042 737 1042 653 1042 653 1043 737 1043 733 1043 661 1044 821 1044 828 1044 828 1045 821 1045 736 1045 659 1046 524 1046 523 1046 523 1047 524 1047 746 1047 809 1048 811 1048 657 1048 657 1049 811 1049 525 1049 803 1050 526 1050 656 1050 656 1051 526 1051 813 1051 528 1052 761 1052 527 1052 528 1053 527 1053 666 1053 666 1054 527 1054 759 1054 666 1055 759 1055 837 1055 667 1056 755 1056 669 1056 669 1057 755 1057 529 1057 530 1058 531 1058 752 1058 752 1059 531 1059 740 1059 553 1060 532 1060 546 1060 546 1061 532 1061 719 1061 622 1062 712 1062 533 1062 622 1063 533 1063 534 1063 534 1064 533 1064 535 1064 534 1065 535 1065 935 1065 536 1066 537 1066 632 1066 632 1067 537 1067 943 1067 539 1068 538 1068 541 1068 539 1069 541 1069 540 1069 540 1070 541 1070 785 1070 540 1071 785 1071 969 1071 542 1072 779 1072 973 1072 973 1073 779 1073 765 1073 881 1074 543 1074 883 1074 585 1075 889 1075 583 1075 554 1076 865 1076 555 1076 552 1077 546 1077 619 1077 619 1078 546 1078 544 1078 619 1079 544 1079 570 1079 545 1080 544 1080 875 1080 875 1081 544 1081 546 1081 875 1082 546 1082 873 1082 873 1083 546 1083 547 1083 576 1084 903 1084 578 1084 548 1085 549 1085 559 1085 559 1086 549 1086 550 1086 793 1087 550 1087 551 1087 551 1088 550 1088 519 1088 551 1089 519 1089 552 1089 552 1090 519 1090 553 1090 552 1091 553 1091 546 1091 912 1092 913 1092 915 1092 610 1093 554 1093 611 1093 611 1094 554 1094 555 1094 611 1095 555 1095 794 1095 794 1096 555 1096 556 1096 794 1097 556 1097 793 1097 793 1098 556 1098 557 1098 793 1099 557 1099 550 1099 550 1100 557 1100 558 1100 550 1101 558 1101 559 1101 560 1102 561 1102 897 1102 897 1103 561 1103 895 1103 892 1104 562 1104 894 1104 894 1105 562 1105 591 1105 618 1106 925 1106 563 1106 619 1107 564 1107 576 1107 584 1108 590 1108 619 1108 909 1109 566 1109 565 1109 565 1110 566 1110 567 1110 565 1111 567 1111 907 1111 568 1112 912 1112 619 1112 881 1113 619 1113 569 1113 569 1114 619 1114 570 1114 569 1115 570 1115 571 1115 571 1116 570 1116 572 1116 571 1117 572 1117 573 1117 573 1118 572 1118 574 1118 567 1119 568 1119 907 1119 907 1120 568 1120 619 1120 907 1121 619 1121 575 1121 575 1122 619 1122 576 1122 575 1123 576 1123 577 1123 577 1124 576 1124 578 1124 577 1125 578 1125 904 1125 563 1126 579 1126 580 1126 581 1127 582 1127 583 1127 583 1128 582 1128 584 1128 583 1129 584 1129 585 1129 585 1130 584 1130 619 1130 585 1131 619 1131 586 1131 586 1132 619 1132 881 1132 586 1133 881 1133 587 1133 587 1134 881 1134 883 1134 587 1135 883 1135 884 1135 923 1136 589 1136 588 1136 588 1137 589 1137 920 1137 588 1138 920 1138 921 1138 893 1139 894 1139 590 1139 590 1140 894 1140 591 1140 590 1141 591 1141 619 1141 619 1142 591 1142 594 1142 600 1143 618 1143 619 1143 521 1144 612 1144 592 1144 592 1145 612 1145 593 1145 896 1146 897 1146 594 1146 594 1147 897 1147 895 1147 594 1148 895 1148 619 1148 619 1149 895 1149 595 1149 619 1150 595 1150 564 1150 564 1151 595 1151 596 1151 564 1152 596 1152 597 1152 597 1153 596 1153 598 1153 597 1154 598 1154 599 1154 920 1155 600 1155 921 1155 921 1156 600 1156 619 1156 921 1157 619 1157 601 1157 601 1158 619 1158 912 1158 601 1159 912 1159 918 1159 918 1160 912 1160 915 1160 918 1161 915 1161 917 1161 949 1162 950 1162 608 1162 608 1163 950 1163 637 1163 808 1164 602 1164 803 1164 603 1165 604 1165 855 1165 855 1166 604 1166 592 1166 855 1167 592 1167 854 1167 854 1168 592 1168 593 1168 861 1169 859 1169 606 1169 606 1170 859 1170 605 1170 606 1171 605 1171 863 1171 927 1172 622 1172 607 1172 607 1173 622 1173 620 1173 607 1174 620 1174 933 1174 933 1175 620 1175 932 1175 800 1176 632 1176 637 1176 637 1177 632 1177 947 1177 637 1178 947 1178 608 1178 625 1179 805 1179 807 1179 814 1180 810 1180 809 1180 850 1181 609 1181 849 1181 849 1182 609 1182 843 1182 849 1183 843 1183 847 1183 847 1184 843 1184 669 1184 868 1185 610 1185 530 1185 530 1186 610 1186 611 1186 530 1187 611 1187 531 1187 531 1188 611 1188 612 1188 531 1189 612 1189 605 1189 605 1190 612 1190 521 1190 605 1191 521 1191 863 1191 613 1192 941 1192 504 1192 954 1193 951 1193 614 1193 614 1194 951 1194 640 1194 614 1195 640 1195 615 1195 615 1196 640 1196 638 1196 656 1197 616 1197 815 1197 825 1198 617 1198 661 1198 798 1199 621 1199 534 1199 563 1200 580 1200 618 1200 618 1201 580 1201 508 1201 618 1202 508 1202 619 1202 619 1203 508 1203 620 1203 619 1204 620 1204 621 1204 621 1205 620 1205 622 1205 621 1206 622 1206 534 1206 940 1207 623 1207 938 1207 938 1208 623 1208 629 1208 938 1209 629 1209 936 1209 936 1210 629 1210 798 1210 936 1211 798 1211 935 1211 935 1212 798 1212 534 1212 507 1213 942 1213 796 1213 796 1214 942 1214 631 1214 624 1215 542 1215 973 1215 656 1216 624 1216 803 1216 803 1217 624 1217 625 1217 803 1218 625 1218 808 1218 808 1219 625 1219 807 1219 820 1220 659 1220 626 1220 626 1221 659 1221 657 1221 626 1222 657 1222 627 1222 627 1223 657 1223 816 1223 523 1224 628 1224 660 1224 507 1225 796 1225 506 1225 506 1226 796 1226 797 1226 506 1227 797 1227 629 1227 629 1228 797 1228 630 1228 629 1229 630 1229 798 1229 631 1230 613 1230 796 1230 796 1231 613 1231 504 1231 796 1232 504 1232 800 1232 800 1233 504 1233 536 1233 800 1234 536 1234 632 1234 633 1235 959 1235 958 1235 958 1236 959 1236 642 1236 642 1237 960 1237 639 1237 639 1238 960 1238 802 1238 975 1239 634 1239 635 1239 635 1240 634 1240 501 1240 635 1241 501 1241 636 1241 977 1242 624 1242 501 1242 501 1243 624 1243 973 1243 501 1244 973 1244 636 1244 637 1245 638 1245 800 1245 800 1246 638 1246 640 1246 800 1247 640 1247 639 1247 639 1248 640 1248 641 1248 639 1249 641 1249 642 1249 642 1250 641 1250 643 1250 642 1251 643 1251 958 1251 980 1252 981 1252 978 1252 978 1253 981 1253 976 1253 978 1254 976 1254 644 1254 644 1255 976 1255 977 1255 977 1256 976 1256 624 1256 624 1257 976 1257 499 1257 624 1258 499 1258 982 1258 982 1259 651 1259 624 1259 624 1260 651 1260 650 1260 624 1261 650 1261 625 1261 645 1262 830 1262 828 1262 828 1263 830 1263 831 1263 662 1264 653 1264 658 1264 658 1265 653 1265 790 1265 985 1266 989 1266 988 1266 988 1267 989 1267 982 1267 988 1268 982 1268 646 1268 646 1269 982 1269 499 1269 647 1270 991 1270 648 1270 648 1271 991 1271 650 1271 648 1272 650 1272 649 1272 649 1273 650 1273 651 1273 667 1274 666 1274 837 1274 834 1275 836 1275 528 1275 962 1276 966 1276 652 1276 652 1277 966 1277 539 1277 652 1278 539 1278 965 1278 653 1279 833 1279 665 1279 654 1280 967 1280 655 1280 655 1281 967 1281 542 1281 655 1282 542 1282 970 1282 970 1283 542 1283 624 1283 970 1284 624 1284 969 1284 969 1285 624 1285 801 1285 969 1286 801 1286 540 1286 540 1287 801 1287 802 1287 540 1288 802 1288 539 1288 539 1289 802 1289 960 1289 539 1290 960 1290 965 1290 815 1291 814 1291 656 1291 656 1292 814 1292 809 1292 656 1293 809 1293 624 1293 624 1294 809 1294 657 1294 624 1295 657 1295 658 1295 658 1296 657 1296 659 1296 658 1297 659 1297 523 1297 660 1298 825 1298 523 1298 523 1299 825 1299 661 1299 523 1300 661 1300 658 1300 658 1301 661 1301 828 1301 658 1302 828 1302 662 1302 662 1303 828 1303 831 1303 662 1304 831 1304 826 1304 842 1305 667 1305 840 1305 840 1306 667 1306 837 1306 840 1307 837 1307 663 1307 663 1308 837 1308 664 1308 665 1309 834 1309 653 1309 653 1310 834 1310 528 1310 653 1311 528 1311 790 1311 790 1312 528 1312 666 1312 790 1313 666 1313 789 1313 789 1314 666 1314 667 1314 789 1315 667 1315 668 1315 668 1316 667 1316 669 1316 668 1317 669 1317 612 1317 612 1318 669 1318 843 1318 612 1319 843 1319 593 1319 670 1320 671 1320 722 1320 683 1321 513 1321 730 1321 672 1322 891 1322 673 1322 673 1323 891 1323 677 1323 677 1324 696 1324 730 1324 509 1325 674 1325 691 1325 691 1326 674 1326 713 1326 509 1327 919 1327 674 1327 674 1328 919 1328 675 1328 674 1329 675 1329 681 1329 513 1330 676 1330 730 1330 730 1331 676 1331 678 1331 730 1332 678 1332 677 1332 677 1333 678 1333 679 1333 677 1334 679 1334 673 1334 686 1335 876 1335 730 1335 680 1336 934 1336 535 1336 931 1337 930 1337 929 1337 929 1338 930 1338 713 1338 681 1339 510 1339 674 1339 674 1340 510 1340 682 1340 674 1341 682 1341 705 1341 901 1342 902 1342 685 1342 685 1343 902 1343 683 1343 705 1344 511 1344 674 1344 674 1345 511 1345 708 1345 674 1346 708 1346 730 1346 730 1347 708 1347 900 1347 730 1348 900 1348 683 1348 683 1349 900 1349 684 1349 683 1350 684 1350 685 1350 882 1351 885 1351 687 1351 687 1352 885 1352 686 1352 687 1353 686 1353 880 1353 726 1354 723 1354 783 1354 688 1355 689 1355 926 1355 926 1356 689 1356 509 1356 926 1357 509 1357 690 1357 690 1358 509 1358 691 1358 922 1359 692 1359 693 1359 693 1360 692 1360 675 1360 693 1361 675 1361 924 1361 924 1362 675 1362 919 1362 916 1363 694 1363 914 1363 914 1364 694 1364 510 1364 914 1365 510 1365 911 1365 911 1366 510 1366 681 1366 890 1367 887 1367 888 1367 888 1368 887 1368 695 1368 888 1369 695 1369 886 1369 880 1370 686 1370 879 1370 879 1371 686 1371 730 1371 879 1372 730 1372 695 1372 695 1373 730 1373 696 1373 695 1374 696 1374 886 1374 779 1375 972 1375 784 1375 945 1376 944 1376 943 1376 671 1377 697 1377 722 1377 722 1378 697 1378 699 1378 722 1379 699 1379 698 1379 698 1380 699 1380 701 1380 698 1381 701 1381 700 1381 700 1382 701 1382 702 1382 700 1383 702 1383 703 1383 703 1384 702 1384 939 1384 703 1385 939 1385 937 1385 704 1386 910 1386 908 1386 908 1387 910 1387 705 1387 908 1388 705 1388 706 1388 706 1389 705 1389 682 1389 905 1390 707 1390 906 1390 906 1391 707 1391 708 1391 906 1392 708 1392 709 1392 709 1393 708 1393 511 1393 710 1394 711 1394 898 1394 898 1395 711 1395 676 1395 898 1396 676 1396 899 1396 899 1397 676 1397 513 1397 725 1398 952 1398 726 1398 723 1399 948 1399 946 1399 937 1400 680 1400 703 1400 703 1401 680 1401 535 1401 703 1402 535 1402 799 1402 799 1403 535 1403 533 1403 799 1404 533 1404 674 1404 674 1405 533 1405 712 1405 674 1406 712 1406 713 1406 713 1407 712 1407 928 1407 713 1408 928 1408 929 1408 714 1409 715 1409 877 1409 877 1410 715 1410 716 1410 877 1411 716 1411 878 1411 795 1412 792 1412 752 1412 522 1413 754 1413 852 1413 852 1414 754 1414 742 1414 874 1415 718 1415 717 1415 717 1416 718 1416 719 1416 717 1417 719 1417 728 1417 856 1418 853 1418 857 1418 857 1419 853 1419 522 1419 857 1420 522 1420 858 1420 858 1421 522 1421 852 1421 848 1422 846 1422 851 1422 851 1423 846 1423 529 1423 851 1424 529 1424 845 1424 845 1425 529 1425 844 1425 953 1426 720 1426 727 1426 727 1427 720 1427 725 1427 721 1428 670 1428 505 1428 505 1429 670 1429 722 1429 505 1430 722 1430 537 1430 537 1431 722 1431 783 1431 537 1432 783 1432 943 1432 943 1433 783 1433 723 1433 943 1434 723 1434 945 1434 945 1435 723 1435 946 1435 862 1436 860 1436 724 1436 724 1437 860 1437 742 1437 725 1438 726 1438 727 1438 727 1439 726 1439 783 1439 727 1440 783 1440 503 1440 795 1441 752 1441 754 1441 760 1442 733 1442 737 1442 993 1443 992 1443 994 1443 994 1444 992 1444 778 1444 994 1445 778 1445 995 1445 728 1446 719 1446 729 1446 729 1447 719 1447 730 1447 729 1448 730 1448 716 1448 716 1449 730 1449 876 1449 716 1450 876 1450 878 1450 731 1451 832 1451 732 1451 732 1452 832 1452 733 1452 732 1453 733 1453 835 1453 835 1454 733 1454 760 1454 734 1455 735 1455 829 1455 829 1456 735 1456 736 1456 829 1457 736 1457 827 1457 821 1458 760 1458 736 1458 736 1459 760 1459 737 1459 736 1460 737 1460 827 1460 778 1461 983 1461 738 1461 738 1462 983 1462 500 1462 738 1463 500 1463 739 1463 871 1464 870 1464 872 1464 872 1465 870 1465 520 1465 872 1466 520 1466 869 1466 869 1467 520 1467 770 1467 752 1468 740 1468 754 1468 754 1469 740 1469 741 1469 754 1470 741 1470 742 1470 742 1471 741 1471 743 1471 742 1472 743 1472 724 1472 744 1473 838 1473 839 1473 839 1474 838 1474 759 1474 839 1475 759 1475 841 1475 841 1476 759 1476 755 1476 824 1477 823 1477 745 1477 745 1478 823 1478 746 1478 745 1479 746 1479 822 1479 524 1480 760 1480 746 1480 746 1481 760 1481 821 1481 746 1482 821 1482 822 1482 987 1483 986 1483 984 1483 984 1484 986 1484 500 1484 984 1485 500 1485 747 1485 747 1486 500 1486 983 1486 979 1487 749 1487 748 1487 748 1488 749 1488 781 1488 748 1489 781 1489 750 1489 866 1490 751 1490 867 1490 867 1491 751 1491 752 1491 867 1492 752 1492 753 1492 522 1493 844 1493 754 1493 754 1494 844 1494 529 1494 754 1495 529 1495 756 1495 756 1496 529 1496 755 1496 756 1497 755 1497 757 1497 757 1498 755 1498 759 1498 757 1499 759 1499 758 1499 758 1500 759 1500 527 1500 758 1501 527 1501 760 1501 760 1502 527 1502 761 1502 760 1503 761 1503 835 1503 817 1504 762 1504 818 1504 818 1505 762 1505 525 1505 818 1506 525 1506 819 1506 811 1507 760 1507 525 1507 525 1508 760 1508 524 1508 525 1509 524 1509 819 1509 974 1510 763 1510 764 1510 764 1511 763 1511 765 1511 764 1512 765 1512 766 1512 957 1513 503 1513 955 1513 955 1514 503 1514 767 1514 955 1515 767 1515 956 1515 956 1516 767 1516 768 1516 719 1517 532 1517 730 1517 730 1518 532 1518 769 1518 730 1519 769 1519 791 1519 791 1520 769 1520 770 1520 791 1521 770 1521 771 1521 771 1522 770 1522 520 1522 771 1523 520 1523 792 1523 792 1524 520 1524 772 1524 792 1525 772 1525 752 1525 752 1526 772 1526 864 1526 752 1527 864 1527 753 1527 773 1528 774 1528 775 1528 775 1529 774 1529 813 1529 775 1530 813 1530 812 1530 812 1531 813 1531 811 1531 806 1532 777 1532 776 1532 776 1533 777 1533 498 1533 776 1534 498 1534 804 1534 811 1535 813 1535 760 1535 760 1536 813 1536 526 1536 760 1537 526 1537 738 1537 995 1538 778 1538 990 1538 990 1539 778 1539 738 1539 990 1540 738 1540 498 1540 498 1541 738 1541 526 1541 498 1542 526 1542 804 1542 765 1543 779 1543 738 1543 766 1544 765 1544 780 1544 780 1545 765 1545 738 1545 780 1546 738 1546 781 1546 781 1547 738 1547 739 1547 781 1548 739 1548 750 1548 538 1549 782 1549 961 1549 503 1550 783 1550 767 1550 767 1551 783 1551 788 1551 767 1552 788 1552 502 1552 502 1553 788 1553 964 1553 502 1554 964 1554 963 1554 784 1555 971 1555 779 1555 779 1556 971 1556 968 1556 779 1557 968 1557 738 1557 738 1558 968 1558 785 1558 738 1559 785 1559 786 1559 786 1560 785 1560 541 1560 786 1561 541 1561 787 1561 787 1562 541 1562 538 1562 787 1563 538 1563 788 1563 788 1564 538 1564 961 1564 788 1565 961 1565 964 1565 668 1566 756 1566 757 1566 668 1567 757 1567 789 1567 789 1568 757 1568 758 1568 789 1569 758 1569 790 1569 790 1570 758 1570 760 1570 790 1571 760 1571 658 1571 668 1572 612 1572 756 1572 756 1573 612 1573 754 1573 552 1574 730 1574 791 1574 552 1575 791 1575 551 1575 551 1576 791 1576 771 1576 551 1577 771 1577 793 1577 793 1578 771 1578 792 1578 793 1579 792 1579 794 1579 794 1580 792 1580 795 1580 794 1581 795 1581 611 1581 611 1582 795 1582 754 1582 611 1583 754 1583 612 1583 552 1584 619 1584 730 1584 730 1585 619 1585 674 1585 800 1586 783 1586 722 1586 800 1587 722 1587 796 1587 796 1588 722 1588 698 1588 796 1589 698 1589 797 1589 797 1590 698 1590 700 1590 797 1591 700 1591 630 1591 630 1592 700 1592 703 1592 630 1593 703 1593 798 1593 798 1594 703 1594 799 1594 798 1595 799 1595 621 1595 621 1596 799 1596 674 1596 621 1597 674 1597 619 1597 800 1598 639 1598 783 1598 783 1599 639 1599 788 1599 624 1600 738 1600 786 1600 624 1601 786 1601 801 1601 801 1602 786 1602 787 1602 801 1603 787 1603 802 1603 802 1604 787 1604 788 1604 802 1605 788 1605 639 1605 624 1606 658 1606 738 1606 738 1607 658 1607 760 1607 803 1608 602 1608 526 1608 526 1609 602 1609 804 1609 498 1610 777 1610 625 1610 625 1611 777 1611 805 1611 806 1612 776 1612 807 1612 807 1613 776 1613 808 1613 777 1614 806 1614 805 1614 805 1615 806 1615 807 1615 776 1616 804 1616 808 1616 808 1617 804 1617 602 1617 809 1618 810 1618 811 1618 811 1619 810 1619 812 1619 813 1620 774 1620 656 1620 656 1621 774 1621 616 1621 773 1622 775 1622 815 1622 815 1623 775 1623 814 1623 774 1624 773 1624 616 1624 616 1625 773 1625 815 1625 775 1626 812 1626 814 1626 814 1627 812 1627 810 1627 659 1628 820 1628 524 1628 524 1629 820 1629 819 1629 525 1630 762 1630 657 1630 657 1631 762 1631 816 1631 817 1632 818 1632 627 1632 627 1633 818 1633 626 1633 762 1634 817 1634 816 1634 816 1635 817 1635 627 1635 818 1636 819 1636 626 1636 626 1637 819 1637 820 1637 661 1638 617 1638 821 1638 821 1639 617 1639 822 1639 746 1640 823 1640 523 1640 523 1641 823 1641 628 1641 824 1642 745 1642 660 1642 660 1643 745 1643 825 1643 823 1644 824 1644 628 1644 628 1645 824 1645 660 1645 745 1646 822 1646 825 1646 825 1647 822 1647 617 1647 662 1648 826 1648 737 1648 737 1649 826 1649 827 1649 736 1650 735 1650 828 1650 828 1651 735 1651 645 1651 734 1652 829 1652 830 1652 830 1653 829 1653 831 1653 735 1654 734 1654 645 1654 645 1655 734 1655 830 1655 829 1656 827 1656 831 1656 831 1657 827 1657 826 1657 528 1658 836 1658 761 1658 761 1659 836 1659 835 1659 733 1660 832 1660 653 1660 653 1661 832 1661 833 1661 731 1662 732 1662 665 1662 665 1663 732 1663 834 1663 832 1664 731 1664 833 1664 833 1665 731 1665 665 1665 732 1666 835 1666 834 1666 834 1667 835 1667 836 1667 667 1668 842 1668 755 1668 755 1669 842 1669 841 1669 759 1670 838 1670 837 1670 837 1671 838 1671 664 1671 744 1672 839 1672 663 1672 663 1673 839 1673 840 1673 838 1674 744 1674 664 1674 664 1675 744 1675 663 1675 839 1676 841 1676 840 1676 840 1677 841 1677 842 1677 843 1678 609 1678 844 1678 844 1679 609 1679 845 1679 529 1680 846 1680 669 1680 669 1681 846 1681 847 1681 848 1682 851 1682 849 1682 849 1683 851 1683 850 1683 846 1684 848 1684 847 1684 847 1685 848 1685 849 1685 851 1686 845 1686 850 1686 850 1687 845 1687 609 1687 592 1688 604 1688 852 1688 852 1689 604 1689 858 1689 522 1690 853 1690 593 1690 593 1691 853 1691 854 1691 856 1692 857 1692 855 1692 855 1693 857 1693 603 1693 853 1694 856 1694 854 1694 854 1695 856 1695 855 1695 857 1696 858 1696 603 1696 603 1697 858 1697 604 1697 605 1698 859 1698 741 1698 741 1699 859 1699 743 1699 742 1700 860 1700 521 1700 521 1701 860 1701 863 1701 862 1702 724 1702 606 1702 606 1703 724 1703 861 1703 860 1704 862 1704 863 1704 863 1705 862 1705 606 1705 724 1706 743 1706 861 1706 861 1707 743 1707 859 1707 555 1708 865 1708 864 1708 864 1709 865 1709 753 1709 752 1710 751 1710 530 1710 530 1711 751 1711 868 1711 866 1712 867 1712 610 1712 610 1713 867 1713 554 1713 751 1714 866 1714 868 1714 868 1715 866 1715 610 1715 867 1716 753 1716 554 1716 554 1717 753 1717 865 1717 550 1718 549 1718 770 1718 770 1719 549 1719 869 1719 520 1720 870 1720 557 1720 557 1721 870 1721 558 1721 871 1722 872 1722 559 1722 559 1723 872 1723 548 1723 870 1724 871 1724 558 1724 558 1725 871 1725 559 1725 872 1726 869 1726 548 1726 548 1727 869 1727 549 1727 544 1728 545 1728 729 1728 729 1729 545 1729 728 1729 719 1730 718 1730 546 1730 546 1731 718 1731 547 1731 874 1732 717 1732 873 1732 873 1733 717 1733 875 1733 718 1734 874 1734 547 1734 547 1735 874 1735 873 1735 717 1736 728 1736 875 1736 875 1737 728 1737 545 1737 569 1738 571 1738 876 1738 876 1739 571 1739 878 1739 716 1740 715 1740 570 1740 570 1741 715 1741 572 1741 714 1742 877 1742 574 1742 574 1743 877 1743 573 1743 715 1744 714 1744 572 1744 572 1745 714 1745 574 1745 877 1746 878 1746 573 1746 573 1747 878 1747 571 1747 586 1748 587 1748 879 1748 879 1749 587 1749 880 1749 686 1750 885 1750 881 1750 881 1751 885 1751 543 1751 882 1752 687 1752 883 1752 883 1753 687 1753 884 1753 885 1754 882 1754 543 1754 543 1755 882 1755 883 1755 687 1756 880 1756 884 1756 884 1757 880 1757 587 1757 584 1758 582 1758 696 1758 696 1759 582 1759 886 1759 695 1760 887 1760 585 1760 585 1761 887 1761 889 1761 890 1762 888 1762 583 1762 583 1763 888 1763 581 1763 887 1764 890 1764 889 1764 889 1765 890 1765 583 1765 888 1766 886 1766 581 1766 581 1767 886 1767 582 1767 591 1768 562 1768 678 1768 678 1769 562 1769 679 1769 677 1770 891 1770 590 1770 590 1771 891 1771 893 1771 672 1772 673 1772 894 1772 894 1773 673 1773 892 1773 891 1774 672 1774 893 1774 893 1775 672 1775 894 1775 673 1776 679 1776 892 1776 892 1777 679 1777 562 1777 895 1778 561 1778 513 1778 513 1779 561 1779 899 1779 676 1780 711 1780 594 1780 594 1781 711 1781 896 1781 710 1782 898 1782 897 1782 897 1783 898 1783 560 1783 711 1784 710 1784 896 1784 896 1785 710 1785 897 1785 898 1786 899 1786 560 1786 560 1787 899 1787 561 1787 564 1788 597 1788 900 1788 900 1789 597 1789 684 1789 683 1790 902 1790 595 1790 595 1791 902 1791 596 1791 901 1792 685 1792 598 1792 598 1793 685 1793 599 1793 902 1794 901 1794 596 1794 596 1795 901 1795 598 1795 685 1796 684 1796 599 1796 599 1797 684 1797 597 1797 575 1798 577 1798 511 1798 511 1799 577 1799 709 1799 708 1800 707 1800 576 1800 576 1801 707 1801 903 1801 905 1802 906 1802 578 1802 578 1803 906 1803 904 1803 707 1804 905 1804 903 1804 903 1805 905 1805 578 1805 906 1806 709 1806 904 1806 904 1807 709 1807 577 1807 568 1808 567 1808 682 1808 682 1809 567 1809 706 1809 705 1810 910 1810 907 1810 907 1811 910 1811 565 1811 704 1812 908 1812 909 1812 909 1813 908 1813 566 1813 910 1814 704 1814 565 1814 565 1815 704 1815 909 1815 908 1816 706 1816 566 1816 566 1817 706 1817 567 1817 601 1818 918 1818 681 1818 681 1819 918 1819 911 1819 510 1820 694 1820 912 1820 912 1821 694 1821 913 1821 916 1822 914 1822 915 1822 915 1823 914 1823 917 1823 694 1824 916 1824 913 1824 913 1825 916 1825 915 1825 914 1826 911 1826 917 1826 917 1827 911 1827 918 1827 600 1828 920 1828 919 1828 919 1829 920 1829 924 1829 675 1830 692 1830 921 1830 921 1831 692 1831 588 1831 922 1832 693 1832 923 1832 923 1833 693 1833 589 1833 692 1834 922 1834 588 1834 588 1835 922 1835 923 1835 693 1836 924 1836 589 1836 589 1837 924 1837 920 1837 508 1838 580 1838 691 1838 691 1839 580 1839 690 1839 509 1840 689 1840 618 1840 618 1841 689 1841 925 1841 688 1842 926 1842 563 1842 563 1843 926 1843 579 1843 689 1844 688 1844 925 1844 925 1845 688 1845 563 1845 926 1846 690 1846 579 1846 579 1847 690 1847 580 1847 622 1848 927 1848 712 1848 712 1849 927 1849 928 1849 713 1850 930 1850 620 1850 620 1851 930 1851 932 1851 931 1852 929 1852 933 1852 933 1853 929 1853 607 1853 930 1854 931 1854 932 1854 932 1855 931 1855 933 1855 929 1856 928 1856 607 1856 607 1857 928 1857 927 1857 629 1858 623 1858 702 1858 702 1859 623 1859 939 1859 535 1860 934 1860 935 1860 935 1861 934 1861 936 1861 680 1862 937 1862 938 1862 938 1863 937 1863 940 1863 934 1864 680 1864 936 1864 936 1865 680 1865 938 1865 937 1866 939 1866 940 1866 940 1867 939 1867 623 1867 504 1868 941 1868 505 1868 505 1869 941 1869 721 1869 699 1870 697 1870 507 1870 507 1871 697 1871 942 1871 671 1872 670 1872 631 1872 631 1873 670 1873 613 1873 697 1874 671 1874 942 1874 942 1875 671 1875 631 1875 670 1876 721 1876 613 1876 613 1877 721 1877 941 1877 637 1878 950 1878 723 1878 723 1879 950 1879 948 1879 943 1880 944 1880 632 1880 632 1881 944 1881 947 1881 945 1882 946 1882 608 1882 608 1883 946 1883 949 1883 944 1884 945 1884 947 1884 947 1885 945 1885 608 1885 946 1886 948 1886 949 1886 949 1887 948 1887 950 1887 640 1888 951 1888 727 1888 727 1889 951 1889 953 1889 726 1890 952 1890 638 1890 638 1891 952 1891 615 1891 725 1892 720 1892 614 1892 614 1893 720 1893 954 1893 952 1894 725 1894 615 1894 615 1895 725 1895 614 1895 720 1896 953 1896 954 1896 954 1897 953 1897 951 1897 642 1898 959 1898 767 1898 767 1899 959 1899 768 1899 503 1900 957 1900 641 1900 641 1901 957 1901 643 1901 955 1902 956 1902 958 1902 958 1903 956 1903 633 1903 957 1904 955 1904 643 1904 643 1905 955 1905 958 1905 956 1906 768 1906 633 1906 633 1907 768 1907 959 1907 539 1908 966 1908 538 1908 538 1909 966 1909 782 1909 502 1910 963 1910 960 1910 960 1911 963 1911 965 1911 964 1912 961 1912 652 1912 652 1913 961 1913 962 1913 963 1914 964 1914 965 1914 965 1915 964 1915 652 1915 961 1916 782 1916 962 1916 962 1917 782 1917 966 1917 542 1918 967 1918 779 1918 779 1919 967 1919 972 1919 785 1920 968 1920 969 1920 969 1921 968 1921 970 1921 971 1922 784 1922 655 1922 655 1923 784 1923 654 1923 968 1924 971 1924 970 1924 970 1925 971 1925 655 1925 784 1926 972 1926 654 1926 654 1927 972 1927 967 1927 501 1928 634 1928 780 1928 780 1929 634 1929 766 1929 765 1930 763 1930 973 1930 973 1931 763 1931 636 1931 974 1932 764 1932 635 1932 635 1933 764 1933 975 1933 763 1934 974 1934 636 1934 636 1935 974 1935 635 1935 764 1936 766 1936 975 1936 975 1937 766 1937 634 1937 976 1938 981 1938 739 1938 739 1939 981 1939 750 1939 781 1940 749 1940 977 1940 977 1941 749 1941 644 1941 979 1942 748 1942 978 1942 978 1943 748 1943 980 1943 749 1944 979 1944 644 1944 644 1945 979 1945 978 1945 748 1946 750 1946 980 1946 980 1947 750 1947 981 1947 982 1948 989 1948 983 1948 983 1949 989 1949 747 1949 500 1950 986 1950 499 1950 499 1951 986 1951 646 1951 987 1952 984 1952 988 1952 988 1953 984 1953 985 1953 986 1954 987 1954 646 1954 646 1955 987 1955 988 1955 984 1956 747 1956 985 1956 985 1957 747 1957 989 1957 650 1958 991 1958 990 1958 990 1959 991 1959 995 1959 778 1960 992 1960 651 1960 651 1961 992 1961 649 1961 993 1962 994 1962 648 1962 648 1963 994 1963 647 1963 992 1964 993 1964 649 1964 649 1965 993 1965 648 1965 994 1966 995 1966 647 1966 647 1967 995 1967 991 1967</p>
                </triangles>
            </mesh>
        </geometry>
    </library_geometries>
    <library_visual_scenes>
        <visual_scene id="VisualSceneNode" name="VisualScene">
            <node id="node" name="node">
                <instance_geometry url="#shape0-lib">
                    <bind_material>
                        <technique_common/>
                    </bind_material>
                </instance_geometry>
            </node>
        </visual_scene>
    </library_visual_scenes>
    <scene>
        <instance_visual_scene url="#VisualSceneNode"/>
    </scene>
</COLLADA>
