<?xml version="1.0" encoding="UTF-8"?>
<COLLADA xmlns="http://www.collada.org/2005/11/COLLADASchema" version="1.4.1">
    <asset>
        <contributor>
            <author>VCGLab</author>
            <authoring_tool>VCGLib | MeshLab</authoring_tool>
        </contributor>
        <up_axis>Y_UP</up_axis>
        <created>mar nov 10 10:53:18 2015</created>
        <modified>mar nov 10 10:53:18 2015</modified>
    </asset>
    <library_images/>
    <library_materials/>
    <library_effects/>
    <library_geometries>
        <geometry id="shape0-lib" name="shape0">
            <mesh>
                <source id="shape0-lib-positions" name="position">
                    <float_array id="shape0-lib-positions-array" count="540">-0.385037 -0.3905 -0.082 -0.409664 -0.312 -0.0782145 -0.432017 -0.312 -0.0672074 -0.554656 -0.3905 0.225035 -0.554656 -0.312 0.225035 -0.556703 -0.312 0.29237 -0.541864 -0.312 0.323093 -0.518107 -0.312 0.347583 -0.487849 -0.312 0.363349 -0.454166 -0.312 0.368789 -0.454166 -0.3905 0.368789 0.49216 -0.3905 0.368789 0.49216 -0.312 0.368789 0.523016 -0.3905 0.364243 0.574464 -0.3905 0.330163 0.574464 -0.312 0.330163 0.590685 -0.3905 0.303524 0.598535 -0.3905 0.273339 0.590685 -0.312 0.303524 0.597346 -0.3905 0.242172 0.457887 -0.312 -0.0376408 0.439675 -0.3905 -0.0611448 0.414278 -0.3905 -0.076609 0.414278 -0.312 -0.076609 -0.450033 -0.312 -0.049995 -0.462048 -0.312 -0.0281666 -0.561117 -0.312 0.258537 0.598535 -0.312 0.273339 0.566471 -0.312 0.251648 0.597346 -0.312 0.242172 0.587221 -0.312 0.212672 0.429458 -0.312 -0.0229517 0.439675 -0.312 -0.0611448 -0.385037 -0.312 -0.05 0.385037 -0.312 -0.082 -0.385037 -0.312 -0.082 -0.454166 -0.312 0.336789 0.49216 -0.312 0.336789 0.523016 -0.312 0.364243 0.539469 -0.312 0.319986 0.556219 -0.312 0.300795 0.551251 -0.312 0.350993 -0.42137 -0.3905 -0.0343501 -0.385037 -0.3905 -0.05 -0.409664 -0.3905 -0.0782145 0.385037 -0.3905 -0.082 0.402867 -0.3905 -0.0467128 0.418353 -0.3905 -0.0372834 0.457887 -0.3905 -0.0376408 0.587221 -0.3905 0.212672 0.566471 -0.3905 0.251648 -0.541864 -0.3905 0.323093 -0.556703 -0.3905 0.29237 -0.522711 -0.3905 0.29223 -0.529124 -0.3905 0.264312 -0.561117 -0.3905 0.258537 -0.524603 -0.3905 0.236027 -0.462048 -0.3905 -0.0281666 -0.450033 -0.3905 -0.049995 -0.432017 -0.3905 -0.0672074 0.556219 -0.3905 0.300795 0.539469 -0.3905 0.319986 0.551251 -0.3905 0.350993 0.49216 -0.3905 0.336789 -0.487849 -0.3905 0.363349 -0.518107 -0.3905 0.347583 -0.431995 -0.312 -0.0171748 -0.431995 -0.3905 -0.0171748 -0.42137 -0.312 -0.0343501 -0.404817 -0.3905 -0.0459212 -0.404817 -0.312 -0.0459212 -0.524603 -0.312 0.236027 -0.454166 -0.3905 0.336789 -0.482284 -0.3905 0.331319 -0.482284 -0.312 0.331319 -0.5063 -0.3905 0.315707 -0.5063 -0.312 0.315707 -0.522711 -0.312 0.29223 -0.529124 -0.312 0.264312 0.558791 -0.312 0.227361 0.558791 -0.3905 0.227361 0.565579 -0.3905 0.277105 0.565579 -0.312 0.277105 0.517262 -0.3905 0.332463 0.517262 -0.312 0.332463 0.429458 -0.3905 -0.0229517 0.385037 -0.3905 -0.05 0.402867 -0.312 -0.0467128 0.418353 -0.312 -0.0372834 0.385037 -0.312 -0.05 -0.450033 0.3905 -0.049995 -0.432017 0.3905 -0.0672074 -0.409664 0.3905 -0.0782145 -0.454166 0.312 0.368789 -0.487849 0.312 0.363349 -0.487849 0.3905 0.363349 -0.561117 0.312 0.258537 -0.554656 0.3905 0.225035 -0.554656 0.312 0.225035 0.598535 0.3905 0.273339 0.598535 0.312 0.273339 0.590685 0.312 0.303524 0.551251 0.312 0.350993 0.551251 0.3905 0.350993 0.523016 0.312 0.364243 0.523016 0.3905 0.364243 0.49216 0.3905 0.368789 0.587221 0.3905 0.212672 0.385037 0.3905 -0.082 0.385037 0.312 -0.082 0.414278 0.3905 -0.076609 0.457887 0.3905 -0.0376408 0.457887 0.312 -0.0376408 -0.385037 0.312 -0.082 -0.432017 0.312 -0.0672074 -0.409664 0.312 -0.0782145 0.385037 0.312 -0.05 0.414278 0.312 -0.076609 0.418353 0.312 -0.0372834 0.439675 0.312 -0.0611448 0.587221 0.312 0.212672 0.566471 0.312 0.251648 0.565579 0.312 0.277105 -0.541864 0.312 0.323093 -0.529124 0.312 0.264312 -0.556703 0.312 0.29237 -0.524603 0.312 0.236027 -0.462048 0.312 -0.0281666 -0.431995 0.312 -0.0171748 -0.450033 0.312 -0.049995 0.597346 0.312 0.242172 0.556219 0.312 0.300795 0.574464 0.312 0.330163 0.539469 0.312 0.319986 0.517262 0.312 0.332463 0.49216 0.312 0.336789 0.49216 0.312 0.368789 -0.482284 0.312 0.331319 -0.518107 0.312 0.347583 -0.404817 0.3905 -0.0459212 -0.431995 0.3905 -0.0171748 -0.462048 0.3905 -0.0281666 -0.529124 0.3905 0.264312 -0.561117 0.3905 0.258537 -0.556703 0.3905 0.29237 -0.541864 0.3905 0.323093 -0.5063 0.3905 0.315707 -0.518107 0.3905 0.347583 -0.482284 0.3905 0.331319 -0.454166 0.3905 0.368789 0.49216 0.3905 0.336789 0.517262 0.3905 0.332463 0.539469 0.3905 0.319986 0.574464 0.3905 0.330163 0.590685 0.3905 0.303524 0.566471 0.3905 0.251648 0.597346 0.3905 0.242172 0.558791 0.3905 0.227361 0.439675 0.3905 -0.0611448 -0.385037 0.3905 -0.082 -0.385037 0.3905 -0.05 -0.404817 0.312 -0.0459212 -0.42137 0.3905 -0.0343501 -0.42137 0.312 -0.0343501 -0.524603 0.3905 0.236027 -0.522711 0.3905 0.29223 -0.522711 0.312 0.29223 -0.5063 0.312 0.315707 -0.454166 0.3905 0.336789 -0.454166 0.312 0.336789 0.556219 0.3905 0.300795 0.565579 0.3905 0.277105 0.429458 0.312 -0.0229517 0.429458 0.3905 -0.0229517 0.558791 0.312 0.227361 0.418353 0.3905 -0.0372834 0.402867 0.3905 -0.0467128 0.402867 0.312 -0.0467128 0.385037 0.3905 -0.05 -0.385037 0.312 -0.05</float_array>
                    <technique_common>
                        <accessor count="180" source="#shape0-lib-positions-array" stride="3">
                            <param name="X" type="float"/>
                            <param name="Y" type="float"/>
                            <param name="Z" type="float"/>
                        </accessor>
                    </technique_common>
                </source>
                <source id="shape0-lib-normals" name="normal">
                    <float_array id="shape0-lib-normals-array" count="1080">-0.15193 0 -0.988391 -0.15193 0 -0.988391 -0.44176 0 -0.897133 -0.44176 0 -0.897133 -0.690804 0 -0.723042 -0.690804 0 -0.723042 -0.876065 0 -0.482193 -0.876065 0 -0.482193 -0.939154 0 -0.343496 -0.939154 0 -0.343496 -0.981906 0 -0.189367 -0.981906 0 -0.189367 -0.991598 0 0.129358 -0.991598 0 0.129358 -0.900464 0 0.43493 -0.900464 0 0.43493 -0.717771 0 0.696279 -0.717771 0 0.696279 -0.462097 0 0.886829 -0.462097 0 0.886829 -0.159436 0 0.987208 -0.159436 0 0.987208 0 0 1 0 0 1 0.145744 0 0.989322 0.145744 0 0.989322 0.424847 0 0.905265 0.424847 0 0.905265 0.667854 0 0.744292 0.667854 0 0.744292 0.854118 0 0.520079 0.854118 0 0.520079 0.967811 0 0.251677 0.967811 0 0.251677 0.999274 0 -0.0381029 0.999274 0 -0.0381029 0.945833 0 -0.324653 0.945833 0 -0.324653 0.888418 0 -0.459034 0.888418 0 -0.459034 0.790468 0 -0.612503 0.790468 0 -0.612503 0.52008 0 -0.854118 0.52008 0 -0.854118 0.181306 0 -0.983427 0.181306 0 -0.983427 0 0 -1 0 0 -1 0 1 0 0 1 0 0 1 0 0 1 0 0 1 0 0 1 0 0 1 0 0 1 0 0 1 0 0 1 0 0 1 0 0 1 0 0 1 0 0 1 0 0 1 0 0 1 0 0 1 0 0 1 0 0 1 0 0 1 0 0 1 0 0 1 0 0 1 0 0 1 0 0 1 0 0 1 0 0 1 0 0 1 0 0 1 0 0 1 0 0 1 0 0 1 0 0 1 0 0 1 0 0 1 0 0 1 0 0 1 0 0 1 0 0 1 0 0 1 0 0 1 0 0 1 0 0 1 0 0 1 0 0 1 0 0 -1 0 0 -1 0 0 -1 0 0 -1 0 0 -1 0 0 -1 0 0 -1 0 0 -1 0 0 -1 0 0 -1 0 0 -1 0 0 -1 0 0 -1 0 0 -1 0 0 -1 0 0 -1 0 0 -1 0 0 -1 0 0 -1 0 0 -1 0 0 -1 0 0 -1 0 0 -1 0 0 -1 0 0 -1 0 0 -1 0 0 -1 0 0 -1 0 0 -1 0 0 -1 0 0 -1 0 0 -1 0 0 -1 0 0 -1 0 0 -1 0 0 -1 0 0 -1 0 0 -1 0 0 -1 0 0 -1 0 0 -1 0 0 -1 0 0 -1 0 0 -1 0 0 -1 0 0.850429 0 0.52609 0.850429 0 0.52609 0.572933 0 0.819602 0.572933 0 0.819602 0.201961 0 0.979394 0.201961 0 0.979394 0.939154 0 0.343496 0.939154 0 0.343496 0.190963 0 -0.981597 0.190963 0 -0.981597 0.545034 0 -0.838414 0.545034 0 -0.838414 0.819602 0 -0.572933 0.819602 0 -0.572933 0.974617 0 -0.22388 0.974617 0 -0.22388 0.987466 0 0.15783 0.987466 0 0.15783 0 0 -1 0 0 -1 -0.953466 0 0.301502 -0.953466 0 0.301502 -0.999387 0 -0.0350108 -0.999387 0 -0.0350108 -0.93003 0 -0.367485 -0.93003 0 -0.367485 -0.753396 0 -0.657568 -0.753396 0 -0.657568 -0.489858 0 -0.871802 -0.489858 0 -0.871802 -0.169815 0 -0.985476 -0.169815 0 -0.985476 -0.888418 0 0.459034 -0.888418 0 0.459034 -0.181306 0 0.983427 -0.181306 0 0.983427 -0.52008 0 0.854118 -0.52008 0 0.854118 -0.790469 0 0.612502 -0.790469 0 0.612502 0 0 1 0 0 1 -0.876065 0 -0.482193 -0.876065 0 -0.482193 -0.690804 0 -0.723042 -0.690804 0 -0.723042 -0.44176 0 -0.897133 -0.44176 0 -0.897133 -0.15193 0 -0.988391 -0.15193 0 -0.988391 -0.939154 0 -0.343496 -0.939154 0 -0.343496 -0.159436 0 0.987208 -0.159436 0 0.987208 -0.462097 0 0.886829 -0.462097 0 0.886829 -0.717771 0 0.696279 -0.717771 0 0.696279 -0.900464 0 0.43493 -0.900464 0 0.43493 -0.991598 0 0.129358 -0.991598 0 0.129358 -0.981906 0 -0.189367 -0.981906 0 -0.189367 0 0 1 0 0 1 0.945833 0 -0.324653 0.945833 0 -0.324653 0.999274 0 -0.0381029 0.999274 0 -0.0381029 0.967811 0 0.251677 0.967811 0 0.251677 0.854118 0 0.520079 0.854118 0 0.520079 0.667854 0 0.744292 0.667854 0 0.744292 0.424847 0 0.905265 0.424847 0 0.905265 0.145744 0 0.989322 0.145744 0 0.989322 0.888418 0 -0.459034 0.888418 0 -0.459034 0.181306 0 -0.983427 0.181306 0 -0.983427 0.52008 0 -0.854118 0.52008 0 -0.854118 0.790468 0 -0.612503 0.790468 0 -0.612503 0 0 -1 0 0 -1 0 -1 0 0 -1 0 0 -1 0 0 -1 0 0 -1 0 0 -1 0 0 -1 0 0 -1 0 0 -1 0 0 -1 0 0 -1 0 0 -1 0 0 -1 0 0 -1 0 0 -1 0 0 -1 0 0 -1 0 0 -1 0 0 -1 0 0 -1 0 0 -1 0 0 -1 0 0 -1 0 0 -1 0 0 -1 0 0 -1 0 0 -1 0 0 -1 0 0 -1 0 0 -1 0 0 -1 0 0 -1 0 0 -1 0 0 -1 0 0 -1 0 0 -1 0 0 -1 0 0 -1 0 0 -1 0 0 -1 0 0 -1 0 0 -1 0 0 -1 0 0 -1 0 0 -1 0 0 1 0 0 1 0 0 1 0 0 1 0 0 1 0 0 1 0 0 1 0 0 1 0 0 1 0 0 1 0 0 1 0 0 1 0 0 1 0 0 1 0 0 1 0 0 1 0 0 1 0 0 1 0 0 1 0 0 1 0 0 1 0 0 1 0 0 1 0 0 1 0 0 1 0 0 1 0 0 1 0 0 1 0 0 1 0 0 1 0 0 1 0 0 1 0 0 1 0 0 1 0 0 1 0 0 1 0 0 1 0 0 1 0 0 1 0 0 1 0 0 1 0 0 1 0 0 1 0 0 1 0 0 1 0 0.201961 0 0.979394 0.201961 0 0.979394 0.572933 0 0.819602 0.572933 0 0.819602 0.850429 0 0.52609 0.850429 0 0.52609 0.939154 0 0.343496 0.939154 0 0.343496 0.987466 0 0.15783 0.987466 0 0.15783 0.974617 0 -0.22388 0.974617 0 -0.22388 0.819602 0 -0.572933 0.819602 0 -0.572933 0.545034 0 -0.838414 0.545034 0 -0.838414 0.190963 0 -0.981597 0.190963 0 -0.981597 0 0 -1 0 0 -1 -0.169815 0 -0.985476 -0.169815 0 -0.985476 -0.489858 0 -0.871802 -0.489858 0 -0.871802 -0.753396 0 -0.657568 -0.753396 0 -0.657568 -0.93003 0 -0.367485 -0.93003 0 -0.367485 -0.999387 0 -0.0350108 -0.999387 0 -0.0350108 -0.953466 0 0.301502 -0.953466 0 0.301502 -0.888418 0 0.459034 -0.888418 0 0.459034 -0.790469 0 0.612502 -0.790469 0 0.612502 -0.52008 0 0.854118 -0.52008 0 0.854118 -0.181306 0 0.983427 -0.181306 0 0.983427 0 0 1 0 0 1</float_array>
                    <technique_common>
                        <accessor count="360" source="#shape0-lib-normals-array" stride="3">
                            <param name="X" type="float"/>
                            <param name="Y" type="float"/>
                            <param name="Z" type="float"/>
                        </accessor>
                    </technique_common>
                </source>
                <vertices id="shape0-lib-vertices">
                    <input semantic="POSITION" source="#shape0-lib-positions"/>
                </vertices>
                <triangles count="360">
                    <input offset="0" semantic="VERTEX" source="#shape0-lib-vertices"/>
                    <input offset="1" semantic="NORMAL" source="#shape0-lib-normals"/>
                    <p>35 0 0 0 44 0 35 1 44 1 1 1 1 2 44 2 59 2 1 3 59 3 2 3 2 4 59 4 58 4 2 5 58 5 24 5 24 6 58 6 57 6 24 7 57 7 25 7 4 8 25 8 3 8 3 9 25 9 57 9 4 10 3 10 55 10 4 11 55 11 26 11 26 12 55 12 52 12 26 13 52 13 5 13 5 14 52 14 51 14 5 15 51 15 6 15 6 16 51 16 65 16 6 17 65 17 7 17 7 18 65 18 64 18 7 19 64 19 8 19 8 20 64 20 10 20 8 21 10 21 9 21 12 22 9 22 11 22 11 23 9 23 10 23 12 24 11 24 13 24 12 25 13 25 38 25 38 26 13 26 62 26 38 27 62 27 41 27 41 28 62 28 14 28 41 29 14 29 15 29 15 30 14 30 16 30 15 31 16 31 18 31 18 32 16 32 17 32 18 33 17 33 27 33 27 34 17 34 19 34 27 35 19 35 29 35 29 36 19 36 49 36 29 37 49 37 30 37 20 38 30 38 48 38 48 39 30 39 49 39 20 40 48 40 21 40 20 41 21 41 32 41 32 42 21 42 22 42 32 43 22 43 23 43 23 44 22 44 45 44 23 45 45 45 34 45 35 46 34 46 0 46 0 47 34 47 45 47 70 48 2 48 68 48 68 49 2 49 24 49 68 50 24 50 66 50 66 51 24 51 25 51 66 52 25 52 71 52 71 53 25 53 4 53 71 54 4 54 78 54 78 55 4 55 26 55 78 56 26 56 77 56 40 57 18 57 82 57 82 58 18 58 27 58 82 59 27 59 28 59 28 60 27 60 29 60 28 61 29 61 79 61 79 62 29 62 30 62 79 63 30 63 31 63 31 64 30 64 20 64 31 65 20 65 88 65 88 66 20 66 32 66 88 67 32 67 87 67 87 68 32 68 23 68 87 69 23 69 89 69 89 70 23 70 34 70 89 71 34 71 33 71 33 72 34 72 35 72 33 73 35 73 70 73 70 74 35 74 1 74 70 75 1 75 2 75 26 76 5 76 77 76 77 77 5 77 6 77 77 78 6 78 76 78 76 79 6 79 7 79 76 80 7 80 74 80 74 81 7 81 8 81 74 82 8 82 36 82 36 83 8 83 9 83 36 84 9 84 37 84 37 85 9 85 12 85 37 86 12 86 84 86 84 87 12 87 38 87 84 88 38 88 39 88 39 89 38 89 41 89 39 90 41 90 40 90 40 91 41 91 15 91 40 92 15 92 18 92 42 93 59 93 69 93 69 94 59 94 44 94 69 95 44 95 43 95 43 96 44 96 0 96 43 97 0 97 86 97 86 98 0 98 45 98 86 99 45 99 46 99 46 100 45 100 22 100 46 101 22 101 47 101 47 102 22 102 21 102 47 103 21 103 85 103 85 104 21 104 48 104 85 105 48 105 80 105 80 106 48 106 49 106 80 107 49 107 50 107 50 108 49 108 19 108 50 109 19 109 81 109 75 110 51 110 53 110 53 111 51 111 52 111 53 112 52 112 54 112 54 113 52 113 55 113 54 114 55 114 56 114 56 115 55 115 3 115 56 116 3 116 67 116 67 117 3 117 57 117 67 118 57 118 42 118 42 119 57 119 58 119 42 120 58 120 59 120 19 121 17 121 81 121 81 122 17 122 16 122 81 123 16 123 60 123 60 124 16 124 14 124 60 125 14 125 61 125 61 126 14 126 62 126 61 127 62 127 83 127 83 128 62 128 13 128 83 129 13 129 63 129 63 130 13 130 11 130 63 131 11 131 72 131 72 132 11 132 10 132 72 133 10 133 73 133 73 134 10 134 64 134 73 135 64 135 75 135 75 136 64 136 65 136 75 137 65 137 51 137 66 138 67 138 42 138 66 139 42 139 68 139 68 140 42 140 69 140 68 141 69 141 70 141 70 142 69 142 43 142 70 143 43 143 33 143 66 144 71 144 67 144 67 145 71 145 56 145 36 146 72 146 73 146 36 147 73 147 74 147 74 148 73 148 75 148 74 149 75 149 76 149 76 150 75 150 53 150 76 151 53 151 77 151 77 152 53 152 54 152 77 153 54 153 78 153 78 154 54 154 56 154 78 155 56 155 71 155 36 156 37 156 72 156 72 157 37 157 63 157 79 158 80 158 50 158 79 159 50 159 28 159 28 160 50 160 81 160 28 161 81 161 82 161 82 162 81 162 60 162 82 163 60 163 40 163 40 164 60 164 61 164 40 165 61 165 39 165 39 166 61 166 83 166 39 167 83 167 84 167 84 168 83 168 63 168 84 169 63 169 37 169 79 170 31 170 80 170 80 171 31 171 85 171 89 172 86 172 46 172 89 173 46 173 87 173 87 174 46 174 47 174 87 175 47 175 88 175 88 176 47 176 85 176 88 177 85 177 31 177 89 178 33 178 86 178 86 179 33 179 43 179 127 180 141 180 90 180 127 181 90 181 129 181 129 182 90 182 91 182 129 183 91 183 114 183 114 184 91 184 92 184 114 185 92 185 115 185 115 186 92 186 159 186 115 187 159 187 113 187 127 188 98 188 141 188 141 189 98 189 97 189 93 190 149 190 95 190 93 191 95 191 94 191 94 192 95 192 147 192 94 193 147 193 138 193 138 194 147 194 145 194 138 195 145 195 123 195 123 196 145 196 144 196 123 197 144 197 125 197 125 198 144 198 143 198 125 199 143 199 96 199 96 200 143 200 97 200 96 201 97 201 98 201 93 202 136 202 149 202 149 203 136 203 106 203 120 204 107 204 156 204 120 205 156 205 130 205 130 206 156 206 99 206 130 207 99 207 100 207 100 208 99 208 154 208 100 209 154 209 101 209 101 210 154 210 153 210 101 211 153 211 132 211 132 212 153 212 103 212 132 213 103 213 102 213 102 214 103 214 105 214 102 215 105 215 104 215 104 216 105 216 106 216 104 217 106 217 136 217 120 218 112 218 107 218 107 219 112 219 111 219 109 220 108 220 110 220 109 221 110 221 117 221 117 222 110 222 158 222 117 223 158 223 119 223 119 224 158 224 111 224 119 225 111 225 112 225 109 226 113 226 108 226 108 227 113 227 159 227 163 228 114 228 161 228 161 229 114 229 115 229 161 230 115 230 179 230 179 231 115 231 113 231 179 232 113 232 116 232 116 233 113 233 109 233 116 234 109 234 177 234 177 235 109 235 117 235 177 236 117 236 118 236 118 237 117 237 119 237 118 238 119 238 172 238 172 239 119 239 112 239 172 240 112 240 174 240 174 241 112 241 120 241 174 242 120 242 121 242 121 243 120 243 130 243 121 244 130 244 122 244 167 245 123 245 166 245 166 246 123 246 125 246 166 247 125 247 124 247 124 248 125 248 96 248 124 249 96 249 126 249 126 250 96 250 98 250 126 251 98 251 128 251 128 252 98 252 127 252 128 253 127 253 163 253 163 254 127 254 129 254 163 255 129 255 114 255 130 256 100 256 122 256 122 257 100 257 101 257 122 258 101 258 131 258 131 259 101 259 132 259 131 260 132 260 133 260 133 261 132 261 102 261 133 262 102 262 134 262 134 263 102 263 104 263 134 264 104 264 135 264 135 265 104 265 136 265 135 266 136 266 169 266 169 267 136 267 93 267 169 268 93 268 137 268 137 269 93 269 94 269 137 270 94 270 167 270 167 271 94 271 138 271 167 272 138 272 123 272 139 273 91 273 162 273 162 274 91 274 90 274 162 275 90 275 140 275 140 276 90 276 141 276 140 277 141 277 164 277 164 278 141 278 97 278 164 279 97 279 142 279 142 280 97 280 143 280 142 281 143 281 165 281 143 282 144 282 165 282 165 283 144 283 145 283 165 284 145 284 146 284 146 285 145 285 147 285 146 286 147 286 148 286 148 287 147 287 95 287 148 288 95 288 168 288 168 289 95 289 149 289 168 290 149 290 150 290 150 291 149 291 106 291 150 292 106 292 151 292 151 293 106 293 105 293 151 294 105 294 152 294 152 295 105 295 103 295 152 296 103 296 170 296 103 297 153 297 170 297 170 298 153 298 154 298 170 299 154 299 171 299 171 300 154 300 99 300 171 301 99 301 155 301 155 302 99 302 156 302 155 303 156 303 157 303 157 304 156 304 107 304 157 305 107 305 173 305 173 306 107 306 111 306 173 307 111 307 175 307 175 308 111 308 158 308 175 309 158 309 176 309 176 310 158 310 110 310 176 311 110 311 178 311 178 312 110 312 108 312 178 313 108 313 160 313 160 314 108 314 159 314 160 315 159 315 139 315 139 316 159 316 92 316 139 317 92 317 91 317 179 318 160 318 139 318 179 319 139 319 161 319 161 320 139 320 162 320 161 321 162 321 163 321 163 322 162 322 140 322 163 323 140 323 128 323 126 324 128 324 164 324 164 325 128 325 140 325 126 326 164 326 142 326 126 327 142 327 124 327 124 328 142 328 165 328 124 329 165 329 166 329 166 330 165 330 146 330 166 331 146 331 167 331 167 332 146 332 148 332 167 333 148 333 137 333 137 334 148 334 168 334 137 335 168 335 169 335 135 336 169 336 150 336 150 337 169 337 168 337 135 338 150 338 151 338 135 339 151 339 134 339 134 340 151 340 152 340 134 341 152 341 133 341 133 342 152 342 170 342 133 343 170 343 131 343 131 344 170 344 171 344 131 345 171 345 122 345 122 346 171 346 155 346 122 347 155 347 121 347 121 348 155 348 157 348 121 349 157 349 174 349 172 350 174 350 173 350 173 351 174 351 157 351 172 352 173 352 175 352 172 353 175 353 118 353 118 354 175 354 176 354 118 355 176 355 177 355 177 356 176 356 178 356 177 357 178 357 116 357 179 358 116 358 160 358 160 359 116 359 178 359</p>
                </triangles>
            </mesh>
        </geometry>
    </library_geometries>
    <library_visual_scenes>
        <visual_scene id="VisualSceneNode" name="VisualScene">
            <node id="node" name="node">
                <instance_geometry url="#shape0-lib">
                    <bind_material>
                        <technique_common/>
                    </bind_material>
                </instance_geometry>
            </node>
        </visual_scene>
    </library_visual_scenes>
    <scene>
        <instance_visual_scene url="#VisualSceneNode"/>
    </scene>
</COLLADA>
